{
  "expr_global_disabled": "Global expressions are now disabled on this server.",
  "expr_global_enabled": "Global expressions are no longer disabled on this server.",
  "expr_deleted": "Expression deleted",
  "expr_insuff_perms": "Insufficient permissions. Requires Bot ownership for global expressions, and Administrator for server expressions.",
  "expressions": "Expressions",
  "expr_new": "New Expression",
  "expr_no_found": "No expression found.",
  "expr_no_found_id": "No expression found with that id.",
  "exprs_cleared": "All {0} expressions on this server have been removed.",
  "expr_reset": "Expression with id {0} will no longer add reactions.",
  "expr_set": "Expression with id {0} will add following reactions to the response message: {1}",
  "invalid_emojis": "All emojis you've specified are invalid.",
  "invalid_emoji_link": "Specified link is either not an image or exceeds 256KB.",
  "emoji_add_error": "Error adding emoji. You either ran out of emoji slots, or image size is inadequate.",
  "emoji_added": "Added a new emoji: {0}",
  "emoji_not_removed": "The following emojis were not removed: {0}",
  "fw_cleared": "Removed all filtered words and filtered words channel settings.",
  "aliases_cleared": "All {0} aliases on this server have been removed.",
  "no_results": "No results found.",
  "vcrole_not_found": "That voice channel doesn't have a VcRole.",
  "aar_disabled": "**Auto assign role** on user join is now **disabled**.",
  "aar_none": "Users don't receive any roles when they join this server.",
  "aar_roles": "The following roles are applied to users that join this server: {0}",
  "aar_role_removed": "Users will no longer receive {0} role when they join this server.",
  "attachments": "Attachments",
  "avatar_changed": "Avatar Changed",
  "autopublish_enable": "All messages posted in this channel will be automatically published.",
  "autopublish_disable": "Messages in this channel will no longer be automatically published.",
  "req_announcement_channel": "This command must be executed in an Announcement channel.",
  "bandm": "You have been banned from {0} server.\nReason: {1}",
  "banmsg_disabled": "Ban messages are disabled. You can enable them by setting a banmsg to something other than '-'.",
  "banmsg_default": "No ban message set. Default behavior will be used.",
  "banned_pl": "banned",
  "banned_user": "User Banned",
  "ban_prune_disabled": "Banned user's messages will no longer be deleted.",
  "ban_prune": "Bot will prune up to {0} day(s) worth of messages from banned user.",
  "timeoutdm": "You have been timed out in {0} server.\nReason: {1}",
  "timedout_user": "User Timed Out",
  "remove_roles_pl": "have had their roles removed",
  "bot_name": "Bot's name changed to {0}",
  "bot_status": "Bot status changed to {0}",
  "byedel_off": "Automatic deletion of bye messages has been disabled.",
  "byedel_on": "Bye messages will be deleted after {0} seconds.",
  "byemsg_cur": "Current bye message: {0}",
  "byemsg_enable": "Enable bye messages by typing {0}",
  "byemsg_new": "New bye message set.",
  "bye_off": "Bye announcements disabled.",
  "bye_on": "Bye announcements enabled on this channel.",
  "ch_name_change": "Channel Name Changed",
  "ch_old_name": "Old Name",
  "ch_topic_change": "Channel Topic Changed",
  "content": "Content",
  "cr": "Successfully created role {0}",
  "dr": "Role {0} has been deleted.",
  "createtextchan": "Text channel {0} created.",
  "createvoich": "Voice channel {0} created.",
  "deafen": "Deafen successful.",
  "delmsg_off": "I will no longer auto-delete messages which successfully execute commands on this server.",
  "delmsg_on": "I will auto-delete messages which successfully execute commands on this server.",
  "delmsg_channel_off": "I will never auto-delete messages which successfully execute commands on this channel.",
  "delmsg_channel_on": "I will always auto-delete messages which successfully execute commands on this channel, regardless of the server setting.",
  "delmsg_channel_inherit": "I will auto-delete messages which successfully execute commands on this channel only if this feature is enabled on the server.",
  "server_delmsgoncmd": "Server Setting",
  "channel_delmsgoncmd": "Channel-Specific Settings",
  "deltextchan": "Text channel {0} deleted.",
  "delvoich": "Voice channel {0} deleted.",
  "dm_from": "DM from",
  "fwall_start": "I will forward DMs to all owners.",
  "fwall_stop": "I will forward DMs only to the first owner.",
  "fwdm_start": "I will forward DMs from now on.",
  "fwdm_stop": "I will stop forwarding DMs from now on.",
  "fwch_start": "Any message sent to bot's DMs will be forwarded to this channel.",
  "fwch_stop": "Messages sent to bot's DMs will no longer be forwarded to this channel.",
  "greetdel_off": "Automatic deletion of greet messages has been disabled.",
  "greetdel_on": "Greet messages will be deleted after {0} seconds.",
  "greetdmmsg_cur": "Current DM greet message: {0}",
  "greetdmmsg_enable": "Enable DM greet messages by typing {0}",
  "greetdmmsg_new": "New DM greet message set.",
  "greetdm_off": "DM greet announcements disabled.",
  "greetdm_on": "DM greet announcements enabled.",
  "greetmsg_cur": "Current greet message: {0}",
  "greetmsg_enable": "Enable greet messages by typing {0}",
  "greetmsg_new": "New greet message set.",
  "greet_off": "Greet announcements disabled.",
  "greet_on": "Greet announcements enabled on this channel.",
  "boost_on": "Boost announcements enabled on this channel.",
  "boost_off": "Boost announcements disabled.",
  "boostmsg_cur": "Current boost message: {0}",
  "boostmsg_enable": "Enable boost messages by typing {0}",
  "boostmsg_new": "New boost message set.",
  "boostdel_off": "Automatic deletion of boost messages has been disabled.",
  "boostdel_on": "Boost messages will be deleted after {0} seconds.",
  "hierarchy": "You can't use this command on users with a role higher or equal than yours (or mine) in the role hierarchy.",
  "role_too_high": "You can't use this command with roles which are above your highest role, unless you're server administrator.",
  "insuf_perms_i": "I have insufficient permissions.",
  "insuf_perms_u": "You have insufficient permissions.",
  "invalid_format": "Invalid input format.",
  "kickdm": "You have been kicked from {0} server.\nReason: {1}",
  "kicked_user": "User kicked",
  "lang_list": "List of languages",
  "lang_set": "Your server's locale is now {0} - {1}",
  "lang_set_bot": "Bot's default locale is now {0} - {1}",
  "lang_set_bot_show": "Bot's language is set to {0} - {1}",
  "lang_set_fail": "Failed setting locale. Revisit this command's help.",
  "lang_set_show": "This server's language is set to {0} - {1}",
  "log": "Logging {0} event in this channel.",
  "log_all": "Logging all events in this channel.",
  "log_disabled": "Logging disabled.",
  "log_events": "Log events you can subscribe to:",
  "log_ignored_channels": "Ignored Channels",
  "log_ignored_users": "Ignored Users",
  "log_ignore_user": "Logging will ignore user {0}",
  "log_not_ignore_user": "Logging will no longer ignore user {0}",
  "log_ignore_chan": "Logging will ignore channel {0}",
  "log_not_ignore_chan": "Logging will no longer ignore channel {0}",
  "log_stop": "Stopped logging {0} event.",
  "message_sent": "Message sent.",
  "msg_not_found": "Message not found.",
  "time_too_long": "Time you've specified is too long.",
  "log_vc_moved": "{0} moved from {1} to {2} voice channel",
  "log_vc_joined": "{0} joined {1} voice channel",
  "log_vc_left": "{0} left {1} voice channel",
  "msg_del": "Message deleted in #{0}",
  "msg_update": "Message updated in #{0}",
  "muted_pl": "Muted",
  "muted_sn": "Muted",
  "mute_error": "I don't have the permission necessary for that most likely.",
  "mute_role_set": "New mute role set.",
  "mute_role": "Current mute role is {0}",
  "mute_perms": "You can't mute a user who has a role higher than your highest role in the role hierarchy unless you're the owner of the server.",
  "new_msg": "New message",
  "new_nick": "New nickname",
  "new_topic": "New topic",
  "nick_change": "Nickname changed",
  "no_shard_id": "No shard with that ID found.",
  "nsfw_set_true": "NSFW has been enabled on this channel.",
  "nsfw_set_false": "NSFW has been disabled on this channel.",
  "old_msg": "Old message",
  "old_nick": "Old nickname",
  "old_topic": "Old topic",
  "prot_active": "Active protections",
  "prot_disable": "{0} has been **disabled** on this server.",
  "prot_enable": "{0} Enabled",
  "prot_none": "No protection enabled.",
  "prot_cant_use_time": "You can't specify duration for this punishment action.",
  "protection_not_running": "{0} protection is not enabled.",
  "raid_cnt": "User threshold must be between {0} and {1}.",
  "raid_stats": "If {0} or more users join within {1} seconds, I will {2} them.",
  "raid_time": "Time must be between {0} and {1} seconds.",
  "anti_alt_status": "Any user joining the server with an account that is not older than {0} will have the following action applied to them: {1}\nPunished so far: {2}",
  "rar": "Successfully removed all roles from user {0}",
  "rar_err": "Failed to remove roles. I have insufficient permissions.",
  "rc": "Color of {0} role has been changed.",
  "rc_perms": "Error occurred due to invalid color or insufficient permissions.",
  "color": "Color",
  "hoisted": "Hoisted",
  "mentionable": "Mentionable",
  "remrole": "Successfully removed role {0} from user {1}",
  "remrole_err": "Failed to remove role. I have insufficient permissions.",
  "renrole": "Role renamed.",
  "renrole_err": "Failed to rename role. I have insufficient permissions.",
  "renrole_perms": "You can't edit roles higher than either your, or my highest role.",
  "reprm": "Removed the playing message: {0}",
  "role_added": "Role {0} has been added to the list in group {1}.",
  "role_in_list": "Role {0} is already in the list.",
  "ropl_added": "Added.",
  "ropl_disabled": "Rotating playing status disabled.",
  "ropl_enabled": "Rotating playing status enabled.",
  "ropl_list": "Here is a list of rotating statuses:\n{0}",
  "ropl_not_set": "No rotating playing statuses set.",
  "self_assign_already": "You already have {0} role.",
  "self_assign_excl": "Self assigned roles are now exclusive!",
  "self_assign_list": "There are {0} self assignable roles",
  "self_assign_not": "That role is not self-assignable.",
  "self_assign_not_have": "You don't have {0} role.",
  "self_assign_no_excl": "Self assigned roles are now not exclusive!",
  "self_assign_perms": "I am unable to add that role to you. `I can't add roles to owners or other roles higher than my role in the role hierarchy.`",
  "self_assign_rem": "{0} has been removed from the list of self-assignable roles.",
  "self_assign_remove": "You no longer have {0} role.",
  "self_assign_success": "You now have {0} role.",
  "adsarm_enable": "Automatic deletion of `{0}iam` and `{0}iamn` responses has been enabled.",
  "adsarm_disable": "Bot will no longer delete `{0}iam` and `{0}iamn` responses.",
  "setrole": "Successfully added role {0} to user {1}",
  "setrole_err": "Failed to add role. I have insufficient permissions.",
  "set_avatar": "New avatar set!",
  "set_channel_name": "New channel name set.",
  "set_game": "New game set!",
  "set_stream": "New stream set!",
  "set_topic": "New channel topic set.",
  "shard_reconnecting": "Shard {0} reconnecting.",
  "shutting_down": "Shutting down",
  "soft_banned_pl": "soft-banned",
  "spam_ignore": "{0} will ignore this channel.",
  "spam_not_ignore": "{0} will no longer ignore this channel.",
  "spam_stats": "If a user posts {0} same messages in a row, I will {1} them.\n    __IgnoredChannels__: {2}",
  "text_chan_created": "Text channel created.",
  "text_chan_destroyed": "Text channel destroyed.",
  "duration": "Duration",
  "undeafen": "Undeafen successful.",
  "unmuted_sn": "Unmuted",
  "unable_to_dm_user": "DMing user failed.",
  "username": "Username",
  "username_changed": "Username changed",
  "user_banned": "User banned",
  "user_chat_mute": "{0} has been **muted** from chatting.",
  "user_chat_unmute": "{0} has been **unmuted** from chatting.",
  "user_joined": "User joined",
  "user_left": "User left",
  "user_muted": "{0} has been **muted** from text and voice chat.",
  "user_role_add": "User's role added",
  "user_role_rem": "User's  role removed",
  "user_status_change": "{0} is now {1}",
  "user_unmuted": "{0} has been **unmuted** from text and voice chat.",
  "user_vjoined": "{0} has joined {1} voice channel.",
  "user_vleft": "{0} has left {1} voice channel.",
  "user_vmoved": "{0} moved from {1} to {2} voice channel.",
  "user_voice_mute": "{0} has been **voice muted**.",
  "user_voice_unmute": "{0} has been **voice unmuted**.",
  "voice_chan_created": "Voice channel created",
  "voice_chan_destroyed": "Voice channel destroyed",
  "xmuted_text": "User {0} from text chat by {1}",
  "xmuted_text_and_voice": "User {0} from text and voice chat by {1}",
  "xmuted_voice": "User {0} from voice chat {1}",
  "sbdm": "You have been soft-banned from {0} server.\nReason: {1}",
  "user_unbanned": "User unbanned",
  "presence_updates": "Presence updates",
  "sb_user": "User soft-banned",
  "awarded": "has awarded {0} to {1}",
  "better_luck": "Better luck next time ^_^",
  "br_win": "Congratulations! You won {0} for rolling above {1}",
  "deck_reshuffled": "Deck reshuffled.",
  "flipped": "Flipped {0}",
  "flip_guess": "You guessed it! You won {0}",
  "flip_invalid": "Invalid number specified. You can flip 1 to {0} coins.",
  "flip_results": "Flipped {0} coins. {1} heads, {2} tails.",
  "cards_left": "{0} cards left in the deck.",
  "cards": "Cards",
  "hand_value": "Hand value",
  "gifted": "has gifted {0} to {1}",
  "has": "{0} has {1}",
  "heads": "Head",
  "mass_award": "Awarded {0} to {1} users from {2} role.",
  "mass_take": "Taken {0} from {1} users in {2} role.",
  "max_bet_limit": "You can't bet more than {0}",
  "min_bet_limit": "You can't bet less than {0}",
  "not_enough": "You don't have enough {0}",
  "no_more_cards": "No more cards in the deck.",
  "raffled_user": "Raffled user",
  "roll2": "Roll",
  "rolls": "Rolls",
  "slot_jackpot": "WOAAHHHHHH!!! Congratulations!!! x{0}",
  "slot_single": "A single {0}, x{1}",
  "slot_three": "Wow! Lucky! Three of a kind! x{0}",
  "slot_two": "Good job! Two {0} - bet x{1}",
  "available_tests": "Available Tests",
  "test_results_for": "Test results for {0}",
  "won": "Won",
  "multiplier": "Multiplier",
  "tails": "Tail",
  "take": "successfully took {0} from {1}",
  "take_fail": "was unable to take {0} from {1} because the user doesn't have that much {2}!",
  "transactions": "Transactions of user {0}",
  "transaction": "Currency Transaction",
  "commandlist_regen": "Commandlist regenerated.",
  "commands_instr": "Type `{0}h CommandName` to see the help for that specified command. e.g. `{0}h {0}8ball`",
  "command_not_found": "I can't find that command. Please verify that the command exists before trying again.",
  "desc": "Description",
  "cant_dm": "I can't dm you. Make sure your DMs are open. Go to **options (cog button) -> Privacy & Safety -> Allow direct messages from server members**",
  "guide": "**List of commands**: <{0}>\n**Hosting guides and docs can be found here**: <{1}>",
  "list_of_modules": "List of modules",
  "module_not_found": "That module does not exist.",
  "module_not_found_or_cant_exec": "Either the module doesn't exist, or you can't run any of the commands in the specified module.",
  "usage": "Usage",
  "options": "Options",
  "requires": "Requires",
  "animal_race": "Animal race",
  "animal_race_failed": "Failed to start since there was not enough participants.",
  "animal_race_full": "Race is full! Starting immediately.",
  "animal_race_join": "{0} joined as a {1}",
  "animal_race_join_bet": "{0} joined as a {1} and bet {2}!",
  "animal_race_join_instr": "Type {0}jr to join the race.",
  "animal_race_starting": "Starting in {0} seconds or when the room is full.",
  "animal_race_starting_with_x": "Starting with {0} participants.",
  "animal_race_won": "{0} as {1} Won the race!",
  "animal_race_won_money": "{0} as {1} Won the race and {2}!",
  "dice_invalid_number": "Invalid number specified. You can roll {0}-{1} dice at once.",
  "dice_rolled": "rolled {0}",
  "dice_rolled_num": "Dice rolled: {0}",
  "race_not_exist": "No race exists on this server",
  "second_larger_than_first": "Second number must be larger than the first one.",
  "changes_of_heart": "Changes of heart",
  "claimed_by": "Claimed by",
  "divorces": "Divorces",
  "likes": "Likes",
  "waifu": "Waifu",
  "waifus_none": "No waifus have been claimed yet.",
  "waifus_top_waifus": "Top Waifus",
  "waifu_affinity_already": "your affinity is already set to that waifu or you're trying to remove your affinity while not having one.",
  "waifu_affinity_changed": "changed their affinity from {0} to {1}.\n\n*This is morally questionable.*🤔",
  "waifu_affinity_cooldown": "You must wait {0} hours and {1} minutes in order to change your affinity again.",
  "waifu_affinity_reset": "Your affinity is reset. You no longer have a person you like.",
  "waifu_affinity_set": "wants to be {0}'s waifu. Aww <3",
  "waifu_claimed": "claimed {0} as their waifu for {1}!",
  "waifu_divorced_like": "You have divorced a waifu who likes you. You heartless monster.\n{0} received {1} as a compensation.",
  "waifu_egomaniac": "you can't set affinity to yourself, you egomaniac.",
  "waifu_fulfilled": "🎉 Their love is fulfilled! 🎉\n{0}'s new value is {1}!",
  "waifu_isnt_cheap": "No waifu is that cheap. You must pay at least {0} to get a waifu, even if their actual value is lower.",
  "waifu_not_enough": "You must pay {0} or more to claim that waifu!",
  "waifu_not_yours": "That waifu is not yours.",
  "waifu_not_yourself": "You can't claim yourself.",
  "waifu_recent_divorce": "You divorced recently. You must wait {0} hours and {1} minutes to divorce again.",
  "waifu_transfer_fail": "You're either not the owner of that waifu, or you can't afford it. Alternatively your input is invalid.",
  "waifu_transfer_success": "Claim on {0} has been transfered from {1} to {2}",
  "nobody": "Nobody",
  "waifu_divorced_notlike": "You have divorced a waifu who doesn't like you. You received {0} back.",
  "waifu_reset": "Your waifu stats have been reset.",
  "waifu_reset_fail": "Failed resetting waifu stats. Make sure you have enough currency.",
  "waifu_reset_confirm": "This will reset your waifu stats",
  "waifu_reset_price": "Price: {0}",
  "_8ball": "8ball",
  "acrophobia": "Acrophobia",
  "acro_ended_no_sub": "Game ended with no submissions.",
  "acro_no_votes_cast": "No votes cast. Game ended with no winner.",
  "acro_nym_was": "Acronym was {0}.",
  "acro_running": "Acrophobia game is already running in this channel.",
  "acro_started": "Game started. Create a sentence with the following acronym: {0}.",
  "acro_started_footer": "You have {0} seconds to make a submission.",
  "acro_vote": "Vote by typing a number of the submission",
  "acro_vote_cast": "{0} cast their vote!",
  "acro_winner": "Winner is {0} with {1} points.",
  "acro_winner_only": "{0} is the winner for being the only user who made a submission!",
  "question": "Question",
  "rps_draw": "It's a draw! Both picked {0}",
  "rps_win": "{0} won! {1} beats {2}",
  "submissions_closed": "Submissions closed",
  "animal_race_already_started": "Animal Race is already running.",
  "category": "Category",
  "cleverbot_disabled": "Disabled cleverbot on this server.",
  "cleverbot_enabled": "Enabled cleverbot on this server.",
  "curgen_disabled": "Currency generation has been disabled on this channel.",
  "curgen_enabled": "Currency generation has been enabled on this channel.",
  "curgen_pl": "{0} random {1} appeared!",
  "curgen_sn": "A random {0} appeared!",
  "game_started": "Game started",
  "hangman_game_started": "Hangman game started",
  "hangman_running": "Hangman game already running on this channel.",
  "hangman_types": "List of \"{0}hangman\" term types:",
  "leaderboard": "Leaderboard",
  "picked": "picked {0}",
  "planted": "{0} planted {1}",
  "trivia_already_running": "Trivia game is already running on this server.",
  "trivia_game": "Trivia Game",
  "trivia_guess": "{0} guessed it! The answer was: {1}",
  "trivia_none": "No trivia is running on this server.",
  "trivia_points": "{0} has {1} points",
  "trivia_stopping": "Stopping after this question.",
  "trivia_times_up": "Time's up! The correct answer was {0}",
  "trivia_win": "{0} guessed it and WON the game! The answer was: {1}",
  "trivia_quit": "You can stop trivia by typing {0}",
  "trivia_ended": "Trivia game ended",
  "ttt_against_yourself": "You can't play against yourself.",
  "ttt_already_running": "TicTacToe Game is already running in this channel.",
  "ttt_a_draw": "A draw!",
  "ttt_created": "has created a game of TicTacToe.",
  "ttt_has_won": "{0} has won!",
  "ttt_matched_three": "Matched three",
  "ttt_no_moves": "No moves left!",
  "ttt_time_expired": "Time expired!",
  "ttt_users_move": "{0}'s move",
  "vs": "{0} vs {1}",
  "attempting_to_queue": "Attempting to queue {0} tracks...",
  "dir_queue_complete": "Directory queue complete.",
  "finished_track": "Track Finished",
  "from_position": "From position",
  "id": "Id",
  "now_playing": "Now playing",
  "no_player": "No active music player.",
  "no_search_results": "No search results.",
  "player_queue": "Player queue - Page {0}/{1}",
  "playing_track": "Playing track #{0}",
  "playlists": "`#{0}` - **{1}** by *{2}* ({3} tracks)",
  "playlists_page": "Page {0} of saved playlists",
  "playlist_deleted": "Playlist deleted.",
  "playlist_delete_fail": "Failed to delete that playlist. It either doesn't exist, or you are not its author.",
  "playlist_id_not_found": "Playlist with that ID doesn't exist.",
  "playlist_queue_complete": "Playlist queue complete.",
  "playlist_saved": "Playlist saved",
  "queue": "Queue",
  "queued_track": "Queued track",
  "queue_cleared": "Music queue cleared.",
  "removed_track": "Removed track",
  "repeating_none": "Player will stop once the end of queue is reached.",
  "repeating_queue": "Player will repeat the queue.",
  "repeating_track": "Player will keep repeating the same track.",
  "autoplaying": "Automatically adds related tracks.",
  "set_music_channel": "I will now output playing, finished, paused and removed tracks in this channel.",
  "unset_music_channel": "I will now output playing, finished, paused and removed tracks of the newly created music players in the channel music was started from.",
  "current_music_quality": "Currently set music quality is: {0}",
  "music_quality_set": "Music quality has been set to {0}. You will have to destroy and restart music player for the change to take effect.",
  "music_autoplay_on": "Music autoplay enabled. I will automatically queue related tracks after each track finishes playing.",
  "music_autoplay_off": "Music autoplay disabled.",
  "track_moved": "Track moved",
  "to_position": "To position",
  "volume_input_invalid": "Volume must be between 0 and 100",
  "volume_set": "Volume set to {0}%",
  "acm_disable": "Disabled usage of ALL MODULES on channel {0}.",
  "acm_enable": "Enabled usage of ALL MODULES on channel {0}.",
  "arm_disable": "Disabled usage of ALL MODULES for role {0}.",
  "arm_enable": "Enabled usage of ALL MODULES for role {0}.",
  "asm_disable": "Disabled usage of ALL MODULES on this server.",
  "asm_enable": "Enabled usage of ALL MODULES on this server.",
  "aum_disable": "Disabled usage of ALL MODULES for user {0}.",
  "aum_enable": "Enabled usage of ALL MODULES for user {0}.",
  "blacklisted": "Blacklisted {0} with ID {1}",
  "blacklisted_users": "Blacklisted Users",
  "blacklisted_channels": "Blacklisted Channels",
  "blacklisted_servers": "Blacklisted Servers",
  "cmdcd_add": "Command {0} now has a {1}s cooldown.",
  "cmdcd_cleared": "Command {0} has no cooldown now and all existing cooldowns have been cleared.",
  "cmdcd_none": "No command cooldowns set.",
  "cx_disable": "Disabled usage of {0} {1} on channel {2}.",
  "cx_enable": "Enabled usage of {0} {1} on channel {2}.",
  "filter_word_add": "Added word {0} to the list of filtered words.",
  "filter_word_list": "List of filtered words",
  "filter_word_remove": "Removed word {0} from the list of filtered words.",
  "invalid_second_param_between": "Invalid second parameter.(Must be a number between {0} and {1})",
  "invite_filter_channel_off": "Invite filtering disabled on this channel.",
  "invite_filter_channel_on": "Invite filtering enabled on this channel.",
  "invite_filter_server_off": "Invite filtering disabled on this server.",
  "invite_filter_server_on": "Invite filtering enabled on this server.",
  "link_filter_channel_off": "Link filtering disabled on this channel.",
  "link_filter_channel_on": "Link filtering enabled on this channel.",
  "link_filter_server_off": "Link filtering disabled on this server.",
  "link_filter_server_on": "Link filtering enabled on this server.",
  "moved_permission": "Moved permission {0} from #{1} to #{2}",
  "perm_not_found": "Can't find permission at index #{0}",
  "of_command": "command",
  "of_module": "module",
  "permrole": "Current permissions role is {0}.",
  "permrole_not_set": "Permission role is not set.",
  "permrole_reset": "Permission role is reset.",
  "permrole_changed": "Users now require {0} role in order to edit permissions.",
  "perm_out_of_range": "No permission found on that index.",
  "removed": "removed permission #{0} - {1}",
  "rx_disable": "Disabled usage of {0} {1} for {2} role.",
  "rx_enable": "Enabled usage of {0} {1} for {2} role.",
  "sx_disable": "Disabled usage of {0} {1} on this server.",
  "sx_enable": "Enabled usage of {0} {1} on this server.",
  "unblacklisted": "Unblacklisted {0} with ID {1}",
  "uneditable": "uneditable",
  "ux_disable": "Disabled usage of {0} {1} for {2} user.",
  "ux_enable": "Enabled usage of {0} {1} for {2} user.",
  "verbose_false": "I will no longer show permission warnings.",
  "verbose_true": "I will now show permission warnings.",
  "word_filter_channel_off": "Word filtering disabled on this channel.",
  "word_filter_channel_on": "Word filtering enabled on this channel.",
  "word_filter_server_off": "Word filtering disabled on this server.",
  "word_filter_server_on": "Word filtering enabled on this server.",
  "abilities": "Abilities",
  "anime_no_fav": "No favorite anime yet",
  "atl_removed": "your auto-translate language has been removed.",
  "atl_set": "Your auto-translate language has been set to {0}>{1}",
  "atl_started": "Started automatic translation of messages on this channel.",
  "atl_stopped": "Stopped automatic translation of messages on this channel.",
  "atl_not_enabled": "Automatic translation is not enabled on this channel or you've provided an invalid language.",
  "bad_input_format": "Bad input format, or something went wrong.",
  "card_not_found": "Couldn't find that card.",
  "card": "Card",
  "guess": "Guess",
  "catfact": "fact",
  "chapters": "Chapters",
  "comic_number": "Comic #",
  "comic_not_found": "Comic not found.",
  "completed": "Completed",
  "condition": "Condition",
  "cost": "Cost",
  "date": "Date",
  "word": "Word",
  "_class": "Class",
  "definition": "Definition",
  "example": "Example",
  "dropped": "Dropped",
  "episodes": "Episodes",
  "error_occured": "Error occurred.",
  "api_key_missing": "Api key missing.",
  "invalid_input": "Invalid input.",
  "not_found": "Not found.",
  "failed_finding_anime": "Failed finding that anime.",
  "failed_finding_manga": "Failed finding that manga.",
  "genres": "Genres",
  "authors": "Authors",
  "height_weight": "Height/Weight",
  "height_weight_val": "{0}m/{1}kg",
  "humidity": "Humidity",
  "imdb_fail": "Failed to find that movie.",
  "invalid_lang": "Invalid source or target language.",
  "jokes_not_loaded": "Jokes not loaded.",
  "latlong": "Lat/Long",
  "list_of_place_tags": "List of {0}place tags",
  "location": "Location",
  "city_not_found": "City not found.",
  "magicitems_not_loaded": "Magic Items not loaded.",
  "mal_profile": "{0}'s MAL profile",
  "mashape_api_missing": "Bot owner didn't specify MashapeApiKey. You can't use this functionality.",
  "min_max": "Min/Max",
  "no_channel_found": "No channel found.",
  "on_hold": "On-hold",
  "original_url": "Original url",
  "osu_api_key": "An osu! API key is required.",
  "osu_failed": "Failed retrieving osu! signature.",
  "osu_user_not_found": "User not found.",
  "plan_to_watch": "Plan to watch",
  "pokemon_ability_none": "No ability found.",
  "pokemon_none": "No pokemon found.",
  "rating": "Rating",
  "score": "Score:",
  "short_url": "Short url",
  "something_went_wrong": "Something went wrong.",
  "specify_search_params": "Please specify search parameters.",
  "status": "Status",
  "store_url": "Store url",
  "streamer_offline": "Streamer {0} is offline.",
  "streamer_online": "Streamer {0} is online with {1} viewers.",
  "streams_follow_title": "Streams you're following",
  "streams_none": "You are not following any streams on this server.",
  "streams_cleared": "All streams followed on this server have been removed.",
  "stream_no": "No such stream.",
  "stream_off_enabled": "Stream notifications will now show when a stream goes offline.",
  "stream_off_disabled": "Stream notifications will no longer show when a stream goes offline.",
  "stream_online_delete_enabled": "Online stream notifications will now be deleted when the stream goes offline.",
  "stream_online_delete_disabled": "Online stream notifications will no longer be deleted when the stream goes offline.",
  "stream_not_added": "Stream was not added. Either stream doesn't exist, that platform is unsupported, or you've reached the maximum number of streams allowed.",
  "stream_message_reset": "Announcement message for {0} stream has been reset.",
  "stream_message_set": "Announcement message when {0} stream goes online has been set.",
  "stream_not_following": "You're not following that stream on this server.",
  "stream_removed": "Removed {0}'s stream ({1}) from notifications.",
  "stream_tracked": "I will notify this channel whenever this stream comes online.",
  "stream_not_following_any": "You're not following any streams.",
  "stream_message_set_all": "All {0} followed streams now have the specified announcement message.",
  "sunrise": "Sunrise",
  "sunset": "Sunset",
  "temperature": "Temperature",
  "title": "Title:",
  "top_3_fav_anime": "Top 3 favorite anime:",
  "translation": "Translation:",
  "types": "Types",
  "ud_error": "Failed finding definition for that term.",
  "url": "Url",
  "viewers": "Viewers",
  "watching": "Watching",
  "wikia_error": "Failed finding that term on the specified wikia.",
  "wikia_input_error": "Please enter a target wikia, followed by search query.",
  "wiki_page_not_found": "Page not found.",
  "wind_speed": "Wind speed",
  "activity_line": "`{0}.` {1} [{2:F2}/s] - {3} total",
  "activity_page": "Activity page #{0}",
  "activity_users_total": "{0} users total.",
  "author": "Author",
  "botid": "Bot ID",
  "calcops": "List of functions in {0}calc command",
  "channelid": "{0} of this channel is {1}",
  "channel_topic": "Channel topic",
  "commands_ran": "Commands ran",
  "convert": "{0} {1} is equal to {2} {3}",
  "convertlist": "Units which can be used by the converter",
  "convert_not_found": "Cannot convert {0} to {1}: units not found",
  "convert_type_error": "Cannot convert {0} to {1}: types of unit are not equal",
  "created_at": "Created at",
  "custom_emojis": "Custom emojis",
  "error": "Error",
  "features": "Features",
  "index_out_of_range": "Index out of range.",
  "inrole_list": "List of users in {0} role ({1})",
  "joined_discord": "Joined Discord",
  "joined_server": "Joined server",
  "listservers": "ID: {0}\nMembers: {1}\nOwner ID: {2}",
  "listservers_none": "No servers found on that page.",
  "list_of_repeaters": "List of repeaters",
  "members": "Members",
  "memory": "Memory",
  "messages": "Messages",
  "repeater_created": "Repeater Created",
  "repeater_removed": "Repeater #{0} Removed",
  "repeater_exceed_limit": "You cannot have more than {0} repeaters per server.",
  "repeater_remove_fail": "Failed removing repeater on that index. Either you've specified invalid index, or repeater was in executing state at that time, in which case, try again in a few seconds.",
  "repeater_skip_next": "Next trigger of this repeater will be skipped.",
  "repeater_dont_skip_next": "Next trigger of this repeater won't be skipped.",
  "interval_colon": "Interval:",
  "executes_in_colon": "Executes in:",
  "message_colon": "Message:",
  "no_redundant": "Won't post duplicate message.",
  "name": "Name",
  "nickname": "Nickname",
  "nobody_playing_game": "Nobody is playing that game.",
  "no_roles_on_page": "No roles on this page.",
  "no_shards_on_page": "No shards on this page.",
  "no_topic_set": "No topic set.",
  "owner": "Owner",
  "owner_ids": "Owner IDs",
  "presence": "Presence",
  "presence_txt": "{0} Servers\n{1} Text Channels\n{2} Voice Channels",
  "quotes_deleted": "Deleted all quotes with {0} keyword.",
  "quotes_deleted_count": "Deleted {0} quotes.",
  "quotes_page": "Page {0} of quotes",
  "quotes_page_none": "No quotes found on that page.",
  "quotes_remove_none": "No quotes found which you can remove.",
  "quote_added_new": "Quote #{0} added.",
  "quote_deleted": "Quote #{0} deleted.",
  "region": "Region",
  "remind": "I will remind {0} to {1} in {2} `({3:d.M.yyyy.} at {4:HH:mm})`",
  "remind_timely": "I will remind you about your timely reward {0}",
  "remind_invalid": "Not a valid remind format. Remind must have a target, timer and a reason. Check the command list.",
  "remind_too_long": "Remind time has exceeded maximum.",
  "repeater_redundant_no": "Repeater **#{0}** won't post redundant messages anymore.",
  "repeater_redundant_yes": "Repeater **#{0}** will post redundant messages from now on.",
  "repeaters_none": "No repeaters running on this server.",
  "repeat_invoke_none": "No repeating messages found on this server.",
  "result": "Result",
  "roles": "Roles",
  "roles_all_page": "Page #{0} of all roles on this server:",
  "roles_page": "Page #{0} of roles for {1}",
  "serverid": "{0} of this server is {1}",
  "server_info": "Server info",
  "shard": "Shard",
  "showemojis": "**Name:** {0} **Link:** {1}",
  "showemojis_none": "No special emojis found.",
  "channels": "Channels",
  "text_channels": "Text: {0}",
  "voice_channels": "Voice: {0}",
  "uptime": "Uptime",
  "userid": "{0} of the user {1} is {2}",
  "roleid": "{0} of the role {1} is {2}",
  "users": "Users",
  "current_poll_results": "Current poll results",
  "poll_already_running": "Poll is already running on this server.",
  "poll_created": "📃 {0} has created a poll",
  "poll_result": "`{0}.` {1} with {2} votes.",
  "poll_voted": "{0} voted.",
  "poll_invalid_input": "Invalid input. You have to have a question and at least 2 answers, all separated by a `;`.",
  "x_votes_cast": "{0} total votes cast.",
  "pick_pl": "Pick them up by typing `{0}pick`",
  "pick_sn": "Pick it up by typing `{0}pick`",
  "no_user_on_this_page": "No users on this page.",
  "sql_confirm_exec": "Confirm execution of the following SQL command",
  "must_be_in_voice": "You need to be in a voice channel on this server.",
  "no_vcroles": "There are no voice channel roles.",
  "user_muted_time": "{0} has been **muted** from text and voice chat for {1} minutes.",
  "user_voice_mute_time": "{0} has been **voice muted** for {1} minutes.",
  "user_chat_mute_time": "{0} has been **chat muted** for {1} minutes.",
  "vcrole_added": "Users who join {0} voice channel will get {1} role.",
  "vcrole_removed": "Users who join {0} voice channel will no longer get a role.",
  "vc_role_list": "Voice channel roles",
  "option_disabled": "{0} option is now disabled for the expression with id {1}.",
  "option_enabled": "{0} option is now enabled for the expression with id {1}.",
  "aliases_none": "No alias found",
  "alias_added": "Typing {0} will now be an alias of {1}.",
  "alias_list": "List of aliases",
  "alias_removed": "Trigger {0} no longer has an alias.",
  "alias_remove_fail": "Trigger {0} didn't have an alias.",
  "channel": "Channel",
  "cant_apply_punishment": "Can't apply punishment. Please make sure I have sufficient permissions, and that my role is above any other role in the server settings.",
  "punishment_unsupported": "You can't use {0} punishment action with this feature.",
  "command_text": "Command Text",
  "interval": "Interval",
  "kicked_pl": "Kicked",
  "moderator": "Moderator",
  "page": "page {0}",
  "reason": "Reason",
  "scadd": "New startup command added.",
  "scrm": "Startup command successfully removed.",
  "scrm_fail": "Startup command not found.",
  "acrm_fail": "Auto command not found on the specified index.",
  "autocmd_add": "The command {0} will execute every {1}s in this channel.",
  "server": "Server",
  "startcmdlist_none": "No startup commands on this page.",
  "autocmdlist_none": "No auto commands on this page.",
  "startcmds_cleared": "Cleared all startup commands.",
  "unbanned_user": "User {0} has been unbanned.",
  "user_not_found": "User not found.",
  "user_warned": "User {0} has been warned.",
  "user_warned_and_punished": "User {0} has been warned and {1} punishment has been applied.",
  "warned_on": "Warned on {0} server",
  "warned_on_by": "On {0} at {1} by {2}",
  "warnings_cleared": "All warnings have been cleared for {0}.",
  "warning_clear_fail": "Warning not cleared. Either the warning at that index doesn't exist, or it has already been cleared.",
  "warning_cleared": "Warning {0} has been cleared for {1}.",
  "warnings_none": "No warning on this page.",
  "warn_weight": "Weight: {0}",
  "warn_count": "{0} current, {1} total",
  "warnlog_for": "Warnlog for {0}",
  "warnpl_none": "No punishments set.",
  "warn_expire_set_delete": "Warnings will be deleted after {0} days.",
  "warn_expire_set_clear": "Warnings will be cleared after {0} days.",
  "warn_expire_reset": "Warnings will no longer expire.",
  "warns_dont_expire": "Warnings have no expiry set.",
  "warns_expire_in": "Warnings will expire in {0} days.",
  "warn_cleared_by": "cleared by {0}",
  "warn_punish_list": "Warning punishment list",
  "warn_punish_rem": "Having {0} warnings will no longer trigger a punishment.",
  "warn_punish_set": "I will apply {0} punishment to users with {1} warnings.",
  "warn_punish_set_timed": "I will apply {0} punishment for {2} to users with {1} warnings.",
  "time_new": "Time",
  "timezone": "Timezone",
  "timezone_db_api_key": "You need to activate your TimezoneDB API key. You can do so by clicking on the link you've received in the email with your API key.",
  "rolehoist_enabled": "Role {0} is now displayed separately from online members.",
  "rolehoist_disabled": "Role {0} is no longer displayed separately from online members.",
  "shop": "Shop",
  "shop_item_add": "Shop item added",
  "shop_none": "No shop items found on this page.",
  "shop_role": "You will get {0} role.",
  "type": "Type",
  "gvc_disabled": "Game Voice Channel feature has been disabled on this server.",
  "gvc_enabled": "{0} is a Game Voice Channel now.",
  "not_in_voice": "You are not in a voice channel on this server.",
  "not_with_bot_in_voice": "You are not in the same voice channel as the bot.",
  "item": "Item",
  "out_of_stock": "Out of stock.",
  "random_unique_item": "Random unique item.",
  "shop_buy_error": "Error DMing item. You've been refunded.",
  "shop_item_not_found": "No item on that index found.",
  "shop_item_purchase": "Item purchase successful.",
  "shop_item_rm": "Shop item removed",
  "shop_item_wrong_type": "That shop entry does not support item adding.",
  "shop_list_item_added": "Item successfully added.",
  "shop_list_item_not_unique": "That item is already added.",
  "shop_purchase": "Purchase on {0} server",
  "shop_role_not_found": "Role which is being sold no longer exists.",
  "shop_role_already_bought": "You already bought this role.",
  "shop_role_purchase": "You've successfully purchased {0} role.",
  "shop_role_purchase_error": "Error assigning role. Your purchase has been refunded.",
  "shop_item_role_req": "Shop item #{0} will now require users to have a {1} role in order to purchase it.",
  "shop_item_req_role_unfulfilled": "You don't have the required role '{0}' in order to buy this shop item.",
  "shop_item_req_role_not_found": "The required role for this item doesn't exist anymore. Please contact server administrator.",
  "shop_item_requires_role": "Requires {0} role to purchase",
  "shop_item_role_no_req": "Shop item #{0} will no longer require a role.",
  "unique_items_left": "{0} unique items left.",
  "blocked_commands": "Blocked Commands",
  "blocked_modules": "Blocked Modules",
  "gcmd_add": "Command {0} has been disabled on all servers.",
  "gcmd_remove": "Command {0} has been enabled on all servers.",
  "gmod_add": "Module {0} has been disabled on all servers.",
  "gmod_remove": "Module {0} has been enabled on all servers.",
  "lgp_none": "No blocked commands or modules.",
  "cant_read_or_send": "You can't read from or send messages to that channel.",
  "quotes_notfound": "No quotes found matching the quote ID specified.",
  "prefix_current": "Prefix on this server is {0}",
  "prefix_new": "Changed prefix on this server from {0} to {1}",
  "defprefix_current": "Default bot prefix is {0}",
  "defprefix_new": "Changed Default bot prefix from {0} to {1}",
  "bot_nick": "Bot's nickname changed to {0}",
  "user_nick": "Nickname of the user {0} changed to {1}",
  "timezone_guild": "Timezone for this guild is `{0}`",
  "timezone_not_found": "Timezone not found. Use \"timezones\" command to see the list of available timezones.",
  "timezones_available": "Available Timezones",
  "perm_override": "Users will need {0} permission in order to run {1} command.",
  "track_not_found": "No track found.",
  "define_unknown": "Can't find the definition for that term.",
  "verbose_errors_enabled": "Incorrectly used commands will now show errors.",
  "verbose_errors_disabled": "Incorrectly used commands will no longer show errors.",
  "perms_reset": "Permissions for this server are reset.",
  "perm_prevent": "Permission number #{0} {1} is preventing this action.",
  "global_perms_reset": "Global permissions have been reset.",
  "module": "Module: {0}",
  "hangman_stopped": "Hangman game stopped.",
  "queue_stopped": "Player is stopped. Use {0} command to start playing.",
  "removed_track_error": "Track on that index doesn't exist",
  "queue_shuffled": "Music queue has been shuffled.",
  "warnings_list": "List of all warned users on the server",
  "redacted_too_long": "Redacted because it's too long.",
  "blacklisted_tag_list": "List of blacklisted tags:",
  "blacklisted_tag_add": "Nsfw tag {0} is now blacklisted.",
  "blacklisted_tag_remove": "Nsfw tag {0} is no longer blacklisted.",
  "waifu_gift": "Gifted {0} to {1}",
  "waifu_gift_not_exist": "That waifu item doesn't exist",
  "waifu_gift_shop": "Waifu gift shop",
  "gifts": "Gifts",
  "fans": "Fans ({0})",
  "connect4_created": "Created a Connect4 game. Waiting for a player to join.",
  "connect4_created_bet": "Created a Connect4 game and bet {0}. Waiting for a player to join with the same bet.",
  "connect4_player_to_move": "Player to move: {0}",
  "connect4_failed_to_start": "Connect4 game failed to start because nobody joined.",
  "connect4_draw": "Connect4 game ended in a draw.",
  "connect4_won": "{0} won the game of Connect4 against {1}.",
  "nunchi_joined": "Joined nunchi game. {0} users joined so far.",
  "nunchi_ended": "Nunchi game ended. {0} won",
  "nunchi_ended_no_winner": "Nunchi game ended with no winner.",
  "nunchi_started": "Nunchi game started with {0} participants.",
  "nunchi_round_ended": "Nunchi round ended. {0} is out of the game.",
  "nunchi_round_ended_boot": "Nunchi round ended due to timeout of some users. These users are still in the game: {0}",
  "nunchi_round_started": "Nunchi round started with {0} users. Start counting from the number {1}.",
  "nunchi_next_number": "Number registered. Last number was {0}.",
  "nunchi_failed_to_start": "Nunchi failed to start because there were not enough participants.",
  "nunchi_created": "Nunchi game created. Waiting for users to join.",
  "stream_role_enabled": "When a user from {0} role starts streaming, I will give them {1} role.",
  "stream_role_disabled": "Stream role feature has been disabled.",
  "stream_role_kw_set": "Streamers now require {0} keyword in order to receive the role.",
  "stream_role_kw_reset": "Stream role keyword reset.",
  "stream_role_bl_add": "User {0} will never receive the stream role.",
  "stream_role_bl_add_fail": "User {0} is already blacklisted.",
  "stream_role_bl_rem": "User {0} is no longer blacklisted.",
  "stream_role_bl_rem_fail": "User {0} is not blacklisted.",
  "stream_role_wl_add": "User {0} will receive the stream role even if they don't have the keyword in the stream title.",
  "stream_role_wl_add_fail": "User {0} is already whitelisted.",
  "stream_role_wl_rem": "User {0} is no longer whitelisted.",
  "stream_role_wl_rem_fail": "User {0} is not whitelisted.",
  "config_edit_fail": "Failed setting {0} to the value {1}",
  "config_not_found": "Configuration {0} not found",
  "config_prop_not_found": "Property {0} not found on {1} configuration",
  "config_list": "Config list",
  "bot_strings_reloaded": "Bot strings have been reloaded.",
  "xpn_setting_global": "Global Level-Up notifications",
  "xpn_setting_server": "Server Level-Up notifications",
  "xpn_notif_channel": "In the channel where you sent the last message.",
  "xpn_notif_dm": "In a direct message channel.",
  "xpn_notif_disabled": "Nowhere.",
  "xprewsreset_confirm": "Are you sure you want to delete ALL xp level up rewards from this server? This action is irreversible.",
  "excluded": "{0} has been excluded from the XP system on this server.",
  "not_excluded": "{0} is no longer excluded from the XP system on this server.",
  "exclusion_list": "Exclusion List",
  "server_is_excluded": "This server is excluded.",
  "server_is_not_excluded": "This server is not excluded.",
  "level_up_channel": "Congratulations {0}, You've reached level {1}!",
  "level_up_dm": "Congratulations {0}, You've reached level {1} on {2} server!",
  "level_up_global": "Congratulations {0}, You've reached global level {1}!",
  "xp_role_reward_cleared": "Reaching level {0} will no longer reward a role.",
  "xp_role_reward_add_role": "Users who reach level {0} will receive {1} role.",
  "xp_role_reward_remove_role": "Users who reach level {0} will lose {1} role.",
  "xp_receive_role": "Receive {0} role.",
  "xp_lose_role": "Lose {0} role.",
  "xp_shop_disabled": "Xp shop is disabled by the owner, or there are no items for sale.",
  "role_not_found": "Role not found: {0}",
  "cur_reward_cleared": "Reaching level {0} will no longer reward any {1}.",
  "cur_reward_added": "Users who reach level {0} will receive {1}.",
  "level_up_rewards": "Level Up Rewards",
  "level_x": "Level {0}",
  "no_level_up_rewards": "No level up reward on this page.",
  "server_leaderboard": "Server XP Leaderboard",
  "global_leaderboard": "Global XP Leaderboard",
  "modified": "Modified server XP of the user {0} by {1}",
  "club_insuff_lvl": "You're insufficient level to join that club.",
  "club_join_banned": "You're banned from that club.",
  "club_already_in": "You are already a member of a club.",
  "club_create_error_name": "Failed creating the club. A club with that name already exists.",
  "club_name_too_long": "Club name is too long.",
  "club_created": "Club {0} successfully created!",
  "club_create_insuff_lvl": "You don't meet the minimum level requirements in order to create a club.",
  "club_not_exists": "That club doesn't exist.",
  "club_applied": "You've applied for membership in {0} club.",
  "club_accepted": "Accepted user {0} to the club.",
  "club_accept_invalid_applicant": "That user has not applied to your club.",
  "club_left": "You've left the club.",
  "club_not_in_a_club": "You are not in a club.",
  "club_owner_cant_leave": "Club owner can't leave the club - you must either transfer ownership or disband the club.",
  "club_user_kick": "User {0} kicked from {1} club.",
  "club_user_not_in_club": "{0} is not in a club.",
  "club_user_banned": "Banned user {0} from {1} club.",
  "club_owner_only": "This action can only be performed by the club owner.",
  "club_admin_invalid_target": "You can't target yourself or the club owner.",
  "club_target_not_member": "Specified user is not a member of your club.",
  "club_admin_perms": "You must be a club admin or owner in order to perform this action.",
  "club_ban_fail_user_not_found": "That user is not in your club or applied to it.",
  "club_ban_fail_unbannable": "Only the club owner can ban club admins.",
  "club_user_unbanned": "Unbanned user {0} in {1} club.",
  "club_unban_fail_user_not_found": "That user is not banned in this club.",
  "club_desc_update": "Club Description Updated",
  "club_desc_update_failed": "Failed changing club description.",
  "club_disbanded": "Club {0} has been disbanded",
  "club_disband_error": "Error. You are either not in a club, or you are not the owner of your club.",
  "club_icon_too_large": "Image is too large.",
  "club_icon_invalid_filetype": "Specified image has an invalid filetype. Make sure you're specifying a direct image url.",
  "club_icon_url_format": "You must specify an absolute image url/.",
  "club_icon_set": "New club icon set.",
  "club_bans_for": "Bans for {0} club",
  "club_apps_for": "Applicants for {0} club",
  "club_leaderboard": "Club leaderboard - page {0}",
  "club_kick_hierarchy": "Only club owner can kick club admins. Owner can't be kicked.",
  "template_reloaded": "Xp template has been reloaded.",
  "expr_edited": "Expression Edited",
  "self_assign_are_exclusive": "You can only choose 1 role from each group.",
  "self_assign_are_not_exclusive": "You can choose any number of roles from any group.",
  "self_assign_group": "Group {0}",
  "new_reaction_event": "Add {0} reaction to this message to get {1}\n{2} left to be awarded.",
  "new_gamestatus_event": "Type the secret code in any channel to receive {1}\n{2} left to be awarded.",
  "event_duration_footer": "This event is active for up to {0} hours.",
  "start_event_fail": "Event failed to start. Another event is running, or there was an error starting the event.",
  "event_title": "{0} event started!",
  "poll_closed": "Poll Closed!",
  "club_admin_add": "{0} is now a club admin.",
  "club_admin_remove": "{0} is no longer club admin.",
  "started": "Started. Reposting every {0}s.",
  "stopped": "Stopped reposting.",
  "feed_added": "Feed added.",
  "feed_limit_reached": "You've reached the maximum number of feeds allowed per server.",
  "feed_duplicate": "You're already following that feed on this server.",
  "feed_cant_parse": "Unable to access or parse that feed url's contents.",
  "feed_invalid_url": "Invalid feed url. It must be an absolute http or https url.",
  "feed_out_of_range": "Index out of range.",
  "feed_removed": "Feed removed.",
  "feed_no_feed": "You haven't subscribed to any feeds on this server.",
  "restart_fail": "You must setup RestartCommand in your creds.yml",
  "restarting": "Restarting.",
  "streaming": "Streaming",
  "rafflecur": "{0} Currency Raffle",
  "rafflecur_joined": "User {0} joined the raffle",
  "rafflecur_already_joined": "You have already joined this raffle or the value you used is not valid.",
  "rafflecur_ended": "{0} raffle ended. {1} won {2}!",
  "autodc_enable": "I will disconnect from the voice channel when there are no more tracks to play.",
  "autodc_disable": "I will no longer disconnect from the voice channel when there are no more tracks to play.",
  "timely_none": "Bot owner didn't specify a timely reward.",
  "timely_already_claimed": "You've already claimed your timely reward. You can get it again {0}.",
  "timely": "You've claimed your {0}. You can claim again in {1}h",
  "timely_set": "Users will be able to claim {0} every {1}h",
  "timely_set_none": "Users will not be able to claim any timely currency.",
  "timely_reset": "All users will be able to claim timely currency again.",
  "timely_time": "It's time for your timely reward.",
  "price": "Price",
  "buy": "Buy",
  "use": "Use",
  "in_use": "In use",
  "xp_shop_item_cant_use": "You can't use this item as it doesn't exist or you don't own it.",
  "market_cap": "Market Cap",
  "market_cap_dominance": "Dominance",
  "circulating_supply": "Circulating Supply",
  "volume_24h": "Volume (24h)",
  "change_7d_24h": "Change (7d / 24h)",
  "crypto_not_found": "CryptoCurrency with that name was not found.",
  "did_you_mean": "Did you mean {0}?",
  "self_assign_level_req": "Self assignable role {0} now requires at least server level {1}.",
  "self_assign_not_level": "That self-assignable role requires at least server level {0}.",
  "invalid": "Invalid / Can't be found ({0})",
  "mass_kill_in_progress": "Mass Banning and Blacklisting of {0} users is in progress...",
  "mass_ban_in_progress": "Banning {0} users...",
  "mass_ban_completed": "Banned {0} users.",
  "mass_kill_completed": "Mass Banning and Blacklisting of {0} users is complete.",
  "club_transfered": "Ownership of the club {0} has been transferred to {1}",
  "roll_duel_challenge": "challenged {1} for a roll duel for {2}",
  "roll_duel": "Roll Duel",
  "roll_duel_no_funds": "Either you or your opponent don't have enough funds.",
  "roll_duel_timeout": "Roll duel challenge was not accepted.",
  "roll_duel_already_challenged": "That user already challenged you to a roll duel.",
  "account_not_found": "That account does not exist or is set to private.",
  "ninja_not_found": "Currency with that name was not found or an invalid league name was provided.",
  "leagues_not_found": "Unable to retrieve data from Path of Exile API.",
  "reminder_list": "List of reminders",
  "reminder_server_list": "List of server reminders",
  "reminder_deleted": "Reminder #{0} was deleted.",
  "reminder_not_exist": "Reminder at that index does not exist.",
  "reminders_none": "No reminder on this page.",
  "perm_override_page_none": "No override on this page.",
  "perm_override_all": "All discord permission overrides have been cleared.",
  "perm_override_all_confirm": "Are you sure that you want to remove **ALL** discord permission overrides on this server? This action is irreversible.",
  "perm_overrides": "Discord Permission Overrides",
  "perm_override_reset": "Discord Permission Overrides for this command have been cleared.",
  "bj_created": "has created a new BlackJack game in this channel.",
  "bj_joined": "has joined the BlackJack game",
  "reset": "Xp Reset",
  "reset_server_confirm": "Are you sure that you want to reset the XP of all users on the server?",
  "reset_user_confirm": "Are you sure that you want to reset specified user's XP on this server?",
  "reset_user": "User with id {0} has had their XP reset on this server.",
  "reset_server": "XP of all users on the server has been reset.",
  "economy_state": "State of the economy",
  "currency_owned": "Total currency owned by users",
  "currency_one_percent": "% of currency owned by top 1%",
  "currency_planted": "Currency currently planted",
  "owned_waifus_total": "Total value of owned waifus",
  "bot_currency": "Currency owned by the bot",
  "total": "Total",
  "bank_accounts": "Bank Accounts",
  "no_invites": "No invites on this page.",
  "invite_deleted": "Invite {0} has been deleted.",
  "group_name_added": "Group #{0} now has a name: {1}",
  "group_name_removed": "Group #{0} no longer has a name.",
  "quote_id": "Quote {0}",
  "trigger": "Trigger",
  "response": "Response",
  "created_by": "Created by {0}",
  "module_footer": "{0}cmds {1}",
  "module_page_empty": "No module on this page.",
  "module_description_help": "Get command help, descriptions and usage examples",
  "module_description_gambling": "Bet on dice rolls, blackjack, slots, coinflips and others",
  "module_description_games": "Play trivia, nunchi, hangman, connect4 and other games",
  "module_description_nsfw": "NSFW commands.",
  "module_description_music": "Play music from youtube, local files soundcloud and radio streams",
  "module_description_utility": "Manage custom quotes, repeating messages and check facts about the server",
  "module_description_administration": "Moderation, punish users, setup self assignable roles and greet messages",
  "module_description_expressions": "Setup custom bot responses to certain words or phrases",
  "module_description_permissions": "Setup perms for commands, filter words and set up command cooldowns",
  "module_description_searches": "Search for jokes, images of animals, anime and manga",
  "module_description_xp": "Gain xp based on chat activity, check users' xp cards",
  "module_description_medusa": "**Bot Owner only.** Load, unload and handle dynamic modules. Read more [here](https://ayanokoujibot.readthedocs.io/en/latest/medusa/creating-a-medusa/)",
  "module_description_missing": "Description is missing for this module.",
  "purge_user_confirm": "Are you sure that you want to purge {0} from the database?",
  "expr_import_no_input": "Invalid input. No valid file upload or input text found.",
  "expr_import_invalid_data": "Unable to parse the file. Make sure it's a valid .yml file",
  "inv_expire": "Expires in:",
  "inv_uses": "Uses:",
  "empty_page": "This page is empty.",
  "pages": "Pages",
  "favorites": "Favorites",
  "tags": "Tags",
  "imageonly_enable": "This channel is now image-only.",
  "linkonly_enable": "This channel is now link-only.",
  "imageonly_disable": "This channel is no longer image-only.",
  "linkonly_disable": "This channel is no longer link-only.",
  "deleted_x_servers": "Deleted {0} servers.",
  "curtr_gift": "Gift from {0} [{1}]",
  "curtr_award": "Awarded by bot owner {0} [{1}]",
  "curtr_take": "Taken by bot owner {0} [{1}]",
  "list_of_medusae": "List of Medusae",
  "list_of_unloaded": "List of Available Medusae",
  "medusa_name_not_found": "Medusa with that name doesn't exist or isn't loaded.",
  "medusa_info": "Medusa Information",
  "sneks_count": "Sneks ({0})",
  "commands_count": "Commands ({0})",
  "no_medusa_loaded": "There are no loaded medusae.",
  "no_medusa_available": "No medusa available.",
  "loaded_medusae": "Loaded Medusae",
  "medusa_not_loaded": "Medusa with that name is not loaded.",
  "medusa_possibly_cant_unload": "Medusa is probably not fully unloaded. Please restart the bot if issues arise.",
  "medusa_loaded": "Medusa {0} has been loaded.",
  "medusa_unloaded": "Medusa {0} has been unloaded.",
  "medusa_empty": "Medusa wasn't loaded as it didn't contain any Sneks.",
  "medusa_already_loaded": "Medusa {0} is already loaded",
  "medusa_invalid_not_found": "Medusa with that name wasn't found or the file was invalid",
  "bank_balance": "You have {0} in your bank account.",
  "bank_deposited": "You deposited {0} to your bank account.",
  "bank_withdrew": "You withdrew {0} from your bank account.",
  "bank_withdraw_insuff": "You don't have sufficient {0} in your bank account.",
  "cmd_group_commands": "'{0}' command group",
  "limit_reached": "Feature limit of {0} reached.",
  "feature_limit_reached_you": "You've reached the limit of {0} for the {1} feature. You may be able to increase this limit by upgrading your patron tier.",
  "feature_limit_reached_owner": "Server owner has reached the limit of {0} for the {1} feature. Server owner may be able to upgrade this limit by upgrading patron tier.",
  "feature_limit_reached_either": "The limit of {0} for the {1} feature has been reached. Either you or the server owner may able to upgrade this limit by upgrading the patron tier.",
  "xp_shop_buy_required_tier": "Buying items from this shop requires Patron Tier {0} or higher.",
  "available_commands": "Available Commands",
  "tier": "Tier",
  "pledge": "Pledge",
  "expires": "Expires",
  "commands": "Commands",
  "groups": "Groups",
  "modules": "Modules",
  "no_quota_found": "No quota found",
  "patron_info": "Patron Info",
  "quotas": "<<< Quotas >>>",
  "patron_not_enabled": "Patron system is disabled.",
  "results_in": "{0} results in {1}s",
  "patron_msg_sent": "Done sending messages to patrons at and above tier {1}. {1} successfully sent and {2} failed.",
  "xpadd_users": "Added {0} server XP to {1} users.",
  "xpshop_buy_success": "Successfully purchased `{0}/{1}`",
  "patron_insuff_tier": "Your Patron Tier insufficient to perform this action.",
  "xpshop_already_owned": "You already own this item.",
  "xpshop_item_not_found": "An item with that key doesn't exist.",
  "xpshop_website": "You can see the list of all Xp Shop items here: <https://xpshop.ayanokouji.bot>",
  "sticker_invalid_size": "Stickers must be exactly 300x300 pixels.",
  "sticker_error": "You must either send a sticker along with this command, or upload a 300x300 .png or .apng image.",
  "sticker_missing_name": "Please specify a name for the sticker.",
  "thread_deleted": "Thread Deleted",
  "thread_created": "Thread Created",
  "supported_languages": "Supported Languages"
}
