{
    "api_key_missing": "Відсутній АРІ ключ.",
    "quote_deleted": "Цитату #{0} видалено.",
    "redacted_too_long": "Відредаговано, тому що це занадто довго.",
    "trigger": "Тригер",
    "response": "Відповідь",
    "fw_cleared": "Усі фільтровані слова і фільтровані слова налаштування каналу видалено.",
    "aar_disabled": "\n**Автопризначення ролі** на приєднання користувача зараз **вимкнено**.",
    "bandm": "Ви отримали заборону на приєднання до сервер {0}.\nПричина: {1}",
    "banned_user": "Користувач заблокований",
    "byedel_off": "Автоматичне видалення прощального повідомлення було вимкнено.",
    "byedel_on": "Прощальне повідомлення буде видалене на протязі {0} секунд.",
    "byemsg_cur": "Теперішнє прощальне повідомлення: {0}",
    "byemsg_enable": "Увімкнено прощальне повідомлення при написанні {0}",
    "byemsg_new": "Нове прощальне повідомлення встановлено.",
    "bye_off": "Прощальне оголошення вимкнено.",
    "bye_on": "Прощальне повідомлення увімкнене на цьому каналі.",
    "cr": "Успішно створена роль {0}",
    "dr": "Роль {0} було видалено.",
    "createtextchan": "Текстовий канал {0} створено.",
    "createvoich": "Голосовий канал {0} створено.",
    "deafen": "Успішно заглушений.",
    "delmsg_off": "Я більше не буду  автоматично видаляти повідомлення успішно виконаної команди.",
    "delmsg_on": "Я буду автоматично видаляти повідомлення успішно виконаної команди.",
    "delmsg_channel_off": "Я ніколи не буду автоматично видаляти повідомлення успішно виконаної команди.",
    "delmsg_channel_on": "Я завжди буду автоматично видаляти повідомлення, яке успішно виконаної команди на цьому каналі, незважаючи на налаштування сервера.",
    "delmsg_channel_inherit": "Я завжди буду автоматично видаляти повідомлення успішно виконаної команди на цьому каналі, тільки якщо ця можливість увімкнена на сервері.",
    "deltextchan": "Текстовий канал {0} видалено.",
    "delvoich": "Голосовий канал {0} видалено.",
    "fwall_start": "Я відправлятиму ПП усім власникам.",
    "fwall_stop": "Я відправлятиму ПП лише власнику.",
    "fwdm_start": "Відтепер я відправлятиму ПП.",
    "fwdm_stop": "Відтепер я припиню відправляти ПП.",
    "greetdel_off": "Автоматичне видалення привітального повідомлення було вимкнено.",
    "greetdel_on": "Привітальне повідомлення буде видалено через {0} секунд.",
    "greetdmmsg_cur": "Поточне привітальне ПП: {0}",
    "greetdmmsg_enable": "Увімкнути привітальне ПП написавши {0}",
    "greetdmmsg_new": "Нове привітальне ПП було встановлене.",
    "greetdm_off": "Привітальне ПП оголошення вимкнено.",
    "greetdm_on": "Привітальне ПП оголошення увімкнено.",
    "greetmsg_cur": "Поточне привітальне повідомлення: {0}",
    "greetmsg_enable": "Увімкнути привітальне повідомлення написавши {0}",
    "greetmsg_new": "Нове привітальне повідомлення встановлено.",
    "greet_off": "Привітальне оголошення вимкнено.",
    "greet_on": "Привітальне оголошення увімкнено на цьому каналі.",
    "hierarchy": "Ви не можете використовувати цю команду на користувачі, роль якого вища, однакова з твоєю(моєю) у ролевій ієрархії.",
    "invalid_format": "Неправильний формат введення.",
    "kickdm": "Вас було вигнано з сервера {0}.\nПричина: {1}",
    "kicked_user": "Користувач був вигнаний",
    "lang_list": "Список мов",
    "lang_set_bot": "Поточна мова бота за замовчуванням - {0} - {1} ",
    "lang_set_bot_show": "Мова бота встановлена {0} - {1}",
    "lang_set": "Поточна мова твого сервера - {0} - {1}",
    "message_sent": "Повідомлення відправлено.",
    "mute_error": "Я не маю необхідних прав для цього.",
    "mute_role_set": "Нова роль, яка обмежує можливості була встановлена.",
    "prot_active": "Активний захист",
    "prot_disable": "{0} був **вимкнений** на цьому сервері.",
    "prot_enable": "{0} Увімкнено",
    "prot_none": "Захист не увімкнено.",
    "raid_cnt": "Поріг користувача повинен бути між {0} і {1}.",
    "raid_stats": "Якщо протягом {1} секунд приєднається {0} або більше користувачів, я даватиму їм {2} ",
    "raid_time": "Час повинен бути між {0} і {1} секундами.",
    "rar": "Успішно видалено усі ролі у користувача {0}",
    "rc": "Колір ролі {0} був змінений.",
    "renrole": "Роль перейменовано",
    "reprm": "Вилучено відтворення повідомлення: {0}",
    "role_added": "Роль {0} була додана у список груп {1}.",
    "role_in_list": "Роль {0} уже є у списку.",
    "self_assign_already": "У Вас уже є роль {0}.",
    "self_assign_excl": "Самопризначені ролі тепер ексклюзивні!",
    "self_assign_list": "Існує {0} ролей, які самостійно призначаються.",
    "self_assign_not": "Ця роль не може призначатися самостійно.",
    "self_assign_not_have": "У вас немає ролі {0}.",
    "self_assign_no_excl": "Самопризначені ролі тепер не є ексклюзивними!",
    "self_assign_perms": "Я не можу надати вам цієї ролі. `Неможливо надати роль власнику сервера або людям з роллю вищою, ніж моя у ієрархії.`",
    "self_assign_rem": "{0} вилучено зі списку ролей, які можна самостійно призначити.",
    "self_assign_remove": "У вас більше немає ролі {0}.",
    "self_assign_success": "Тепер у вас є роль {0}.",
    "adsarm_enable": "Увімкнено автоматичне видалення відповідей `{0} iam` та `{0} iamn`.",
    "adsarm_disable": "Бот більше не видалятиме відповідь `{0} iam` та `{0} iamn`.",
    "setrole": "Успішно додано роль {0} для користувача {1}",
    "set_channel_name": "Нове ім'я каналу встановлено.",
    "shutting_down": "Вимикаюсь",
    "spam_ignore": "{0} ігноруватиме цей канал.",
    "spam_not_ignore": "{0} більше не ігноруватиме цей канал.",
    "spam_stats": "Якщо користувач публікує {0} однакових повідомлень поспіль, я даватиму йому {1}.\n__Канали, що ігноруються__: {2}",
    "undeafen": "Надано дозвіл писати.",
    "username": "Ім'я користувача",
    "user_chat_mute": "{0} **заборонено писати** в чаті.",
    "user_chat_unmute": "\n{0} тепер **дозволено писати** у чаті.",
    "user_muted": "{0} тепер **заборонено писати та розмовляти** у текстовому і голосовому каналах.",
    "user_unmuted": "{0} тепер **дозволено писати та розмовляти** у текстовому і голосовому каналах.",
    "user_voice_mute": "**заборонено розмовляти** учаснику {0}.",
    "user_voice_unmute": "{0} тепер **дозволено розмовляти** у голосовому каналі.",
    "sbdm": "Вас було тимчасово заблоковано на сервері {0}.\nПричина: {1}",
    "sb_user": "Користувач тимчасово заблокований.",
    "better_luck": "Нехай пощастить наступного разу ^_^",
    "roll": "Ви прокрутили {0}.",
    "br_win": "Вітаємо! Ви виграли {0}, викинувши більше {1}",
    "flip_guess": "Овва! Ви здогадались та перемогли!  {0}",
    "flip_results": "Викинуто монету {0}. {1} орел, {2} решка.",
    "has": "{0} має {1}",
    "leaderboard": "Таблиця лідерів",
    "mass_award": "Нагороджені {0} користувачі {1} з ролі {2}.",
    "max_bet_limit": "Ви не можете поставити більше ніж {0}",
    "min_bet_limit": "Ви не можете поставити менше ніж {0}",
    "not_enough": "Вам не достатньо {0}",
    "raffled_user": "Розіграв користувач",
    "slot_bet": "Ставка",
    "slot_jackpot": "УРАААААААААА!!! Вітаю!!! х{0}",
    "slot_single": "Один {0}, х{1}",
    "slot_three": "Оце Так! Пощастило! Три одразу! х{0}",
    "slot_two": "Хороша робота! Два {0} - ставка х{1}",
    "won": "Перемога",
    "transactions": "Транзакція користувача {0}",
    "commands_instr": "Введіть `{0}h CommandName`, щоб побачити довідку для цієї заданої команди. наприклад `{0}h {0}8ball`",
    "command_not_found": "Я не можу знайти цю команду. Перш ніж повторити спробу, перевірте наявність команди.",
    "module_not_found": "Такого модуля не існує.",
    "module_not_found_or_cant_exec": "Модуль не існує, або ви не можете запустити жодну з команд у зазначеному модулі.",
    "usage": "Використання",
    "options": "Налаштування",
    "requires": "Вимоги",
    "blacklisted_tag_list": "Список тегів із чорного списку:",
    "blacklisted_tag_add": "Тег NSFW {0} тепер внесено до чорного списку.",
    "blacklisted_tag_remove": "Тег NSFW {0} більше не входить у чорний список.",
    "animal_race": "Гонки тварин",
    "animal_race_failed": "Не вдалося розпочати, оскільки бракує учасників. ",
    "animal_race_join": "{0} приєднався як {1}",
    "animal_race_join_instr": "Щоб приєднатися до перегонів, введіть {0}jr.",
    "animal_race_starting": "Починається через {0} секунди або коли кімната заповнена.",
    "animal_race_won": "{0} як {1} Виграв гонку!",
    "dice_invalid_number": "Вказано недійсний номер. Ви можете кидати кості від {0} - {1} одночасно.",
    "dice_rolled": "викинуто {0}",
    "dice_rolled_num": "Кубик викинув: {0}",
    "changes_of_heart": "Передумав",
    "claimed_by": "Прийнято",
    "divorces": "Розлучення",
    "likes": "Подобається",
    "price": "Ціна",
    "waifu": "Вайфу",
    "waifus_none": "Ніяких вайфу не було поки прийнято.",
    "waifus_top_waifus": "Найкращі Вайфу",
    "waifu_claimed": "прийнято {0} як вайфу для {1}!",
    "waifu_divorced_like": "Ви розійшлися з вайфу якій ви подобались. Ви безсердечні монстер. {0} отримав {1} в якості компенсації.",
    "waifu_egomaniac": "Ти не можеш бути спорідненим, ти его-маньяк.",
    "waifu_fulfilled": "🎉 Їхнє кохання взаємне! 🎉\nНове значення {0} - {1}!",
    "waifu_not_enough": "Ви повинні заплатити {0} чи більше,  щоб купити цю вайфу! ",
    "waifu_not_yours": "Ця вайфу не твоя.",
    "waifu_not_yourself": "Ви не можете претендувати на себе.",
    "waifu_recent_divorce": "Ви розійшлися нещодавно. Ви повинні почекати {0} годин і {1} хвилин щоб розлучитись знову.",
    "waifu_transfer_fail": "Ви не є власником цієї вайфу, або не можете собі цього дозволити. В іншому випадку - введення недійсне.",
    "waifu_transfer_success": "Претендування на {0} перенесено з {1} на {2}",
    "nobody": "Ніхто",
    "waifu_divorced_notlike": "Ви розійшлися з вайфу, якій ви не подобаєтесь. Ти повернув собі {0} назад.",
    "waifu_reset": "Статистика вашої вайфу були скинуто.",
    "waifu_reset_fail": "Не вдалось скинути статистику вайфу. Переконайтеся, що у вас достатньо коштів.",
    "waifu_reset_confirm": "Це скине статистику вашої вайфу.",
    "acrophobia": "Акрофобія",
    "acro_ended_no_sub": "Гра закінчилася без подач.",
    "acro_no_votes_cast": "Не подано голоси. Гра закінчилася без переможця.",
    "acro_nym_was": "Акронім був {0}.",
    "acro_running": "Акрофобія уже запущена на цьому каналі.",
    "acro_started": "Гра почалась. Створіть речення з наступними акронімами: {0}.",
    "acro_started_footer": "У вас {0} секунд,  щоб зробити подачу.",
    "acro_vote": "Голосуйте написавши номер подачі",
    "acro_vote_cast": "{0} віддав свій голос!",
    "acro_winner": "Переможець {0} з {1} очками.",
    "acro_winner_only": "{0}  переможець, адже він єдиний,  хто зробив подачу!",
    "question": "Питання",
    "rps_draw": "Це нічия! Обидва обрали {0}",
    "rps_win": "{0} виграв! {1} переміг {2}",
    "submissions_closed": "Подачу закрито",
    "total_average": "Всього: {0} В середньому: {1}",
    "category": "Категорія",
    "cleverbot_disabled": "Розумний бот вимкнений на цьому сервері.",
    "cleverbot_enabled": "Розумний бот увімкнений на цьому сервері.",
    "curgen_disabled": "Генерація валюти була вимкнена на цьому сервері.",
    "curgen_enabled": "Генерація валюти була увімкнена на цьому сервері.",
    "curgen_pl": "{0} рандомний {1} по!",
    "curgen_sn": "Рандомний {0} з'явився!",
    "game_started": "Гру розпочато",
    "hangman_game_started": "Шибеник розпочався",
    "hangman_running": "Шибеник наразі розпочався на цьому каналі.",
    "hangman_types": "Список \"{0}hangman\" правил пишуть:",
    "no_results": "Немає результатів",
    "picked": "вибрано {0}",
    "planted": "{0} встановлено {1}",
    "trivia_already_running": "\"Дрібниці\" наразі розпочато на цьому каналі.",
    "trivia_game": "Дрібниці",
    "trivia_guess": "{0} вгадав! Відповідь була: {1}",
    "trivia_none": "\"Дрібниці\" не запущена на цьому сервері.",
    "trivia_points": "{0} має {1} очків",
    "trivia_stopping": "Зупинитись після цього питання.",
    "trivia_times_up": "Час вийшов! Правильна відповідь {0}",
    "ttt_against_yourself": "Ви не можете грати проти себе.",
    "ttt_already_running": "Хрестики-нулики наразі розпочато на цьому сервері.",
    "ttt_a_draw": "Нічия!",
    "ttt_created": "створив гру в Хрестики-нулики.",
    "ttt_has_won": "{0} виграв!",
    "ttt_matched_three": "Зібрав три",
    "ttt_no_moves": "Не залишилось ходів!",
    "ttt_time_expired": "Час вийшов!",
    "ttt_users_move": "Хід {0}",
    "vs": "{0} проти {1}",
    "attempting_to_queue": "Спроба поставити в чергу {0} пісень у черзі ...",
    "fairplay": "Чесна гра",
    "id": "ID",
    "invalid_input": "Не вірне введення.",
    "must_be_in_voice": "Ви повинні бути в голосовому каналі на цьому сервері.",
    "name": "Ім'я",
    "no_player": "Немає активного музичного плеєра.",
    "no_search_results": "Не має результатів пошуку.",
    "player_queue": "Черга плеєра - Сторінка {0}/{1}",
    "playlist_queue_complete": "Черга списку відтворення завершена.",
    "repeating_track": "Плеєр буде повторювати один і той же трек.",
    "volume_set": "Звук встановлено на {0}%",
    "acm_disable": "Вимкнене використання ВСІХ МОДУЛІВ на каналі {0}.",
    "acm_enable": "Увімкнене використання ВСІХ МОДУЛІВ на каналі {0}.",
    "arm_disable": "Вимкнене використання ВСІХ МОДУЛІВ для ролі {0}.",
    "arm_enable": "Увімкнене використання ВСІХ МОДУЛІВ для ролі {0}.",
    "asm_disable": "Вимкнене використання ВСІХ МОДУЛІВ на цьому сервері.",
    "asm_enable": "Увімкнене використання ВСІХ МОДУЛІВ на цьому сервері.",
    "aum_disable": "Вимкнено використання ВСІХ МОДУЛІВ для користувача {0}.",
    "aum_enable": "Увімкнено використання ВСІХ МОДУЛІВ для користувача {0}.",
    "blacklisted": "Додано  у чорний список {0} з ID {1}",
    "unblacklisted": "Вилучено з чорного списку {0} з ID {1}",
    "cmdcd_add": "Команда {0} має {1} секунд для  відновлення.",
    "cmdcd_cleared": "Команда {0} не має відновлення, і всі існуючі відновлення були очищені.",
    "cmdcd_none": "Відновлення команд не встановлено.",
    "cx_disable": "Вимкнено використання {0} {1} на каналі {2}.",
    "cx_enable": "Увімкнено використання {0} {1} на каналі {2}.",
    "filter_word_add": "Додано слово {0} в список фільтрованих слів.",
    "filter_word_list": "Список фільтрованих слів",
    "filter_word_remove": "Вилучено слово {0} зі списку фільтрованих слів.",
    "invalid_second_param_between": "Не вірний другий параметер. (Повинно  бути числом між {0} і {1})",
    "invite_filter_channel_off": "Фільтрацію запрошень **вимкнено** на цьому каналі. ",
    "invite_filter_channel_on": "Фільтрацію запрошень **увімкнено** на цьому каналі. ",
    "invite_filter_server_off": "Фільтрацію запрошень **вимкнено** на цьому сервері.",
    "invite_filter_server_on": "Фільтрацію запрошень **увімкнено** на цьому сервері.",
    "moved_permission": "Дозвіл {0}  перенесено з #{1} до #{2}",
    "perm_not_found": "Не можу знайти дозвіл з індексом #{0}",
    "of_command": "команда",
    "of_module": "модуль",
    "page": "Сторінка {0}",
    "permrole": "Поточні дозволи ролі {0}.",
    "permrole_not_set": "Роль дозволу не встановлена.",
    "permrole_reset": "Роль дозволу скинута.",
    "permrole_changed": "Тепер для редагування дозволів користувачам потрібна роль {0}.",
    "perm_out_of_range": "Не знайдено дозвіл з вказаним дозволом.",
    "removed": " дозвіл  видалено #{0} - {1}",
    "rx_disable": "Вимкнено  використання {0} {1} для ролі {2}.",
    "rx_enable": "Увімкнено використання {0} {1} для ролі {2}.",
    "sec": "сек.",
    "sx_disable": "Вимкнено використання {0} {1} на цьому сервері.",
    "sx_enable": "Увімкнено використання {0} {1} на цьому сервері.",
    "uneditable": "не редагується",
    "ux_disable": "Вимкнено використання {0} {1} для користувача {2}.",
    "ux_enable": "Увімкнено використання {0} {1} для користувача {2}.",
    "verbose_false": "Я більше не буду показувати попередження про дозволи.",
    "verbose_true": "Тепер я буду показувати попередження про дозволи.",
    "word_filter_channel_off": "Фільтрація слів вимкнена на цьому каналі.",
    "word_filter_channel_on": "Фільтрація слів увімкнена  на цьому каналі.",
    "word_filter_server_off": "Фільтрація слів вимкнена на цьому сервері.",
    "word_filter_server_on": "ФІльтрація  слів увімкнена на цьому сервері.",
    "abilities": "Здібності",
    "chapters": "Розділи",
    "comic_number": "Комікс #",
    "condition": "Положення",
    "cost": "Ціна",
    "date": "Дата",
    "word": "Слово",
    "definition": "Визначення",
    "episodes": "Епізоди",
    "example": "Приклад",
    "genres": "Жанр",
    "authors": "Автор",
    "height_weight": "Висота/Вага",
    "height_weight_val": "{0}м/{1}кг",
    "humidity": "Вологість",
    "image_search_for": "Пошук зображень для: ",
    "latlong": "Шир./Довг",
    "location": "Локація",
    "timezone": "Часовий пояс",
    "min_max": "Мін/Макс",
    "original_url": "Оригінальна URL-адреса",
    "pokemon_ability_none": "Здатності не знайдено.",
    "pokemon_none": "Покемон не знайдено.",
    "rating": "Рейтинг",
    "score": "Оцінка:",
    "search_for": "Шукати:",
    "short_url": "Коротка URL-адреса",
    "status": "Статус",
    "sunrise": "Схід сонця",
    "sunset": "Захід сонця",
    "temperature": "Температура",
    "types": "Типи",
    "url": "Url",
    "wind_speed": "Швикість вітру",
    "author": "Автор",
    "botid": "Bot ID",
    "channelid": "{0} цього каналу {1}",
    "channel_topic": "Тема каналу",
    "commands_ran": "Команди запущені",
    "convert": "{0} {1} дорівнює {2} {3}",
    "convertlist": "Одиниці виміру, які можуть бути використані конвертером",
    "convert_not_found": "Не можливо конвертувати {0} до {1}: одиниця виміру не знайдена",
    "convert_type_error": "Не можливо конвертувати {0} до {2}: типи одиниць виміру не одинакові",
    "created_at": "Створено",
    "created_by": "Створено {0}",
    "custom_emojis": "Кастомні емодзі",
    "error": "Помилка",
    "features": "Можливості",
    "index_out_of_range": "Індекс поза діапазоном.",
    "inrole_list": "Список користувачів в {0} ролі",
    "joined_discord": "Приєднався до Дискорду",
    "joined_server": "Приєднався до сервера",
    "listservers": "ID: {0}\nУчасники: {1}\nID Власника: {2}",
    "listservers_none": "Не знайдено серверів на цій сторінці.",
    "list_of_repeaters": "Список повторювачів",
    "members": "Учасники",
    "memory": "Память",
    "messages": "Повідомлення",
    "nickname": "Нік",
    "nobody_playing_game": "Ніхто не грає в цю гру.",
    "no_topic_set": "Не вказана тема",
    "owner": "Власник",
    "owner_ids": "ID Власника",
    "region": "Регіон",
    "remind": "Я нагадаю {0} до {1} в {2} `({3:d.M.yyyy.} о {4:HH:mm})`",
    "remind_too_long": "Час нагадування перевищив максимальний.",
    "repeaters_none": "На цьому сервері немає повторювачів.",
    "repeat_invoke_none": "На цьому сервері не знайдено повторюваних повідомлень.",
    "result": "Результат",
    "roles": "Ролі",
    "serverid": "{0} цього сервера {1}",
    "server_info": "Інформація про сервер",
    "shard": "Черепок",
    "showemojis_none": "Спеціальні емодзі не знайдено.",
    "text_channels": "Текстовий канал",
    "uptime": "Час роботи",
    "userid": "{0} користувача {1} є {2}",
    "roleid": "{0} роль {1} є {2}",
    "voice_channels": "Голосовий канал",
    "current_poll_results": "Поточний результат опитування",
    "poll_already_running": "Опитування наразі запущене на сервері.",
    "poll_created": "📃 {0} створив опитування",
    "poll_result": "`{0}.` {1} з {2} голосів.",
    "poll_voted": "{0} проголосував.",
    "poll_invalid_input": "Не вірне введення. Ви повині мати питання і хочаб дві відповіді, розділенні за допомогою `;`.",
    "x_votes_cast": "{0} всього голосів.",
    "pick_pl": "Підніми їх, написавши `{0}pick`",
    "pick_sn": "Підніми це написавши `{0}pick`",
    "sql_confirm_exec": "Підтвердьте виконання наведеної нижче команди SQL",
    "no_vcroles": "Ролі голосового каналу відсутні.",
    "user_muted_time": "{0} тепер **заборонено писати і розмовляти** в текстовому і голосовому каналах протягом {1} хвилин.",
    "vcrole_added": "Користувачі що приєднаються до {0} голосового каналу получать {1} роль.",
    "vcrole_removed": "Користувачі що приєднаються до {0} голосового каналу більше не получать роль.",
    "vc_role_list": "Ролі голосового каналу",
    "option_disabled": "{0} налаштування наразі вимкнене для кастомних реакцій з id {1}.",
    "option_enabled": "{0} налаштування наразі увімкнене для кастомних реакцій з id {1}.",
    "channel": "Канал",
    "command_text": "Текстова команда",
    "moderator": "Модератор",
    "reason": "Причина",
    "scadd": "Нова команда запуску добавлена.",
    "scrm": "Команда запуску успішно вилучена.",
    "scrm_fail": "Команда запуску не знайдена.",
    "server": "Сервер",
    "startcmdlist_none": "Команд запуску немає на цій сторінці.",
    "startcmds_cleared": "Очищені всі команди запуску.",
    "unbanned_user": "Користувача {0} розблоковано.",
    "user_not_found": "Користувач не знайдений",
    "user_warned": "Користувач {0} був попереджений.",
    "user_warned_and_punished": "Користувач {0} був попереджений і {1} покарання було застосоване.",
    "warned_on": "Попередження на {0} сервер",
    "warned_on_by": "На {0} о {1} ким {2}",
    "warnings_cleared": "Всі попередження були очищені для {0}.",
    "warning_clear_fail": "Попередження не очищені. Або попередження з данним індексом не існує, або уже було очищене.",
    "warning_cleared": "Попередження {0} було очищене для {1}.",
    "warnings_none": "Не має попереджень на цій сторінці.",
    "warnlog_for": "Список попереджень для {0}",
    "warnpl_none": "Ніяких покарань не встановлено.",
    "warn_cleared_by": "очищено {0}",
    "warn_punish_list": "Список покарань і попереджень",
    "warn_punish_rem": "Маючи {0} попереджень більше не каратиметься покаранням.",
    "warn_punish_set": "Я застосую {0} покарання для користувача з {1} попередженнями.",
    "cant_apply_punishment": "Не можу застосувати покарання. Будь ласка переконайтесь що у вас є усі потрібні дозволи, і що моя роль вище всіх інших у настройках сервера.",
    "shop": "Магазин",
    "shop_item_add": "Предмет в магазин добавлений",
    "shop_none": "Предмет в магазині на цій сторінці не знайдено.",
    "shop_role": "Ви отримаєте {0} роль.",
    "type": "Тип",
    "gvc_disabled": "Можливість ігрового голосового каналу були вимкнена на цьому сервері.",
    "gvc_enabled": "{0} тепер це Ігровий голосовоий канал.",
    "not_in_voice": "Ви не в голосовому каналі на цьому сервері.",
    "item": "Предмет",
    "out_of_stock": "Не має в наявності.",
    "random_unique_item": "Рандомний унікальний предмет.",
    "shop_buy_error": "Помилка відправки предмета. Вам повернуто кошти.",
    "shop_item_not_found": "Не знайдено предмети з таким індексом.",
    "shop_item_purchase": "Купівля предмета успішна.",
    "shop_item_rm": "Предмет з магазину вилучений",
    "shop_item_wrong_type": "Цей запис про магазин не підтримує додавання товару.",
    "shop_list_item_added": "Предмет успішно доданий.",
    "shop_list_item_not_unique": "Цей предмет уже доданий.",
    "shop_purchase": "Купівля на {0} сервері",
    "shop_role_not_found": "Роль яка була продана більше не існує.",
    "role_not_found": "Роль не знайдена: {0}",
    "shop_role_purchase": "Ви успішно придбали роль {0}.",
    "shop_role_purchase_error": "Помилка присвоєння ролі. Вашу покупку повернуто.",
    "unique_items_left": "{0} унікальних предметів осталось.",
    "blocked_commands": "Заблоковані команди",
    "blocked_modules": "Заблоковані модулі",
    "gcmd_add": "Команда {0} була вимкнена на всіх серверах.",
    "gcmd_remove": "Команда {0} була увімкнена на всіх серверах.",
    "gmod_add": "Модуль {0} був вимкнений на всіх серверах.",
    "gmod_remove": "Модуль {0} був увімкнений на всіх серверах.",
    "lgp_none": "Не має заблокованих команд чи модулів.",
    "cant_read_or_send": "Ви не можете читати чи відправляти повідомлення на цьому каналі.",
    "prefix_current": "Префікс на цьому сервері {0}",
    "defprefix_current": "За замовчуваням префікс бота {0}",
    "timezone_guild": "Часовий пояс для цієї гільдії `{0}`",
    "timezone_not_found": "Часовий пояс не знайдено. Використайте команду \"timezones\" щоб побачити список всіх доступних поясів.",
    "timezones_available": "Доступні часові пояси",
    "not_found": "Не знайдено.",
    "verbose_errors_enabled": "Не правильно використана команда тепер покаже помилку.",
    "verbose_errors_disabled": "Не правильно використана команда тепер не показуватиме помилку.",
    "perms_reset": "Дозволи на цьому сервері були скинуті.",
    "perm_prevent": "Дозвіл номер #{0} {1} перешкоджає цій дії.",
    "global_perms_reset": "Глобальні дозволи скинуто.",
    "module": "Модуль: {0}",
    "hangman_stopped": "Шибениця зупинилась.",
    "queue_shuffled": "Музична черга була перемішана.",
    "warnings_list": "Список всіх попереджених користувачів на сервері",
    "waifu_gift": "{0} подарував {1}",
    "waifu_gift_shop": "Сувенірний магазин Вайфу",
    "gifts": "Подарунки",
    "connect4_created": "Створена гра З'єднай4. Очікуєм на гравців.",
    "connect4_created_bet": "Створена гра З'єднай4 і ставка {0}. Очікуєм на гравців з такою ж ставкою.",
    "connect4_player_to_move": "Хід гравця: {0}",
    "connect4_failed_to_start": "З'єднай4 не змогла запуститись, так як ніхто не приєднався.",
    "connect4_draw": "З'єднай4 закінчилась нічиєю.",
    "connect4_won": "{0} переміг в грі З'єднай4 проти {1}.",
    "nunchi_joined": "Приєднались до гри в нунчі. Очікуєм на {0} користувачів.",
    "nunchi_ended": "Гра в нунчі закінчилась. Виграв {0}",
    "nunchi_ended_no_winner": "Гра в нунчі закінчилась без переможців.",
    "nunchi_round_ended": "Нунчі раунд закінчився. {0} вибув з гри.",
    "nunchi_round_ended_boot": "Нунчі раунд закінчився через закінчення часу у деяких користувачів. Користувачі ще у грі: {0}",
    "nunchi_round_started": "Нунчі раунд почався з {0} користувачами. Старт відрахунку почнеться з номера {1}.",
    "nunchi_next_number": "Номер зареєстрований. Останій номер був {0}.",
    "nunchi_failed_to_start": "Нунчі не може розпочатись так як не хватає учасників.",
    "nunchi_created": "Гра в нунчі створена. Очікуєм на гравців.",
    "stream_role_enabled": "Коли користувач з ролью {0} починає стрім, Я видам йому {1} роль.",
    "stream_role_disabled": "Можливість ролі стрімера була вимкнена.",
    "stream_role_kw_set": "Стрімер тепер потребує {0} ключові слова у порядку щоб получити роль.",
    "stream_role_kw_reset": "Ключові слова для ролі стрімера скинуті.",
    "stream_role_bl_add": "Користувач {0} ніколи не получе роль стрімера.",
    "stream_role_bl_add_fail": "Користувач {0} уже в чорному списку.",
    "stream_role_bl_rem": "Користувач {0} більше не в чорному списку.",
    "stream_role_bl_rem_fail": "Користувач {0} не в чорному списку.",
    "stream_role_wl_add": "Користувач {0} може отримати роль стрімера навіть якщо він не має ключові слова в назві стріма.",
    "stream_role_wl_add_fail": "Користувач {0} уже в білому списку.",
    "stream_role_wl_rem": "Користувач {0} більше не в білому списку.",
    "stream_role_wl_rem_fail": "Користувач {0} не в білому списку.",
    "xp_role_reward_add_role": "Користувач який отримав рівень {0} отримає роль {1}.",
    "xp_role_reward_remove_role": "Користувач який отримав рівень {0} втратить роль {1}.",
    "cur_reward_cleared": "Отримання рівня {0} не буде більше винагороджувати {1}",
    "cur_reward_added": "Користувачі що отримали рівень {0} отримають {1}.",
    "level_up_rewards": "Нагороди за підвищення рівня",
    "xp_receive_role": "Отримує роль {0}.",
    "xp_lose_role": "Втратив роль {0}.",
    "club_create_error": "Невдача при створені клуба. Переконайтесь що ваш рівень вище 5 і Ви не учасник клубу.",
    "club_created": "Клуб {0} успішно створенний!",
    "club_not_exists": "Такого клубу не існує.",
    "club_applied": "Ви подали заявку на членство в клубі {0}.",
    "club_apply_error": "Помилка застосування. Ви вже є членом клубу, або не відповідаєте вимогам мінімального рівня, також можливо вам заборонено вхід у цей клуб.",
    "club_accepted": "Прийнято користувача {0} до клубу.",
    "club_accept_error": "Користувач не знайдений",
    "club_left": "Ви покинули клуб",
    "club_not_in_club": "Ви не перебуваєте в клубі або намагаєтесь залишити клуб, у якого ви є власником.",
    "club_user_kick": "Користувача {0} вигнали з клубу {1}.",
    "club_user_kick_fail": "Помилка вигнання. Ви або не є власником клубу, або цього користувача немає у вашому клубі.",
    "club_user_banned": "Користувачу {0} заборонено відвідувати клуб {1}.",
    "club_user_ban_fail": "Не вдалося заборонити. Ви або не є власником клубу, або цей користувач не перебуває у вашому клубі або не подає до нього звернення.",
    "club_user_unbanned": "Не заблокований користувач {0} у клубі {1}.",
    "club_user_unban_fail": "Не вдалося скасувати заборону. Ви або не є власником клубу, або цей користувач не перебуває у вашому клубі або не подає до нього звернення.",
    "club_level_req_changed": "Вимогу щодо рівня клубу змінено на {0}",
    "club_level_req_change_error": "Не вдалося змінити вимогу до рівня.",
    "club_desc_updated": "Опис клубу оновлено на {0}",
    "club_desc_update_failed": "Не вдалося змінити опис клубу.",
    "club_disbanded": "Клуб {0} розформовано",
    "club_disband_error": "Помилка. Ви або не входите до клубу, або не є власником свого клубу.",
    "club_icon_error": "Недійсна URL-адреса зображення або ви не власник клубу.",
    "club_icon_set": "Нова іконка клубу встановлена.",
    "club_bans_for": "Заборони для клубу {0}",
    "club_apps_for": "Кандидати в клуб {0}",
    "club_leaderboard": "Таблиця лідерів клубу - сторінка {0}",
    "self_assign_are_exclusive": "Ви можете вибрати лише 1 роль з кожної групи.",
    "self_assign_are_not_exclusive": "Ви можете вибрати будь-яку кількість ролей з будь-якої групи.",
    "new_reaction_event": "Додайте реакцію {0} до цього повідомлення, щоб отримати {1}\nЗалишилося нагородити {2}.",
    "new_gamestatus_event": "Введіть секретний код у будь-якому каналі, щоб отримати {1}\nЗалишилося нагородити {2}.",
    "event_duration_footer": "Ця подія активна до {0} годин.",
    "start_event_fail": "Не вдалося розпочати подію. Виконується інша подія або сталася помилка запуску події.",
    "event_title": "Подію {0} розпочато!",
    "poll_closed": "Опитування закрито!",
    "club_not_exists_owner": "Ви не є власником або адміністратором клубу.",
    "club_admin_add": "{0} тепер адміністратор клубу.",
    "club_admin_remove": "{0} більше не є адміністратором клубу.",
    "club_admin_error": "Помилка. Ви або не є власником клубу, або цього користувача немає у вашому клубі.",
    "feed_added": "Канал з новинами додано.",
    "feed_not_valid": "Недійсне посилання, або ви вже стежите за цим каналом на цьому сервері, або досягли максимальної дозволеної кількості каналів.",
    "feed_out_of_range": "Індекс поза діапазоном.",
    "feed_removed": "Канал з новинами вилучено.",
    "feed_no_feed": "Ви не підписані на будь -які канали на цьому сервері.",
    "timely_none": "Власник бота не вказав своєчасну винагороду.",
    "timely_already_claimed": "Ви вже заявили про своєчасну винагороду. Ви можете отримати його знову в {0}.",
    "timely": "Ви заявили права на свій {0}. Ви можете подати повторну заявку через {1} год",
    "timely_set": "Користувачі зможуть претендувати на {0} кожні {1} год",
    "timely_set_none": "Користувачі не зможуть вимагати своєчасної валюти.",
    "timely_reset": "Усі користувачі зможуть знову вимагати своєчасну валюту.",
    "market_cap": "Ринкова капіталізація",
    "volume_24h": "Звук (24 год.)",
    "change_7d_24h": "Зміна (7дн / 24год)",
    "crypto_not_found": "Криптовалюта з такою назвою не знайдена.",
    "did_you_mean": "Ви мали на увазі {0}?",
    "self_assign_level_req": "Роль, що самостійно призначається, {0} тепер вимагає принаймні рівень {1} на сервері.",
    "self_assign_not_level": "Для самовизначення ролі потрібен принаймні рівень сервера {0}.",
    "invalid": "Недійсний / Не вдається знайти ({0})",
    "mass_kill_in_progress": "Триває масове заборона та внесення у чорний список користувачів {0}...",
    "mass_kill_completed": "Масові заборони та внесення в чорний список користувачів {0} завершено.",
    "club_transfered": "Право власності на клуб {0} передано {1}",
    "club_transfer_failed": "Не вдалося перенести. Ви повинні бути власником клубу. Ціль повинна бути членом вашого клубу.",
    "reaction_roles_message": "** Ролі: ** {0}\n** Зміст: ** {1}",
    "no_reaction_roles": "На цьому сервері немає функцій ReactionRole.",
    "reaction_role_removed": "Повідомлення ReactionRole № {0} видалено",
    "reaction_roles_full": "Ви досягли межі для повідомлень ReactionRole. Деякі доведеться видалити.",
    "reminder_list": "Список нагадувань",
    "reminder_deleted": "Нагадування #{0} було видалене.",
    "reminder_not_exist": "Нагадування з цим індексом не існує.",
    "reminders_none": "Нагадувань на цій сторінці немає",
    "bj_created": "створив нову гру в БлекДжек на цьому каналі.",
    "bj_joined": "доєднався до гри в БлекДжек",
    "no_invites": "Не має запрошень на цій сторінці.",
    "invite_deleted": "Запрошення {0} було видалене.",
    "invalid_emojis": "Усі вказані емодзі недійсні.",
    "aliases_cleared": "Усі {0} псевдоніми на цьому сервері видалено.",
    "vcrole_not_found": "Цей голосовий канал не має VcRole.",
    "attachments": "Вкладення",
    "avatar_changed": "Аватар зміненно",
    "banmsg_disabled": "Сповіщення про бан вимкнено. Ви можете увімкнути його, встановивши banmsg на щось інше, ніж '-'.",
    "banmsg_default": "Повідомлення про бан не встановлено. Буде використано відповідь за замовчуванням.",
    "banned_pl": "заблокований",
    "bot_name": "Ім'я бота змінене на {0}",
    "bot_status": "Статус бота змінений на {0}",
    "ch_name_change": "Ім'я каналу змінене",
    "ch_old_name": "Старе і'мя",
    "ch_topic_change": "Опис каналу змінений",
    "content": "Зміст",
    "server_delmsgoncmd": "Налаштування сервера",
    "channel_delmsgoncmd": "Спеціальні налаштування каналу",
    "dm_from": "ПП від",
    "images_loading": "Зображення будуть завантажені протягом декількох секунд. ",
    "insuf_perms_i": "У мене недостатньо дозволів.",
    "insuf_perms_u": "У Вас недостатні дозволи.",
    "lang_set_fail": "Не вдалося налаштувати поточну мову. Повернися в команду-помічник.",
    "lang_set_show": "Мова цього сервера встановлена на {0} - {1}",
    "log": "Запис події {0} у цей канал.",
    "log_all": "Запис усіх подій на цьому каналі.",
    "log_disabled": "Запис подій вимкнено.",
    "log_events": "Журнал подій, на які можна підписатися:",
    "log_stop": "Зупинено запис подій {0}.",
    "msg_not_found": "Повідомлення не знайдено.",
    "time_too_long": "Вказаний тобою час надто довгий.",
    "log_vc_moved": "{0} переміщено з {1} на {2} голосовий канал",
    "msg_del": "Повідомлення видалено в #{0}",
    "msg_update": "Повідомлення оновлено в #{0}",
    "muted_pl": "Заглушений",
    "muted_sn": "Заглушений ",
    "mute_role": "поточна роль-заборона {0}",
    "mute_perms": "Ви не можете заборонити писати користувачу, роль якого вища вашої в ієрархії ролей, або якщо ви не є власником сервера.",
    "new_msg": "Нове повідомлення",
    "new_nick": "Новий нік",
    "new_topic": "Нова тема",
    "nick_change": "Нік змінено",
    "no_shard_id": "Черепок з цим ID не знайдено.",
    "nsfw_set_true": "NSFW увімкнено на цьому каналі.",
    "nsfw_set_false": "NSFW вимкнено на цьому каналі.",
    "old_msg": "Старе повідомлення",
    "old_nick": "Старий нік",
    "old_topic": "Стара тема",
    "prot_cant_use_time": "Ви не можете вказати тривалість цієї дії покарання.",
    "rar_err": "Не вдалося видалити ролі. У мене недостатньо дозволів.",
    "rc_perms": "Сталася помилка через неправильний колір або недостатні дозволи.",
    "remrole": "Роль {0} успішно видалено у користувача {1}",
    "remrole_err": "Не вдалося видалити роль. У мене недостатньо дозволів.",
    "renrole_err": "Не вдалося перейменувати роль. У мене недостатньо дозволів.",
    "renrole_perms": "Ви не можете редагувати роль вищу за вашу або мою.",
    "ropl_added": "Додано.",
    "ropl_disabled": "Статус обертання відтворення вимкнено.",
    "ropl_enabled": "Статус обертання відтворення увімкнено.",
    "ropl_list": "Ось список статусів що обертаються:\n{0}",
    "ropl_not_set": "Не встановлено обертових статусів відтворення.",
    "setrole_err": "Не вдалося додати роль. У мене недостатньо дозволів.",
    "set_avatar": "Новий аватар встановлено!",
    "set_game": "Нова гра встановлена!",
    "set_stream": "Новий стрім встановлений!",
    "set_topic": "Нова тема каналу встановлена.",
    "shard_reconnecting": "Черепок {0} перепідключення.",
    "soft_banned_pl": "тимчасовий бан",
    "text_chan_created": "Текстовий канал створений.",
    "text_chan_destroyed": "Текстовий канал знищений.",
    "duration": "Тривалість",
    "unmuted_sn": "Не заглушений",
    "unable_to_dm_user": "Надіслано в ПП.",
    "username_changed": "Ім'я користувача змінено",
    "user_banned": "Користувач заблокований",
    "user_joined": "Користувач приєднався",
    "user_left": "Користувач покинув",
    "user_role_add": "Роль користувача додано",
    "user_role_rem": "Роль користувача вилучено",
    "user_status_change": "{0} тепер {1}",
    "user_vjoined": "{0} приєднався до {1} голосового каналу.",
    "user_vleft": "{0} покинув {1} голосовий канал.",
    "user_vmoved": "{0} перемістився з {1} до {2} голосового каналу.",
    "voice_chan_created": "Голосовий канал створений",
    "voice_chan_destroyed": "Голосовий канал знищений",
    "xmuted_text": "Користувач {0} з текстового чата {1}",
    "xmuted_text_and_voice": "Користувач {0} з текстового і голосового чату {1}",
    "xmuted_voice": "Користувач {0} з голосового чату {1}",
    "user_unbanned": "Користувач розблокований",
    "presence_updates": "Оновлення присутності",
    "awarded": "нагороджений {0} до {1}",
    "deck_reshuffled": "Колода перетасована.",
    "flipped": "перевернуто {0}.",
    "flip_invalid": "Вказано недійсний номер. Ви можете перевернути монети від 1 до {0}.",
    "cards_left": "У колоді залишилося {0} карт.",
    "gifted": "{0} подарував {1}",
    "heads": "Орел",
    "no_more_cards": "У колоді більше немає карт.",
    "tails": "Решка",
    "take": "успішно взяв {0} з {1}",
    "take_fail": "не вдалося взяти {0} з {1}, оскільки у користувача немає стільки {2}!",
    "commandlist_regen": "Список команд відновлено.",
    "desc": "Опис",
    "cant_dm": "Я не можу надіслати ПП. Переконайтеся, що Ваші ПП відкриті. Перейдіть до опцій ** (кнопка \"налаштування\") -> Конфіденційність та безпека -> Дозволити повідомлення від членів сервера **",
    "donate": "Ви можете підтримати проєкт AyanokoujiBot на\nПатреон <{0}> або\nPaypal <{1}>\nНе забудьте залишити у повідомленні своє ім’я або ідентифікатор Discord.\n\n** Дякую ** ♥ ️",
    "guide": "** Список команд **: <{0}>\n** Посібники та документи щодо розміщення можна знайти тут **: <{1}>",
    "list_of_modules": "Список модулів",
    "autohentai_started": "Авто-хентай розпочато. Повторно публікуйте кожні {0} з одним із таких тегів:\n{1}",
    "tag": "Тег",
    "animal_race_full": "Гонка повна! Починаєм негайно.",
    "animal_race_join_bet": "{0} приєднався як {1} і зробив ставку {2}!",
    "animal_race_starting_with_x": "Починаючи з {0} учасників.",
    "animal_race_won_money": "{0} як {1} Виграв гонку та {2}!",
    "race_not_exist": "На цьому сервері немає перегонів",
    "second_larger_than_first": "Друге число повинно бути більшим за перше.",
    "waifu_affinity_already": "ваша близкість уже налаштована на цю вайфу, або ви намагаєтесь видалити свою спорідненість, не маючи її.",
    "waifu_affinity_changed": "змінили свою близкість з {0} на {1}.\n\n*Це морально сумнівно.*🤔",
    "waifu_affinity_cooldown": "Вам потрібно почекати {0} годин і {1} хвилин, щоб знову змінити свою близькість.",
    "waifu_affinity_reset": "Ваша близкість скинута. У вас більше немає людини, яка вам подобається.",
    "waifu_affinity_set": "хоче бути вайфу {0}. Ой <3",
    "waifu_isnt_cheap": "Жодної вайфу за вказаною ціною немає. Ви повинні сплатити щонайменше {0}, щоб отримати вайфу, навіть якщо їх фактична вартість нижча.",
    "waifu_reset_price": "Ціна: {0}",
    "animal_race_already_started": "Гонка Тварин вже запущена.",
    "failed_loading_question": "Не вдалося завантажити запитання.",
    "trivia_win": "{0} здогадався і виграв гру! Відповідь була такою: {1}",
    "trivia_quit": "Щоб зупинити дрібниці, введіть {0}",
    "dir_queue_complete": "Черга каталогів завершена.",
    "fp_disabled": "Чесна гра відключена.",
    "fp_enabled": "Чесна гра увімкнена.",
    "from_position": "З позиції",
    "now_playing": "Зараз грає",
    "playlists": "`#{0}` - ** {1} ** від*{2}*({3} пісень)",
    "playlists_page": "Сторінка {0} збережених списків відтворення",
    "playlist_deleted": "Список відтворення видалено.",
    "playlist_delete_fail": "Не вдалося видалити цей список відтворення. Його або не існує, або ви не є його автором.",
    "playlist_id_not_found": "Список відтворення з таким ID не існує.",
    "playlist_saved": "Список відтворення збережено",
    "queue": "Черга",
    "queue_cleared": "Чергу з музикою очищено.",
    "set_music_channel": "Тепер я буду виводити відтворювані, завершені, призупинені та видалені пісні на цьому каналі.",
    "unset_music_channel": "Тепер я виведу відтворення, завершення, призупинення та видалення пісень із новостворених музичних програвачів у каналі, з якого почалася музика.",
    "to_position": "На позицію",
    "volume_input_invalid": "Гучність має бути від 0 до 100",
    "link_filter_channel_off": "На цьому каналі фільтрацію посилань вимкнено.",
    "link_filter_channel_on": "На цьому каналі фільтрацію посилань увімкнено.",
    "link_filter_server_off": "На цьому сервері фільтрацію посилань вимкнено.",
    "link_filter_server_on": "На цьому сервері фільтрацію посилань увімкнено.",
    "avatar_none": "Користувач {0} не встановив аватар.",
    "anime_no_fav": "Улюбленого аніме поки немає",
    "atl_ad_started": "Почався автоматичний переклад повідомлень на цьому каналі. Повідомлення користувачів будуть автоматично видалені.",
    "atl_removed": "Вашу мову автоперекладу вилучено.",
    "atl_set": "Вашу мову автоматичного перекладу встановлено на {0}> {1}",
    "atl_started": "Розпочато автоматичний переклад повідомлень на цьому каналі.",
    "atl_stopped": "Зупинено автоматичний переклад повідомлень на цьому каналі.",
    "bad_input_format": "Неправильний формат введення або щось пішло не так.",
    "card_not_found": "Не вдалося знайти цю картку.",
    "catfact": "факт",
    "comic_not_found": "Комікс не знайдено.",
    "completed": "Завершено",
    "dropped": "Кинуто",
    "error_occured": "Виникла помилка.",
    "failed_finding_anime": "Не вдалося знайти це аніму.",
    "failed_finding_manga": "Не вдалося знайти цю манґу.",
    "imdb_fail": "Не вдалося знайти цей фільм.",
    "invalid_lang": "Недійсне джерело або ціль мови.",
    "jokes_not_loaded": "Жарти не загружені.",
    "list_of_place_tags": "Список {0}місця тегів",
    "city_not_found": "Місто не знайдено.",
    "magicitems_not_loaded": "Магічні предмети не загружені.",
    "mal_profile": "Профіль MAL користувача {0}",
    "mashape_api_missing": "Власник бота не вказав MashapeApiKey. Ви не можете використовувати цю функцію.",
    "no_channel_found": "Канал не знайдено.",
    "on_hold": "На утриманні",
    "osu_api_key": "Потрібен osu! АРІ ключ.",
    "osu_failed": "Не вдалось отримати підпис osu!.",
    "osu_user_not_found": "Користувач не знайдений.",
    "plan_to_watch": "Наступне на перегляд",
    "something_went_wrong": "Щось пішло не так.",
    "specify_search_params": "Будь ласка, вкажіть параметри пошуку.",
    "store_url": "URL магазину",
    "streamer_offline": "Стрімер {0} не в мережі.",
    "streamer_online": "Стрімер {0} в мережі з {1} глядачами.",
    "streams_follow_title": "Стріми, за якими ви стежите",
    "streams_none": "Ви не стежите за стрімами на цьому сервері.",
    "stream_no": "Такого стріма немає.",
    "stream_off_enabled": "Сповіщення про стрім тепер відображатимуться, коли стрім вийде з режиму офлайн.",
    "stream_off_disabled": "Сповіщення про стрім більше не відображатимуться, коли стрім вийде з режиму офлайн.",
    "stream_not_added": "Стрім не додано. Стрім не існує, ця платформа не підтримується або ви досягли максимальної дозволеної кількості стрімів.",
    "stream_message_reset": "Повідомлення сповіщення для стріму {0} було скинуто.",
    "stream_message_set": "Повідомлення сповіщення для стріму {0} було встановлено.",
    "stream_not_following": "Ви не стежите за цим стрімом на цьому сервері.",
    "stream_removed": "Стрім користувача {0} ({1}) видалено зі сповіщень.",
    "stream_tracked": "Я повідомлятиму цей канал щоразу, коли цей стрім з'явиться в мережі.",
    "title": "Заголовок:",
    "top_3_fav_anime": "ТОП-3 улюблених аніме:",
    "translation": "Переклад:",
    "ud_error": "Не вдалося знайти визначення цього терміну.",
    "viewers": "Глядачі",
    "watching": "Дивляться",
    "wikia_error": "Не вдалося знайти цей термін у зазначеній вікі.",
    "wikia_input_error": "Будь ласка, введіть цільову вікію, а потім пошуковий запит.",
    "wiki_page_not_found": "Сторінку не знайдено.",
    "activity_line": "`{0}.` {1} [{2:F2}/с] - {3} всього",
    "activity_page": "Сторінка дій #{0}",
    "activity_users_total": "Всього користувачів {0}.",
    "calcops": "Список функцій у команді {0}calc",
    "repeater_created": "Повторювач створено",
    "repeater_removed": "Повторювач #{0} вилучено",
    "no_roles_on_page": "На цій сторінці немає ролей.",
    "no_shards_on_page": "На цій сторінці немає черепків.",
    "presence": "Присутність",
    "presence_txt": "{0} Сервери\n{1} Текстові канали\n{2} Голосові канали",
    "quotes_deleted": "Видалено всі цитати з ключовим словом {0}.",
    "quotes_page": "Сторінка цитат {0}",
    "quotes_page_none": "Цитати на цій сторінці не знайдено.",
    "quotes_remove_none": "Цитати які можна вилучити не знайдено.",
    "quote_added_new": "Цитату #{0} додано.",
    "repeater_redundant_no": "Повторювач **#{0}** більше не публікуватиме зайві повідомлення.",
    "repeater_redundant_yes": "Повторювач **#{0}**публікуватиме зайві повідомлення.",
    "roles_all_page": "Сторінка #{0} усіх ролей на цьому сервері:",
    "roles_page": "Сторінка ролей #{0} для {1}",
    "showemojis": "**Назва:** {0} **Посилання:** {1}",
    "users": "Користувачі",
    "no_user_on_this_page": "На цій сторінці немає користувачів.",
    "aliases_none": "Псевдонім не знайдено",
    "alias_added": "Введення {0} тепер буде псевдонімом {1}.",
    "alias_list": "Список псевдонімів",
    "alias_removed": "Тригер {0} більше не має псевдоніма.",
    "alias_remove_fail": "Тригер {0} не мав псевдоніма.",
    "punishment_unsupported": "З цією функцією не можна використовувати покарання {0}.",
    "interval": "Інтервал",
    "kicked_pl": "Вигнали",
    "autocmd_add": "Команда {0} буде виконуватися кожні {1}с на цьому каналі.",
    "autocmdlist_none": "На цій сторінці немає автоматичних команд.",
    "warn_expire_set_delete": "Попередження буде видалено через {0} днів.",
    "warn_expire_set_clear": "Попередження буде очищено через {0} днів.",
    "warn_expire_reset": "Термін дії попереджень більше не припиняється.",
    "warn_punish_set_timed": "Я застосую {0} покарання для {2} до користувачів із попередженнями {1}.",
    "time_new": "Час",
    "timezone_db_api_key": "Вам потрібно активувати ключ API TimezoneDB. Ви можете зробити це, натиснувши посилання, яке ви отримали в електронному листі з ключем API.",
    "rolehoist_enabled": "Роль {0} тепер відображається окремо від користувачів у мережі.",
    "rolehoist_disabled": "Роль {0} більше не відображається окремо від користувачів у мережі.",
    "shop_role_already_bought": "Ви вже купили цю роль.",
    "quotes_notfound": "Не знайдено цитат, що відповідають зазначеному ID цитати.",
    "prefix_new": "Префікс на цьому сервері змінено з {0} на {1}",
    "defprefix_new": "Префікс бота за умовчанням змінено з {0} на {1}",
    "bot_nick": "Псевдонім бота змінено на {0}",
    "user_nick": "Псевдонім користувача {0} змінено на {1}",
    "perm_override": "Для виконання команди {1} користувачам потрібен дозвіл {0}.",
    "define_unknown": "Не можу знайти визначення цього терміну.",
    "queue_stopped": "Плеєр зупинено. Використовуйте команду {0}, щоб почати відтворення.",
    "nunchi_started": "Гра Нунчі розпочалася з {0} учасниками.",
    "bot_strings_reloaded": "Строки ботів були перезавантажені.",
    "xpn_setting_global": "Глобальне сповіщення про підняття рівню",
    "xpn_setting_server": "Серверне сповіщення про підняття рівню",
    "xpn_notif_channel": "У каналі, куди ви надіслали останнє повідомлення.",
    "xpn_notif_dm": "У каналі приватного повідомлення.",
    "xpn_notif_disabled": "Ніде.",
    "excluded": "{0} вилучено з системи XP на цьому сервері.",
    "not_excluded": "{0} більше не виключається з системи XP на цьому сервері.",
    "exclusion_list": "Список виключень",
    "server_is_excluded": "Цей сервер виключений.",
    "server_is_not_excluded": "Цей сервер не виключений.",
    "level_up_channel": "Вітаємо, {0}, Ви досягли рівня {1}!",
    "level_up_dm": "Вітаємо, {0}, ви досягли рівня {1} на сервері {2}!",
    "level_up_global": "Вітаємо, {0}, ви досягли глобального рівня {1}!",
    "level_x": "Рівень {0}",
    "no_level_up_rewards": "На цій сторінці немає винагороди за підвищення рівня.",
    "server_leaderboard": "Таблиця ХР сервера",
    "global_leaderboard": "Глобальна таблиця лідерів ХР",
    "modified": "Змінено сервер ХР користувача {0} користувачем {1}",
    "template_reloaded": "Шаблон XР перезавантажено.",
    "self_assign_group": "Група {0}",
    "started": "Розпочато. Повторно публікувати кожні {0}с.",
    "stopped": "Публікування припинено.",
    "restart_fail": "Ви повинні налаштувати RestartCommand у своєму creds.yml",
    "restarting": "Перезавантаження.",
    "streaming": "Стрімить",
    "rafflecur": "{0} Розіграш валюти",
    "rafflecur_joined": "Користувач {0} приєднався до розіграшу",
    "rafflecur_already_joined": "Ви вже приєдналися до цього розіграшу або значення, яке ви використали, недійсне.",
    "rafflecur_ended": "Розіграш {0} завершено. {1} виграв {2}!",
    "autodc_enable": "Я відключусь від голосового каналу, коли не буде більше пісень для відтворення.",
    "autodc_disable": "Я більше не відключатимуся від голосового каналу, коли не буде більше пісень для відтворення.",
    "failed_finding_novel": "Не можу знайти цю новелу. Переконайтеся, що ви ввели точне повне ім’я та воно існує на сайті novelupdates.com",
    "roll_duel_challenge": "{1} викликав на дуель {2}",
    "roll_duel": "Дуель",
    "roll_duel_no_funds": "Вам, або вашому опонентові не вистачає коштів.",
    "roll_duel_timeout": "Виклик на дуель не прийнято.",
    "roll_duel_already_challenged": "Цей користувач уже викликав Вас на дуель.",
    "account_not_found": "Цей обліковий запис не існує або має статус приватного.",
    "ninja_not_found": "Грошова одиниця з такою назвою не знайдена або надано недійсну назву ліги.",
    "leagues_not_found": "Не вдається отримати дані з Path of Exile API.",
    "perm_override_page_none": "На цій сторінці немає заміни.",
    "perm_override_all": "Усі зміни дозволів Discord'y були видалені.",
    "perm_override_all_confirm": "Ви впевнені, що хочете видалити **ВСІ** зміни дозволів Discord'y на цьому сервері? Ця дія є незворотною.",
    "perm_overrides": "Заміна дозволів Discord",
    "perm_override_reset": "Перевизначення дозволів Discord для цієї команди було видалено.",
    "reset": "Скидання XP",
    "reset_server_confirm": "Ви впевнені, що хочете скинути XP усіх користувачів на сервері?",
    "reset_user_confirm": "Ви впевнені, що хочете скинути XP цього користувача на цьому сервері?",
    "reset_user": "У користувача з ідентифікатором {0} скинуто XP на цьому сервері.",
    "reset_server": "XP всіх користувачів на сервері скинуто.",
    "economy_state": "Стан економіки",
    "currency_owned": "Всього валюти, якою володіють користувачі",
    "currency_one_percent": "% валюти, що належить топ 1%",
    "currency_planted": "Поточна встановлена валюта",
    "owned_waifus_total": "Загальна вартість власних вайфу",
    "bot_currency": "Валюта, якою володіє бот",
    "total": "Всього",
    "group_name_added": "Група #{0} тепер має назву: {1}",
    "group_name_removed": "Група #{0} більше не має назви.",
    "quote_id": "Цитата {0}",
    "aar_none": "Коли вони приєднуються до цього сервера, користувачі не отримують жодних ролей.",
    "aar_roles": "До користувачів, які приєднуються до цього сервера, застосовуються такі ролі: {0}",
    "aar_role_removed": "Коли нові учасники приєднуватимуться до цього сервера -   вони більше не отримуватимуть роль {0}.",
    "remove_roles_pl": "їх ролі вилучені",
    "role_too_high": "Ви не можете використовувати цю команду на ролях, які вищі за вашу роль, чи якщо ви не адміністратор сервера.",
    "log_vc_joined": "{0} приєднався до {1} голосового каналу",
    "log_vc_left": "{0} покинув {1} голосовий канал",
    "protection_not_running": "Захист {0} не ввімкнено.",
    "anti_alt_status": "Будь-який користувач, що приєднується до сервера з обліковим записом, не старшим за {0} - буде застосована дія: {1}\nНаразі покараних: {2}",
    "mass_take": "Взято {0} від {1} користувачів у ролі {2}.",
    "_8ball": "Магічна куля",
    "repeating_none": "Плеєр зупиниться, коли буде досягнуто кінця черги.",
    "repeating_queue": "Плеєр повторить чергу.",
    "current_music_quality": "Наразі встановлена якість музики: {0}",
    "music_quality_set": "Якість музики встановлено на {0}. Щоб зміни вступили в силу, вам доведеться очистити та перезапустити музичний плеєр.",
    "blacklisted_users": "Користувачі з чорного списку",
    "blacklisted_channels": "Канали з чорного списку",
    "blacklisted_servers": "Сервера з чорного списку",
    "_class": "Клас",
    "stream_not_following_any": "Ви не стежите ні за якими стрімами.",
    "stream_message_set_all": "Усі {0} стріми, за якими стежать, тепер мають зазначене повідомлення-оголошення.",
    "repeater_exceed_limit": "На одному сервері не може бути більше {0} повторювачів.",
    "repeater_remove_fail": "Не вдалося видалити повторювач для цього індексу. Ви вказали не дійсний індекс, або ретранслятор на той момент перебував у стані виконання, в цьому випадку повторіть спробу за кілька секунд.",
    "interval_colon": "Інтервал:",
    "executes_in_colon": "Виконується в:",
    "message_colon": "Повідомлення:",
    "no_redundant": "Повідомлення, яке повторюється не буде публікуватися. ",
    "remind_invalid": "Не дійсний формат нагадування. Нагадування повинно мати ціль, таймер і причину. Перевірте список команд.",
    "user_voice_mute_time": "Користувачу {0} **заборонено розмовляти** протягом {1} хвилин.",
    "user_chat_mute_time": "{0} **заборонено писати ** протягом {1} хвилин.",
    "acrm_fail": "Авто-команду не знайдено у вказаному індексі.",
    "warns_dont_expire": "Попередження не встановлено.",
    "warns_expire_in": "Термін дії попереджень закінчується через {0} днів.",
    "not_with_bot_in_voice": "Ви повинні перебувати в одному каналі разом з ботом.",
    "waifu_gift_not_exist": "Цей предмет вайфу не існує",
    "fans": "Шанувальники ({0})",
    "config_edit_fail": "Не вдалося налаштувати {0} значення {1}",
    "config_not_found": "Конфігурацію {0} не знайдено",
    "config_prop_not_found": "Ресурс {0} не знайдено в конфігурації {1}",
    "config_list": "Список конфігурацій",
    "level_req": "Вимагається рівень.",
    "xprewsreset_confirm": "Ви впевнені, що хочете видалити ВСІ нагороди за підвищення рівня ХР на цьому сервері? Ця дія є незворотною. ",
    "xp_role_reward_cleared": "Досягнення {0} рівня більше не винагороджує роллю. ",
    "club_name_too_long": "Назва клубу задовга.",
    "club_user_not_in_club": "{0} не є у клубі.",
    "reaction_cant_access": "Я не можу отримати доступ до реакції {0}. Ви можете використовувати лише емоджі з серверів, на яких я перебуваю.",
    "module_footer": "{0}cmds {1}",
    "module_page_empty": "На цій сторінці немає модуля.",
    "module_description_help": "Отримайте довідку з команд, описи та приклади використання",
    "module_description_gambling": "Робіть ставку на кидки кубиків, блекджек, слоти, монети та інші",
    "module_description_games": "Грайте в гру: дрібниці, нунчі, шибеника, з'єднай4 та інші ігри",
    "module_description_nsfw": "Команди NSFW.",
    "module_description_music": "Відтворюйте музику з YouTube, локальні файли, soundcloud та радіопотоки",
    "module_description_utility": "Керуйте власними цитатами, повторюваними повідомленнями та перевіряйте факти про сервер",
    "module_description_administration": "Модеруйте, карайте користувачів, налаштовуйте самостійно призначені ролі та вітальні повідомлення",
    "module_description_permissions": "Налаштуйте дозволи для команд, фільтруйте слова та налаштуйте час відновлення",
    "module_description_searches": "Шукайте жарти, зображення тварин, аніме та манґу",
    "module_description_xp": "Отримайте ХР на основі активності в чаті, перевірте картки ХР користувачів",
    "module_description_missing": "Опис цього модуля відсутній.",
    "obsolete_use": "⚠ Застаріло, замість цього використовуй {0}.",
    "purge_user_confirm": "Ви впевнені, що хочете видалити {0} з бази даних?",
    "expr_import_no_input": "Неправильні дані. Не знайдено дійсного файлу для завантаження чи введення тексту.",
    "expr_import_invalid_data": "Не вдалося проаналізувати файл. Переконайтеся, що це дійсний .yml файл",
    "inv_expire": "Закінчується через:",
    "inv_uses": "Використань:",
    "empty_page": "Ця сторінка пуста.",
    "pages": "Сторінки",
    "favorites": "Улюблене",
    "tags": "Теги",
    "invalid_emoji_link": "Вказане посилання не є зображенням, або перевищує ліміт 256 КБ.",
    "emoji_add_error": "Помилка додавання емоджі. У вас вичерпано слоти для емоджі, або невідповідний розмір.",
    "emoji_added": "Додано новий смайлик: {0}",
    "boost_on": "Увімкнено  буст-сповіщення на цьому каналі.",
    "boost_off": "Буст-сповіщення вимкнено.",
    "boostmsg_cur": "Поточне буст-сповіщення: {0} ",
    "boostmsg_enable": "Увімкність буст-сповіщення ввівши {0}",
    "boostmsg_new": "Нове буст-сповіщення. ",
    "boostdel_off": "Автоматичне видалення буст-сповіщень вимкнено. ",
    "boostdel_on": "Буст-сповіщення буде видалятися через {0} секунд. ",
    "log_ignored_channels": "Ігноровані канали",
    "log_ignored_users": "Ігноровані користувачі",
    "log_ignore_user": "Журнал ігноруватиме користувача {0}",
    "log_not_ignore_user": "Журнал більше не ігноруватиме користувача {0}",
    "log_ignore_chan": "Журнал ігноруватиме канал {0}",
    "log_not_ignore_chan": "Журнал більше не ігноруватиме канал {0}",
    "streams_cleared": "Усі стріми, за якими ви слідкували, на цьому сервері видалено.",
    "warn_weight": "Вага: {0} ",
    "warn_count": "{0} поточно, {1} всього",
    "mass_ban_in_progress": "Заблокувати {0} користувачів...",
    "mass_ban_completed": "Заблоковано {0} користувачів. ",
    "reminder_server_list": "Список нагадувань серверу",
    "imageonly_enable": "Цей канал доступний лише для зображень.",
    "imageonly_disable": "Цей канал більше не є лише для зображень. ",
    "transaction": "Переказ валюти",
    "finished_track": "Трек завершився",
    "playing_track": "Відтворюється трек #{0}",
    "queued_track": "Трек на черзі",
    "removed_track": "Трек вилучено",
    "autoplaying": "Автоматично додає відносні треки.",
    "music_autoplay_on": "Музичне автовідтворення увімкнене. Я автоматично додам до черги відносні треки після того як всі треки завершать відтворення.",
    "music_autoplay_off": "Музичне автовідтворення вимкнене.",
    "track_moved": "Трек посунутий",
    "atl_not_enabled": "Автоматичний переклад не увімкнений на цьому каналі або ви вказали не правильну мову.",
    "channels": "Канали",
    "track_not_found": "Трек не знайдено.",
    "removed_track_error": "Трека на цьому індексі не існує",
    "market_cap_dominance": "Домінування",
    "circulating_supply": "Обігове постачання",
    "module_description_expressions": "Налаштуйте спеціальні відповіді бота на певні слова чи фрази",
    "deleted_x_servers": "Видалено {0} серверів.",
    "curtr_gift": "Подарунок від {0} [{1}]",
    "curtr_award": "Нагородженний власником бота {0} [{1}]",
    "curtr_take": "Вилучено власником бота {0} [{1}]",
    "expr_deleted": "Вираз видалено",
    "expr_insuff_perms": "Недостатньо дозволів. Для глобальних виразів потрібне володіння ботом, а для серверних виразів — бути адміністратором.",
    "expressions": "Вирази",
    "expr_new": "Новий вираз",
    "expr_no_found": "Виразів не знайдено.",
    "expr_no_found_id": "Виразів з цим id не знайдено.",
    "exprs_cleared": "Всі {0} вирази на цьому сервері були вилучені.",
    "expr_reset": "Вираз з id {0} більше не получає реакцій.",
    "expr_set": "Вираз з цим id {0} буде получати вказані реакції до відповіді: {1}",
    "expr_edited": "Вираз змінено",
    "stream_online_delete_enabled": "Сповіщення про онлайн-стрім тепер видалятимуться, коли стрім переходить у режим офлайн.",
    "stream_online_delete_disabled": "Сповіщення про онлайн-стрім більше не видалятимуться, коли стрім переходить у режим офлайн.",
    "club_create_error_name": "Не вдалося створити клуб. Клуб з такою назвою вже існує.",
    "club_desc_update": "Опис клубу оновлено",
    "bank_accounts": "Банківські рахунки",
    "module_description_medusa": "**Лише власник бота.** Завантажуйте, вивантажуйте та обробляйте динамічні модулі. Докладніше [тут](https://ayanokoujibot.readthedocs.io/en/latest/medusa/creating-a-medusa/)",
    "list_of_medusae": "Список Медуз",
    "list_of_unloaded": "Список доступних Медуз",
    "medusa_name_not_found": "Медуза з такою назвою не існує або не завантажується.",
    "medusa_info": "Інформація про медузу",
    "sneks_count": "Снеки ({0})",
    "commands_count": "Команди ({0})",
    "no_medusa_loaded": "Завантажених медуз немає.",
    "no_medusa_available": "Медуза недоступна.",
    "loaded_medusae": "Завантажені медузи",
    "medusa_not_loaded": "Медуза з такою назвою не завантажується.",
    "medusa_possibly_cant_unload": "Медуза, ймовірно, не повністю розвантажена. Перезапустіть бота, якщо виникнуть проблеми.",
    "medusa_loaded": "Медуза {0} завантажена.",
    "medusa_unloaded": "Медузу {0} вивантажено.",
    "medusa_empty": "Медуза не була завантажена, оскільки не містила Снеків.",
    "medusa_already_loaded": "Медуза {0} уже завантажено",
    "medusa_invalid_not_found": "Медуза з такою назвою не знайдено або файл недійсний",
    "bank_balance": "На вашому банківському рахунку є {0}.",
    "bank_deposited": "Ви внесли {0} на свій банківський рахунок.",
    "bank_withdrew": "Ви зняли {0} зі свого банківського рахунку.",
    "bank_withdraw_insuff": "На вашому банківському рахунку недостатньо {0}.",
    "cmd_group_commands": "Група команд '{0}'.",
    "limit_reached": "Досягнуто ліміту функцій у {0}.",
    "feature_limit_reached_you": "Ви досягли обмеження в {0} для функції {1}. Ви можете збільшити цей ліміт, підвищивши рівень свого патрона.",
    "feature_limit_reached_owner": "Власник сервера досяг ліміту в {0} для функції {1}. Власник сервера може збільшити цей ліміт, підвищивши рівень патрона.",
    "feature_limit_reached_either": "Досягнуто обмеження в {0} для функції {1}. Ви або власник сервера можете підвищити цей ліміт, підвищивши рівень патрона.",
    "tier": "Рівень",
    "pledge": "Застава",
    "expires": "Вичерпується",
    "commands": "Команди",
    "groups": "Групи",
    "modules": "Модулі",
    "no_quota_found": "Цитата не знайдена",
    "patron_info": "Інформація про патрона",
    "quotas": "<<< Цитата >>>",
    "patron_not_enabled": "Система патрона вимкнена.",
    "results_in": "{0} призводить до {1}с",
    "patron_msg_sent": "Надсилання повідомлень патронам рівня {1} і вище закінчено. {1} успішно надіслано та {2} не надіслано.",
    "cards": "Карти",
    "hand_value": "Вартість руки",
    "roll2": "Кидок",
    "rolls": "Кидки",
    "available_tests": "Доступні тести",
    "test_results_for": "Результати тесту для {0}",
    "multiplier": "Множник",
    "trivia_ended": "Гра вікторини закінчилася",
    "card": "Карта",
    "guess": "Вгадай",
    "repeater_skip_next": "Наступний тригер цього повторювача буде пропущено.",
    "repeater_dont_skip_next": "Наступний тригер цього повторювача не буде пропущено.",
    "remind_timely": "Я нагадаю вам про вашу своєчасну винагороду {0}",
    "xp_shop_disabled": "Магазин Xp відключений власником, або немає товарів у продажу.",
    "timely_time": "Настав час вашої своєчасної винагороди.",
    "buy": "Купити",
    "use": "Використати",
    "in_use": "У використані",
    "xp_shop_item_cant_use": "Ви не можете використовувати цей предмет, оскільки він не існує або вам не належить.",
    "linkonly_enable": "Цей канал тепер доступний лише для посилань.",
    "linkonly_disable": "Цей канал більше не доступний лише для посилань.",
    "xp_shop_buy_required_tier": "Для купівлі товарів у цьому магазині потрібен рівень патрона {0} або вищий.",
    "available_commands": "Доступні команди",
    "xpadd_users": "Додано {0} сервер XP до {1} користувачів.",
    "xpshop_buy_success": "Успішно придбано `{0}/{1}`",
    "patron_insuff_tier": "Рівень вашого патрона недостатній для виконання цієї дії.",
    "xpshop_already_owned": "Ви вже володієте цим товаром.",
    "xpshop_item_not_found": "Елемент із таким ключем не існує.",
    "xpshop_website": "Ви можете переглянути список усіх товарів Xp магазина тут: <https://xpshop.ayanokouji.bot>"
}