{
    "api_key_missing": "API ключ, необходимый для этой команды, не указан.",
    "quote_deleted": "Цитата удалена",
    "redacted_too_long": "Отредактировано, из-за того, что оно слишком длинное.",
    "trigger": "Тригер",
    "response": "Отклик",
    "fw_cleared": "Удалены все отфильтрованные слова и настройки фильтров каналов.",
    "aar_disabled": "Пользователь, который присоединился к серверу не получил ни одной роли автоматически",
    "bandm": "Вы получили бан на сервере {0}.\nПричина: {1}",
    "banned_user": "Пользователь забанен",
    "byedel_off": "Автоматическое удаление прощальных сообщений отключено",
    "byedel_on": "Прощальное сообщение будет удалено через {0} секунд.",
    "byemsg_cur": "Текущее прощальное сообщение",
    "byemsg_enable": "Активировать прощальное сообщение, набрав {0}",
    "byemsg_new": "Новое прощальное сообщение установлено",
    "bye_off": "Прощальное сообщение отключено",
    "bye_on": "Прощальное сообщение включено для этого канала",
    "cr": "Роль {0} успешно создана ",
    "dr": "Роль {0}  удалена.",
    "createtextchan": "Текстовый канал {0} создан.",
    "createvoich": "Голосовой канал {0} создан.",
    "deafen": "Успешно заглушен.",
    "delmsg_off": "Больше я не буду автоматически удалать сообщения команд на этом сервере.",
    "delmsg_on": "Теперь я буду автоматически удалять команды сообщений на этом сервере.",
    "delmsg_channel_off": "Я не буду больше автоматически удалять сообщения команд на этом канале.",
    "delmsg_channel_on": "Я всегда буду автоматически удалять сообщения команд на этом канале не смотря на серверные настройки.",
    "delmsg_channel_inherit": "Я буду автоматически удалять сообщения команд на этом канале, только если это разрешено сервером.",
    "deltextchan": "Текстовый канал {0} удален.",
    "delvoich": "Голосовой канал {0} удален.",
    "fwall_start": "Отныне я буду пересылать ЛС всем владельцам.",
    "fwall_stop": "Отныне я буду пересылать ЛС только первому владельцу.",
    "fwdm_start": "Отправка ЛС теперь включена.",
    "fwdm_stop": "Впредь, я не буду отправлять ЛС.",
    "greetdel_off": "Автоматическое удаление приветственного сообщения отключено.",
    "greetdel_on": "Приветственное сообщение будет удалено через {0} секунд.",
    "greetdmmsg_cur": "Текущее приветственное сообщение в ЛС",
    "greetdmmsg_enable": "Напечатайте {0}, чтобы активировать приветственное сообщение в ЛС",
    "greetdmmsg_new": "Новое приветственное ЛС сообщение установлено.",
    "greetdm_off": "Приветственное ЛС сообщение отключено.",
    "greetdm_on": "Приветственное ЛС сообщение включено.",
    "greetmsg_cur": "Текущее приветственное сообщение",
    "greetmsg_enable": "Включено приветственное сообщение по нажатию {0}",
    "greetmsg_new": "Новое приветственное сообщение установленно.",
    "greet_off": "Приветственное объявление отключено.",
    "greet_on": "Приветственное объявление включено на этом канале.",
    "hierarchy": "Вы не можете использовать эту команду на пользователя с высшей или такой же ролью как у вас по правилам иерархии ролей.",
    "invalid_format": "Неверный вводимый формат",
    "kickdm": "Вы были выгнаны с сервера {0}\nПричина: {1}",
    "kicked_user": "Пользователь выгнан",
    "lang_list": "Лист языков",
    "lang_set_bot": "Локализация бота по умолчанию теперь {0} - {1}",
    "lang_set_bot_show": "Язык бота установлен на {0} - {1}",
    "lang_set": "Язык сервера установлен на {0} - {1}",
    "message_sent": "Сообщение отправлено.",
    "mute_error": "У меня, скорее всего, нет прав на это.",
    "mute_role_set": "Новая роль мута создана.",
    "prot_active": "Активные защиты",
    "prot_disable": "{0} был **отключен** на этом сервере.",
    "prot_enable": "{0} Включен.",
    "prot_none": "Защита не включена.",
    "raid_cnt": "Порог пользователя должен быть между {0} и {1}",
    "raid_stats": "Если {0} или больше пользователей присоединятся  через {1} секунд, я их {2}.",
    "raid_time": "Время должно быть между {0} и {1} секунд.",
    "rar": "Успешно удалены все роли с пользователя {0}",
    "rc": "Цвет {0} был изменен.",
    "renrole": "Роль была переименована",
    "reprm": "Удалено чередующееся сообщение: {0}",
    "role_added": "Роль {0} была добавлена в список в групп {1}.",
    "role_in_list": "Роль {0} уже есть в списке.",
    "self_assign_already": "У вас уже есть роль {0}.",
    "self_assign_excl": "Само-назначаемые роли теперь эксклюзивные!",
    "self_assign_list": "Всего {0} самостоятельно назначаемых ролей.",
    "self_assign_not": "Эта роль не может быть самостоятельно назначена.",
    "self_assign_not_have": "Вы не имеете роли {0}.",
    "self_assign_no_excl": "Само-назначаемые роли теперь не эксклюзивные!",
    "self_assign_perms": "Я не могу назначить вам эту роль. `Я не могу добавлять роли владельцам или другим ролям, которые выше чем я в ролевой иерархии.`",
    "self_assign_rem": "{0} было удалено из списка само-назначаемых ролей.",
    "self_assign_remove": "У вас больше нет роли {0}.",
    "self_assign_success": "У вас появилась роль {0}.",
    "adsarm_enable": "Автоматическое удаление ответов на команды `{0}iam` и `{0}iamn` было включено.",
    "adsarm_disable": "Бот больше не будет удалять ответы на команды `{0}iam` и `{0}iamn`.",
    "setrole": "Успешно добавил роль {0} пользователю {1}",
    "set_channel_name": "Установлено новое имя канала.",
    "shutting_down": "Выключаюсь",
    "spam_ignore": "{0} будет игнорировать этот канал.",
    "spam_not_ignore": "{0} больше не будет игнорировать этот канал.",
    "spam_stats": "Если пользователь публикует {0} одинаковых сообщений подряд, я {1} их. __Игнорируемые каналы__: {2}",
    "undeafen": "Заглушение было убрано.",
    "username": "Логин",
    "user_chat_mute": "{0} теперь **запрещено** писать в чате.",
    "user_chat_unmute": "{0} теперь **разрешено** писать в чате.",
    "user_muted": "{0} теперь **запрещено** общаться в текстовом и голосовом чатах.",
    "user_unmuted": "{0 теперь **разрешено** общаться в текстовом и голосовом чатах.",
    "user_voice_mute": "{0} был выдан запрет на общение в **голосовом чате**",
    "user_voice_unmute": "{0} было выдано разрешение на общение в **голосовом чате**",
    "sbdm": "Вы были заблокированы на сервере {0}.\nПричина: {1}",
    "sb_user": "Пользователь был выгнан",
    "better_luck": "Удачи в следующий раз ^-^",
    "roll": "Вам выпало {0}.",
    "br_win": "Поздравляем! Вы победили {0}, так как выбросили число больше {1}",
    "flip_guess": "Вы угадали! Вы выиграли {0}",
    "flip_results": "{0} монет подброшено. Из них: {1} орлов, {2} решек.",
    "has": "У {0} есть {1}",
    "leaderboard": "Таблица лидеров",
    "mass_award": "{1} пользователей с ролью {2} получили вознаграждение в виде {0}",
    "max_bet_limit": "Вы не можете сделать ставку, больше {0}",
    "min_bet_limit": "Вы не можете сделать ставку, меньше {0}",
    "not_enough": "У вас не хватает {0}",
    "raffled_user": "Победитель лотереи",
    "slot_bet": "Ставка",
    "slot_jackpot": "ВАААААААУУУ!!! Поздравляем!!! x{0}",
    "slot_single": "Один {0}, x{1}",
    "slot_three": "Вау! Удачливый! Три одной масти! x{0}",
    "slot_two": "Хорошая робота! Два {0} - ставка x{1}",
    "won": "Выиграл",
    "transactions": "Операции пользователя {0}",
    "commands_instr": "Наберите `{0}h команда` чтобы получить помощь по указанной команде. Например: `{0}h {0}ball`",
    "command_not_found": "Я не могу найти эту команду. Пожалуйста, убедись, что команда существует, перед тем, как пробовать снова.",
    "module_not_found": "Этот модуль не существует.",
    "module_not_found_or_cant_exec": "Этот модуль либо не существует, либо же Вы не можете воспользоваться никакими командами из данного модуля.",
    "usage": "Использование",
    "options": "Параметры",
    "requires": "Требуются",
    "blacklisted_tag_list": "Список заблокированных тэгов:",
    "blacklisted_tag_add": "Тэг {0} теперь находится в черном списке.",
    "blacklisted_tag_remove": "Тэг {0} больше не находится в черном списке.",
    "animal_race": "Гонка животных",
    "animal_race_failed": "Не удалось начать гонку, из-за недостатка участников.",
    "animal_race_join": "{0} присоединился к гонке в роли {1}",
    "animal_race_join_instr": "Наберите {0}race, чтобы присоединиться к гонке.",
    "animal_race_starting": "Гонка будет начата через {0} секунд или когда все места в ней будут заняты.",
    "animal_race_won": "{0} в роли {1} , побеждает в гонке!",
    "dice_invalid_number": "Неправильное число. Вы можете бросить только {0}-{1} костей одновременно.",
    "dice_rolled": "выпало {0}",
    "dice_rolled_num": "Кости брошены: {0}",
    "changes_of_heart": "Изменения сердца",
    "claimed_by": "Забрана",
    "divorces": "Разводы",
    "likes": "Лайки",
    "price": "Цена",
    "waifu": "Вайфу",
    "waifus_none": "Ни одной вайфу еще не было присвоено.",
    "waifus_top_waifus": "Топ вайфу",
    "waifu_claimed": "присвоил {0} как свою вайфу за {1}!",
    "waifu_divorced_like": "Вы развелись с вайфу которой вы нравитесь. Вы бессердечный монстр. {0} получил {1} как компенсацию",
    "waifu_egomaniac": "Вы не можешь установить пристрастие на себя, эгоист.",
    "waifu_fulfilled": "🎉 Их любовь исполнена! 🎉\nНовая цена {0} — {1}!",
    "waifu_not_enough": "Вам нужно заплатить {0} или больше, что бы заполучить эту вайфу!",
    "waifu_not_yours": "Эта вайфу не ваша.",
    "waifu_not_yourself": "Вы не можете заполучить себя.",
    "waifu_recent_divorce": "Вы недавно развелись. Вы должны подождать {0} часов и {1} минут, чтобы развестись снова.",
    "waifu_transfer_fail": "Вы не владелец этой вайфу.",
    "waifu_transfer_success": "Присвоение {0} было передано от {1} к {2}",
    "nobody": "Никто",
    "waifu_divorced_notlike": "Вы развелись с вайфу, которая не любит вас. Вы получили {0} обратно.",
    "waifu_reset": "Ваша статистика вайфу была стерта.",
    "waifu_reset_fail": "Не удалось сбросить Вашу статистику вайфу. Убедитесь, что Вам хватает валюты на это действие.",
    "waifu_reset_confirm": "Это приведет к тому, что ваша статистика вайфу будет стерта.",
    "acrophobia": "Акрофобия",
    "acro_ended_no_sub": "Игра была закончена без ответов.",
    "acro_no_votes_cast": "Никто не проголосовал. Игра была закончена без победителя.",
    "acro_nym_was": "Акроним был {0}.",
    "acro_running": "Игра в Акрофобию уже проходит в этом канале.",
    "acro_started": "Игра началась. Составьте предложение со следующим акронимом: {0}.",
    "acro_started_footer": "У вас есть {0} для того, что бы предложить свой вариант.",
    "acro_vote": "Проголосовать можно просто написав номер ответа в чат",
    "acro_vote_cast": "{0} отдал свой голос!",
    "acro_winner": "Победитель {0} с {1} баллами.",
    "acro_winner_only": "Победителем стал {0} - он всего один, кто дал ответ.",
    "question": "Вопрос",
    "rps_draw": "Это ничья! Двое выбрали {0}",
    "rps_win": "{0} выигрывает! {1} побеждает {2}",
    "submissions_closed": "Приём ответов был окончен.",
    "total_average": "Всего: {0} Среднее: {1}",
    "category": "Категория",
    "cleverbot_disabled": "Умный робот был отключен в этом канале.",
    "cleverbot_enabled": "Умный робот был включен в этом канале.",
    "curgen_disabled": "Генерация валюты была отключена в этом канале.",
    "curgen_enabled": "Генерация валюты была включена в этом канале.",
    "curgen_pl": "{0} случайных {1} появились!",
    "curgen_sn": "Случайный {0} появился!",
    "game_started": "Игра началась",
    "hangman_game_started": "Игра в Виселицу начата!",
    "hangman_running": "Игра в Виселицу уже происходит в этом канале.",
    "hangman_types": "Список типов терминов \"{0}hangman\":",
    "no_results": "Нет результатов.",
    "picked": "поднял {0}",
    "planted": "{0} посадил {1}",
    "trivia_already_running": "Викторина уже запущена на этом сервере.",
    "trivia_game": "Викторина",
    "trivia_guess": "{0} угадал! Ответ был: {1}",
    "trivia_none": "Никакой Викторины не происходит на этом сервере.",
    "trivia_points": "{0} имеет {1} баллов",
    "trivia_stopping": "Викторина закончится после этого вопроса.",
    "trivia_times_up": "Время вышло! Правильный ответ был {0}",
    "ttt_against_yourself": "Вы не можете играть против себя.",
    "ttt_already_running": "Игра в Крестики-нолики уже идет в этом канале.",
    "ttt_a_draw": "Ничья!",
    "ttt_created": "создал игру в Крестики-нолики",
    "ttt_has_won": "{0} победил!",
    "ttt_matched_three": "сложил три в ряд!",
    "ttt_no_moves": "Ходов больше не осталось!",
    "ttt_time_expired": "Время истекло!",
    "ttt_users_move": "Ход игрока {0}",
    "vs": "{0} против {1}",
    "attempting_to_queue": "Пробую поставить в очередь {0} песен...",
    "fairplay": "Справедливое воспроизведение музыки\n",
    "id": "Идентификатор",
    "invalid_input": "Неправильное значение",
    "must_be_in_voice": "Вам нужно быть в голосовом канале на этом сервере.",
    "name": "Имя",
    "no_player": "Отсутствует активный музыкальный проигрыватель.",
    "no_search_results": "Никаких результатов поиска не найдено.",
    "player_queue": "Очередь воспроизведения - Страница {0}/{1}",
    "playlist_queue_complete": "Добавление плейлиста в очередь воспроизведения завершено.",
    "repeating_track": "Повторяю песню",
    "volume_set": "Громкость установлена на {0}%",
    "acm_disable": "Выключено использование ВСЕХ МОДУЛЕЙ в канале {0}.",
    "acm_enable": "Включено использование ВСЕХ МОДУЛЕЙ в канале {0}.",
    "arm_disable": "Выключено использование ВСЕХ МОДУЛЕЙ для роли {0}.",
    "arm_enable": "Включено использование ВСЕХ МОДУЛЕЙ для роли {0}.",
    "asm_disable": "Использование ВСЕХ МОДУЛЕЙ на этом сервере было отключено.",
    "asm_enable": "Использование ВСЕХ МОДУЛЕЙ на этом сервере было включено.",
    "aum_disable": "Отключено использование ВСЕХ МОДУЛЕЙ для пользователя {0}.",
    "aum_enable": "Включено использование ВСЕХ МОДУЛЕЙ для пользователя {0}.",
    "blacklisted": "Занесены в черный список {0} с идентификаторами: {1}",
    "unblacklisted": "Вынесены из черного списка {0} с идентификаторами: {1}",
    "cmdcd_add": "У команды {0} теперь есть время перезарядки в виде {1}c",
    "cmdcd_cleared": "У команды {0} больше нет перезарядки и все существующие перезарядки были сброшены.",
    "cmdcd_none": "У команды не было установлено время перезарядки.",
    "cx_disable": "Заблокировано использование {0} {1} в канале {2}.",
    "cx_enable": "Разблокировано использование {0} {1} в канале {2}.",
    "filter_word_add": "Слово {0} было добавлено в список фильтрующихся слов.",
    "filter_word_list": "Список слов в фильтре",
    "filter_word_remove": "Слово {0} было удалено из списка фильтрующихся слов.",
    "invalid_second_param_between": "Второй параметр неверен.(Должен быть числом между {0} и {1})",
    "invite_filter_channel_off": "Фильтрация приглашений была отключена в этом канале.",
    "invite_filter_channel_on": "Фильтрация приглашений была включена в этом канале.",
    "invite_filter_server_off": "Фильтрация приглашений была отключена на этом сервере.",
    "invite_filter_server_on": "Фильтрация приглашений была включена на этом сервере.",
    "moved_permission": "Передано разрешение {0} с #{1} в #{2}",
    "perm_not_found": "Не могу найти разрешение с номером #{0}",
    "of_command": "команда",
    "of_module": "модуль",
    "page": "Страница {0}",
    "permrole": "Текущая роль разрешений — {0}.",
    "permrole_not_set": "Роль разрешений не указана.",
    "permrole_reset": "Роль разрешений сброшена.",
    "permrole_changed": "Пользователям требуется роль {0} для редактирования разрешений.",
    "perm_out_of_range": "Не найдено разрешения с таким номером.",
    "removed": "удалил разрешение #{0} - {1}",
    "rx_disable": "Отключено использование {0} {1} для роли {2}.",
    "rx_enable": "Включено использование {0} {1} для роли {2}.",
    "sec": "сек.",
    "sx_disable": "Отключено использование {0} {1} на этом сервере.",
    "sx_enable": "Включено использование {0} {1} на этом сервере.",
    "uneditable": "нередактируемы",
    "ux_disable": "Заблокировано использование {0} {1} для пользователя {1}.",
    "ux_enable": "Разблокировано использование {0} {1} для пользователя {1}.",
    "verbose_false": "Я больше не буду показывать предупреждения о разрешениях.",
    "verbose_true": "Я теперь буду показывать предупреждения о разрешениях.",
    "word_filter_channel_off": "Фильтрация слов была отключена для этого канале.",
    "word_filter_channel_on": "Фильтрация слов была включена для этого канала.",
    "word_filter_server_off": "Фильтрация слов была отключена для этого сервера.",
    "word_filter_server_on": "Фильтрация слов была включена для этого сервера.",
    "abilities": "Способности",
    "chapters": "Главы",
    "comic_number": "Комикс #",
    "condition": "Условие",
    "cost": "Цена",
    "date": "Дата",
    "word": "Слово",
    "definition": "Значение",
    "episodes": "Эпизоды",
    "example": "Пример",
    "genres": "Жанры",
    "authors": "Авторы",
    "height_weight": "Высота/вес",
    "height_weight_val": "{0}метров/{1}килограммов",
    "humidity": "Влажность",
    "image_search_for": "Поиск изображений:",
    "latlong": "Широта/Долгота",
    "location": "Местоположение",
    "timezone": "Часовой пояс",
    "min_max": "Мин/Макс",
    "original_url": "Оригинальная ссылка",
    "pokemon_ability_none": "Никакой способности не найдено",
    "pokemon_none": "Покемон не найден",
    "rating": "Рейтинг",
    "score": "Счет:",
    "search_for": "Поиск:",
    "short_url": "Короткая ссылка",
    "status": "Статус",
    "sunrise": "Восход солнца",
    "sunset": "Заход солнца",
    "temperature": "Температура",
    "types": "Типы:",
    "url": "Ссылка",
    "wind_speed": "Скорость ветра",
    "author": "Автор",
    "botid": "Идентификатор бота",
    "channelid": "{0} этого канала {1}",
    "channel_topic": "Тема канала",
    "commands_ran": "Команд запущено",
    "convert": "{0} {1} равно {2} {3}",
    "convertlist": "Единицы, которые можно использовать при конвертировании",
    "convert_not_found": "Невозможно преобразовать {0} в {1}: единиц измерения не найдено",
    "convert_type_error": "Невозможно преобразовать {0} в {1}: типы единиц измерения не равны",
    "created_at": "Создано",
    "created_by": "Создано {0}",
    "custom_emojis": "Пользовательские эмодзи",
    "error": "Ошибка",
    "features": "Характеристики",
    "index_out_of_range": "Показатель вышел за пределы диапазона.",
    "inrole_list": "Список пользователей с ролью {0}",
    "joined_discord": "Зарегистрировался в Дискорде",
    "joined_server": "Зашел на сервер",
    "listservers": "Идентификатор: {0}\nУчастники: {1}\nИдентификатор владельца: {2}",
    "listservers_none": "Никаких серверов не найдено на этой странице.",
    "list_of_repeaters": "Список повторений",
    "members": "Участники",
    "memory": "Использование памяти",
    "messages": "Сообщения",
    "nickname": "Псевдоним",
    "nobody_playing_game": "Никто не играет в эту игру на данный момент",
    "no_topic_set": "Нет заданной темы.",
    "owner": "Владелец",
    "owner_ids": "Идентификаторы владельцев",
    "region": "Регион",
    "remind": "Я напомню пользователю {0}, чтобы он {1} через {2} `({3:d.M.yyyy} в {4:HH:mm})`",
    "remind_too_long": "Время напоминания превысило максимум.",
    "repeaters_none": "Никаких повторений не включено на этом сервере.",
    "repeat_invoke_none": "На этом сервере не найдено никаких повторяющихся сообщений.",
    "result": "Результат",
    "roles": "Роли",
    "serverid": "{0} этого сервера - {1}",
    "server_info": "Информация о сервере",
    "shard": "Шард",
    "showemojis_none": "Специальных эмодзи не найдено.",
    "text_channels": "Текстовые каналы",
    "uptime": "Время работы",
    "userid": "{0} пользователя {1} — {2}",
    "roleid": "{0} роли {1} — {2}",
    "voice_channels": "Голосовые каналы",
    "current_poll_results": "Текущие результаты опроса",
    "poll_already_running": "Опрос уже проходит на этом сервере.",
    "poll_created": "📃 {0} создал опрос",
    "poll_result": "`{0}.` {1} с {2} голосами.",
    "poll_voted": "{0} проголосовал.",
    "poll_invalid_input": "Неверный ввод. У вас должен быть вопрос и, по крайней мере, 2 ответа, разделенные знаком \";\".",
    "x_votes_cast": "Всего отдано {0} голосов.",
    "pick_pl": "Для того, что бы собрать их, напишите {0}",
    "pick_sn": "Для того, что бы собрать это, напишите {0}",
    "sql_confirm_exec": "Подтвердите выполнение следующей команды SQL",
    "no_vcroles": "Нет никаких установленных ролей для голосовых каналов.",
    "user_muted_time": "{0 теперь **запрещено** общаться в текстовом и голосовом чатах на {1} минут.",
    "vcrole_added": "Пользователи, которые присоединятся в голосовой канал {0}, будут получать роль {1}",
    "vcrole_removed": "Пользователи, которые присоединятся в голосовой канал {0}, больше будут получать роль {1}",
    "vc_role_list": "Роли голосовых каналов",
    "option_disabled": "Настройка {0} теперь отключена для выражения с ID {1}",
    "option_enabled": "Настройка {0} теперь включена для выражения с ID {1}",
    "channel": "Канал",
    "command_text": "Текст команды",
    "moderator": "Модератор",
    "reason": "Причина",
    "scadd": "Новая команда, которая будет исполнятся при запуске успешно добавлена.",
    "scrm": "Команда, которая будет исполнятся при запуске успешно убрана.",
    "scrm_fail": "Команда авто-запуска не найдена.",
    "server": "Сервер",
    "startcmdlist_none": "Никаких команд авто-запуска на этой странице.",
    "startcmds_cleared": "Очищены все команды авто-запуска.",
    "unbanned_user": "Пользователь {0} был разблокирован.",
    "user_not_found": "Пользователь не найден.",
    "user_warned": "Пользователь {0} получил предупреждение.",
    "user_warned_and_punished": "Пользователь {0} получил предупреждение и наказание в виде {1} было применено.",
    "warned_on": "Получил предупреждение на сервере {0}",
    "warned_on_by": "{0} в {1} пользователем {2}",
    "warnings_cleared": "Все предупреждения пользователя {0} были сняты.",
    "warning_clear_fail": "Предупреждение не было снято. Или никакого предупреждения под таким индексом не существует, или оно уже было снято.",
    "warning_cleared": "Предупреждение {0} было снято для {1}",
    "warnings_none": "Никаких предупреждений на этой странице",
    "warnlog_for": "Список предупреждений для {0}",
    "warnpl_none": "Никаких наказаний не установлено.",
    "warn_cleared_by": "Предупреждения сняты {0}",
    "warn_punish_list": "Список наказаний за предупреждения",
    "warn_punish_rem": "Наказания за {0} предупреждений больше не будет.",
    "warn_punish_set": "Я буду применять наказание {0} на пользователях с {0} предупреждениями.",
    "cant_apply_punishment": "Не могу применить наказание. Отсутствуют нужные разрешения.",
    "shop": "Магазин",
    "shop_item_add": "Товар был добавлен в магазин",
    "shop_none": "Никаких товаров не найдено на этой странице.",
    "shop_role": "Вы получите роль {0}",
    "type": "Вид:",
    "gvc_disabled": "Функция Игровых голосовых каналов была отключена на этом сервере.",
    "gvc_enabled": "{0} теперь Игровой голосовой канал.",
    "not_in_voice": "Вы не находитесь в голосом канале на этом сервере",
    "item": "Вещь",
    "out_of_stock": "Нет в наличии",
    "random_unique_item": "Случайный уникальный предмет.",
    "shop_buy_error": "Произошла ошибка при отправке сообщения вам в ЛС. Ваши деньги были возвращены.",
    "shop_item_not_found": "Ни одного товара с этим номер не найдено.",
    "shop_item_purchase": "Товар был куплен успешно.",
    "shop_item_rm": "Товар был убран из магазина",
    "shop_item_wrong_type": "Этот элемент магазина не поддерживает добавление товара.",
    "shop_list_item_added": "Товар был успешно добавлен.",
    "shop_list_item_not_unique": "Этот товар уже был добавлен.",
    "shop_purchase": "Покупка на сервере {0}",
    "shop_role_not_found": "Продаваемая роль больше не существует.",
    "role_not_found": "Роль не найдена.",
    "shop_role_purchase": "Ты успешно приобрел роль {0}",
    "shop_role_purchase_error": "Возникла ошибка при выдачи роли. Ваша покупка была отменена.",
    "unique_items_left": "Осталось {0} уникальных предметов.",
    "blocked_commands": "Заблокированные команды",
    "blocked_modules": "Заблокированные модули",
    "gcmd_add": "Команда {0} была отключена на всех серверах.",
    "gcmd_remove": "Команда {0} была включена на всех серверах.",
    "gmod_add": "Модуль {0} был отключен на всех серверах.",
    "gmod_remove": "Модуль {0} был включен на всех серверах.",
    "lgp_none": "Не найдено заблокированных команд или модулей.",
    "cant_read_or_send": "Вы не можете читать сообщения или отправлять сообщения в этом канале.",
    "prefix_current": "Префикс на этом сервере {0}",
    "defprefix_current": "Обычный префикс бота {0}",
    "timezone_guild": "Часовой пояс для этого сервера `{0}`",
    "timezone_not_found": "Часовой пояс не найден. Используйте команду \"timezones\", что бы увидеть список доступных часовых поясов.",
    "timezones_available": "Доступные часовые пояса",
    "not_found": "Не найдено.",
    "verbose_errors_enabled": "Отныне необработанные ошибки команд будут показаны в чате.",
    "verbose_errors_disabled": "Необработанные ошибки команд больше не будут показаны в чате.",
    "perms_reset": "Разрешения для этого сервера были обнулены.",
    "perm_prevent": "Разрешение {1} под номером {0} предотвращает данное действие.",
    "global_perms_reset": "Глобальные разрешения были сброшены.",
    "module": "Модуль: {0}",
    "hangman_stopped": "Игра в Виселицу была остановлена.",
    "queue_shuffled": "Музыкальная очередь была перемешана.",
    "warnings_list": "Список всех людей с предупреждениями на этом сервере",
    "waifu_gift": "подарил {0} пользователю {1}",
    "waifu_gift_shop": "Магазин подарков для вайфу",
    "gifts": "Подарки",
    "connect4_created": "Игра в Connect4 была создана. Ожидается игрок.",
    "connect4_created_bet": "Игра в Connect4 была создана со ставкой в {0}. Ожидается игрок с такой же ставкой.",
    "connect4_player_to_move": "Ход игрока: {0}",
    "connect4_failed_to_start": "Невозможно было начать игру в Connect4, поскольку никто не присоединился.",
    "connect4_draw": "Игра в Connect4 закончилась ничьей.",
    "connect4_won": "{0} победил игру в Connect4 против {1}.",
    "nunchi_joined": "Присоединился к игре в нунчи. Пока что присоединилось только {0} пользователей.",
    "nunchi_ended": "Игра в нунчи закончилась. {0} победил",
    "nunchi_ended_no_winner": "Игра в нунчи закончилась без победителя.",
    "nunchi_round_ended": "Раунд в нунчи окончен. {0} выбывает.",
    "nunchi_round_ended_boot": "Раунд в нунчи закончился из-за таймаута некоторых пользователей. Данные пользователи ещё в игре: {0}",
    "nunchi_round_started": "Раунд в нунчи начался с {0} пользователями. Начните считать с числа {1}.",
    "nunchi_next_number": "Номер зарегистрирован. Последний номер был {0}",
    "nunchi_failed_to_start": "Невозможно было начать игру в нунчи из-за недостаточного количества участников.",
    "nunchi_created": "Игра в нунчи была создана. Ожидаются игроки.",
    "stream_role_enabled": "Когда пользователи с ролью {0} запустят стрим, я добавлю им роль {1}.",
    "stream_role_disabled": "Функция стримерской роли была отключена.",
    "stream_role_kw_set": "Стримерам теперь нужно ключевое слово {0}, что бы получить роль.",
    "stream_role_kw_reset": "Ключевое слово для получения роли стримера было сброшено.",
    "stream_role_bl_add": "Пользователь {0} никогда не получит стримерскую роль.",
    "stream_role_bl_add_fail": "Пользователь {0} уже находится в черном списке.",
    "stream_role_bl_rem": "Пользователь {0} больше не находится в черном списке.",
    "stream_role_bl_rem_fail": "Пользователь {0} не в черном списке.",
    "stream_role_wl_add": "Пользователь {0} теперь будет получать роль стримера, даже если в его названии трансляции нет ключевого слова.",
    "stream_role_wl_add_fail": "Пользователь {0} уже находится в белом списке.",
    "stream_role_wl_rem": "Пользователь {0} больше не находится в белом списке.",
    "stream_role_wl_rem_fail": "Пользователь {0} не в белом списке.",
    "xp_role_reward_add_role": "Пользователи, которые достигнут {0} уровень, получат роль {1}.",
    "xp_role_reward_remove_role": "Пользователи, которые достигнут {0} уровень, потеряют роль {1}.",
    "cur_reward_cleared": "Достижение {0} уровня, больше не будет награждаться {1}.",
    "cur_reward_added": "Пользователи, которые достигнут {0} уровень, получат {1}.",
    "level_up_rewards": "Награды за повышение уровня",
    "xp_receive_role": "Получена роль {0}",
    "xp_lose_role": "Потеряна роль {0}",
    "club_create_error": "Не удалось создать клуб. Убедитесь, что Вы 5-го уровня или выше и Вы не состоите в клубе на данный момент.",
    "club_created": "Клуб {0} успешно создан!",
    "club_not_exists": "Этот клуб не существует.",
    "club_applied": "Вы подали заявку на участие в клубе {0}.",
    "club_apply_error": "Не удалось подать заявку. Вы уже состоите в клубе, либо у Вас недостаточный уровень, либо же Вы были заблокированы в этом клубе.",
    "club_accepted": "Пользователь {0} был принят в клуб.",
    "club_accept_error": "Пользователь не найден",
    "club_left": "Вы покинули клуб",
    "club_not_in_club": "Вы не в клубе или же вы пытаетесь выйти с клуба, в котором вы владелец.",
    "club_user_kick": "Пользователь {0} был исключен из клуба {1}",
    "club_user_kick_fail": "Ошибка кика. Вы либо не владелец клуба или же данный пользователь не в вашем клубе.",
    "club_user_banned": "Пользователь {0} был заблокирован в клубе {1}",
    "club_user_ban_fail": "Не удалось заблокировать. Вы либо не владелец клуба, либо данный пользователь не состоит в вашем клубе.",
    "club_user_unbanned": "Пользователь {0} был разблокирован в твоем клубе.",
    "club_user_unban_fail": "Не удалось разблокировать. Вы либо не владелец клуба, либо данный пользователь не состоит в вашем клубе.",
    "club_level_req_changed": "Требуемый уровень для вступления в клуб был изменен на {0}",
    "club_level_req_change_error": "Не удалось изменить требуемый уровень.",
    "club_desc_updated": "Описание клуба было изменено на {0}.",
    "club_desc_update_failed": "Не удалось изменить описание клуба.",
    "club_disbanded": "Клуб {0} был расформирован",
    "club_disband_error": "Ошибка. Вы либо не в клубе или же вы не владелец клуба.",
    "club_icon_error": "Неверная ссылка на изображение либо Вы не владелец клуба.",
    "club_icon_set": "Новый логотип клуба установлен.",
    "club_bans_for": "Список заблокированных в клубе {0}",
    "club_apps_for": "Кандидаты в клуб {0}",
    "club_leaderboard": "Клубная таблица рейтинга - страница {0}",
    "self_assign_are_exclusive": "Вы можете выбрать только одну роль из каждой группы.",
    "self_assign_are_not_exclusive": "Вы можете выбрать любое количество ролей из любых групп.",
    "new_reaction_event": "Добавьте реакцию {0} к этому сообщению, чтобы получить {1}\nОсталось {2}.",
    "new_gamestatus_event": "Введите секретный код в любом канале, чтобы получить {1}\n{2} осталось для выдачи.",
    "event_duration_footer": "Мероприятие закончится через {0}ч {1}м",
    "start_event_fail": "Не удалось запустить мероприятие. Другое мероприятие уже было запущено, либо же произошла ошибка при запуске мероприятия",
    "event_title": "Событие типа {0} началось!",
    "poll_closed": "Опрос закрыт!",
    "club_not_exists_owner": "Вы не администратор или владелец клуба!",
    "club_admin_add": "{0} теперь администратор клуба.",
    "club_admin_remove": "{0} больше не администратор клуба.",
    "club_admin_error": "Ошибка. Либо вы не владелец вашего клуба, либо этот пользователь не является его участником.",
    "feed_added": "Лента добавлена.",
    "feed_not_valid": "Неверная ссылка. Либо Вы уже подписаны на эту ленту новостей на этом сервере, либо вы достигли максимального количества разрешенных подписок на ленты новостей.",
    "feed_out_of_range": "Указатель находится за пределами диапазона",
    "feed_removed": "Лента новостей была удалена",
    "feed_no_feed": "Вы еще не подписаны ни на одну ленту новостей на этом сервере",
    "timely_none": "Владелец бота не указал суточную награду.",
    "timely_already_claimed": "Вы уже получали свою суточную награду. Ее можно будет получить еще раз через {0}.",
    "timely": "Вы получили свои {0}. Вы сможете получить их снова через {1}ч",
    "timely_set": "Пользователи смогут получить {0} каждые {1}ч",
    "timely_set_none": "Пользователи больше не смогут получить суточную валюту.",
    "timely_reset": "Пользователи снова смогут получить суточную валюту.",
    "market_cap": "Рыночная капитализация",
    "volume_24h": "Объем (24ч)",
    "change_7d_24h": "Изменения (7д/24ч)",
    "crypto_not_found": "Криптовалюта с этим названием не была найдена.",
    "did_you_mean": "Вы имеете в виду {0}?",
    "self_assign_level_req": "Само-назначаемая роль {0} теперь требует {1} уровень на сервере.",
    "self_assign_not_level": "Эта само-назначаемая роль требует хотя бы {0} уровень на сервере.",
    "invalid": "Неверное значение / Не может быть найдено ({0})",
    "mass_kill_in_progress": "Массовая блокировка и занесение в черный список {0} пользователей в процессе...",
    "mass_kill_completed": "Массовая блокировка и занесение в черный список {0} пользователей было завершено.",
    "club_transfered": "Права владения клуба {0} были переданы {1}",
    "club_transfer_failed": "Передача прав не удалась. Вы должны быть владельцем клуба. Цель должна быть участником твоего клуба.",
    "reaction_roles_message": "**Роли:** {0}\n**Содержимое:** {1}",
    "no_reaction_roles": "На данном сервере не включена функция \"Роль по реакции\"",
    "reaction_role_removed": "Убрано сообщение роли по реакции #{0}",
    "reaction_roles_full": "Вы достигли лимита сообщений \"Ролей по Реакции\". Вам нужно удалить несколько реакций",
    "reminder_list": "Список напоминаний",
    "reminder_deleted": "Напоминание #{0} удалено.",
    "reminder_not_exist": "Напоминание с этим номером не существует.",
    "reminders_none": "Нет напоминаний на этой странице.",
    "bj_created": "создал новую игру в Блэк Джек на этом канале.",
    "bj_joined": "присоединился к игре в Блэк Джек",
    "no_invites": "Нет приглашений на этой странице.",
    "invite_deleted": "Приглашение {0} было удалено.",
    "invalid_emojis": "Все указанные вами эмодзи недействительны.",
    "aliases_cleared": "Все псевдонимы {0} на этом сервере удалены.",
    "vcrole_not_found": "Этот голосовой канал не имеет роли VcRole.",
    "attachments": "Вложения",
    "avatar_changed": "Аватар изменён",
    "banmsg_disabled": "Сообщения о запрете отключены. Вы можете включить их, установив для banmsg значение, отличное от '-'.",
    "banmsg_default": "Сообщение о запрете не установлено. Будет использоваться поведение по умолчанию.",
    "banned_pl": "забанен",
    "bot_name": "Имя бота изменено на {0}",
    "bot_status": "Статус бота изменен на {0}",
    "ch_name_change": "Название канала изменено",
    "ch_old_name": "Старое название",
    "ch_topic_change": "Тема канала изменена",
    "content": "Содержание",
    "server_delmsgoncmd": "Настройка сервера",
    "channel_delmsgoncmd": "Настройки для отдельных каналов",
    "dm_from": "ЛС от",
    "images_loading": "Изображения будут перезагружены в течение нескольких секунд.",
    "insuf_perms_i": "У меня недостаточно прав.",
    "insuf_perms_u": "У вас недостаточно прав.",
    "lang_set_fail": "Не удалось установить языковой стандарт. Еще раз обратитесь к этой команде помощи.",
    "lang_set_show": "Язык этого сервера установлен на {0} - {1}",
    "log": "Регистрация события {0} на этом канале.",
    "log_all": "Регистрация всех событий в этом канале.",
    "log_disabled": "Регистрация событий отключена.",
    "log_events": "Журнал событий, на которые вы можете подписаться:",
    "log_stop": "Прекращено ведение журнала события {0}.",
    "msg_not_found": "Сообщение не найдено.",
    "time_too_long": "Вы указали слишком много времени.",
    "log_vc_moved": "{0} перемещен с {1} на {2} голосовой канал",
    "msg_del": "Сообщение удалено в #{0}",
    "msg_update": "Сообщение обновлено в № {0}",
    "muted_pl": "Приглушенный",
    "muted_sn": "Приглушенный",
    "mute_role": "Текущая роль с отключеным звуком {0}",
    "mute_perms": "Вы не можете отключить звук для пользователя, чья роль выше вашей наивысшей роли в иерархии ролей, если только вы не являетесь владельцем сервера.",
    "new_msg": "Новое сообщение",
    "new_nick": "Новый ник",
    "new_topic": "Новая тема",
    "nick_change": "Псевдоним изменен",
    "no_shard_id": "Осколок с таким ID не обнаружен.",
    "nsfw_set_true": "На этом канале включен NSFW.",
    "nsfw_set_false": "NSFW отключен на этом канале.",
    "old_msg": "Старое сообщение",
    "old_nick": "Старый ник",
    "old_topic": "Старая тема",
    "prot_cant_use_time": "Вы не можете указать продолжительность этого наказания.",
    "rar_err": "Не удалось удалить роли. У меня недостаточно прав.",
    "rc_perms": "Ошибка произошла из-за недопустимого цвета или недостаточных разрешений.",
    "remrole": "Успешно удалена роль {0} пользователя {1}",
    "remrole_err": "Не удалось удалить роль. У меня недостаточно прав.",
    "renrole_err": "Не удалось переименовать роль. У меня недостаточно прав.",
    "renrole_perms": "Вы не можете редактировать роли выше своей или моей высшей роли.",
    "ropl_added": "Добавлено.",
    "ropl_disabled": "Воспроизведения статуса что вращается отключено.",
    "ropl_enabled": "Воспроизведения статуса что вращается включено.",
    "ropl_list": "Вот список вращающихся статусов:\n{0}",
    "ropl_not_set": "Не установлено воспроизведение вращающихся статусов.",
    "setrole_err": "Не удалось добавить роль. У меня недостаточно прав.",
    "set_avatar": "Новый аватар установлен!",
    "set_game": "Новая игра установлена!",
    "set_stream": "Новый стрим установлен!",
    "set_topic": "Новая тема канала установлена.",
    "shard_reconnecting": "Осколок {0} повторно подключается.",
    "soft_banned_pl": "мягкий бан",
    "text_chan_created": "Текстовый канал создан.",
    "text_chan_destroyed": "Текстовый канал уничтожен.",
    "duration": "Продолжительность",
    "unmuted_sn": "Звук включён",
    "unable_to_dm_user": "Отправка ЛС пользователю не удалась.",
    "username_changed": "Имя пользователя изменено",
    "user_banned": "Пользователь забанен",
    "user_joined": "Пользователь присоединился",
    "user_left": "Пользователь ушел",
    "user_role_add": "Роль пользователя добавлена",
    "user_role_rem": "Роль пользователя удалена",
    "user_status_change": "{0} теперь {1}",
    "user_vjoined": "{0} присоединился к голосовому каналу {1}.",
    "user_vleft": "{0} покинул голосовой канал {1}.",
    "user_vmoved": "{0} перемещен из голосового канала {1} в {2}.",
    "voice_chan_created": "Голосовой канал создан",
    "voice_chan_destroyed": "Голосовой канал уничтожен",
    "xmuted_text": "Пользователь {0} из текстового чата, автор {1}",
    "xmuted_text_and_voice": "Пользователь {0} из текстового и голосового чата, автор {1}",
    "xmuted_voice": "Пользователь {0} из голосового чата {1}",
    "user_unbanned": "Пользователь разбанен",
    "presence_updates": "Обновления присутствия",
    "awarded": "наградил {0} пользователя {1}",
    "deck_reshuffled": "Колода перетасована.",
    "flipped": "выкинул {0}.",
    "flip_invalid": "Указан неверный номер. Вы можете подбросить монеты от 1 до {0}.",
    "cards_left": "В колоде осталось {0} карт.",
    "gifted": "подарил {0} пользователю {1}",
    "heads": "Орёл",
    "no_more_cards": "В колоде больше нет карт.",
    "tails": "Решка",
    "take": "успешно взял {0} из {1}",
    "take_fail": "не удалось взять {0} из {1}, потому что у пользователя не так много {2}!",
    "commandlist_regen": "Список команд восстановлен.",
    "desc": "Описание",
    "cant_dm": "Я не могу отправить ЛС. Убедитесь, что ваши ЛС открыты. Перейдите в ** параметры (кнопка с шестеренкой) -> Конфиденциальность и безопасность -> Разрешить прямые сообщения от участников сервера **",
    "donate": "Вы можете поддержать проект AyanokoujiBot на\nПатреон <{0}> или\nPaypal <{1}>\nНе забудьте указать в сообщении свое имя или идентификатор Discord.\n\n** Спасибо ** ♥ ️",
    "guide": "** Список команд **: <{0}>\n** Руководства и документы по хостингу можно найти здесь **: <{1}>",
    "list_of_modules": "Список модулей",
    "autohentai_started": "Автохентай запустился. Репост каждые {0} с одним из следующих тегов:\n{1}",
    "tag": "Тег",
    "animal_race_full": "Гонка заполнена! Начинаю немедленно.",
    "animal_race_join_bet": "{0} присоединился как {1} и сделал ставку {2}!",
    "animal_race_starting_with_x": "Начиная с участников {0}.",
    "animal_race_won_money": "{0} в качестве {1} Выиграл гонку и {2}!",
    "race_not_exist": "На этом сервере нет гонок",
    "second_larger_than_first": "Второе число должно быть больше первого.",
    "waifu_affinity_already": "ваша привязанность уже настроена на этот вайфу, или вы пытаетесь удалить свою привязанность, пока ее нет.",
    "waifu_affinity_changed": "изменили их привязанность с {0} на {1}.\n\n* Это сомнительно с моральной точки зрения. * 🤔",
    "waifu_affinity_cooldown": "Подождите {0} часов и {1} минут, чтобы снова изменить привязку.",
    "waifu_affinity_reset": "Ваша близость сброшена. У тебя больше нет человека, который тебе нравится.",
    "waifu_affinity_set": "хочет быть вайфу {0}. Оуу <3",
    "waifu_isnt_cheap": "Нет таких дешевых вайфу. Вы должны заплатить не менее {0}, чтобы получить вайфу, даже если их фактическая стоимость ниже.",
    "waifu_reset_price": "Цена: {0}",
    "animal_race_already_started": "Animal Race уже запущен.",
    "failed_loading_question": "Не удалось загрузить вопрос.",
    "trivia_win": "{0} угадали и ВЫИГРАЛИ в игре! Ответ был: {1}",
    "trivia_quit": "Вы можете остановить trivia, набрав {0}",
    "dir_queue_complete": "Очередь каталогов завершена.",
    "fp_disabled": "Честная игра отключена.",
    "fp_enabled": "Честная игра включена.",
    "from_position": "С позиции",
    "now_playing": "Сейчас играет",
    "playlists": "`#{0}` - **{1}** от *{2}* ({3} песен)",
    "playlists_page": "Страница {0} сохраненных плейлистов",
    "playlist_deleted": "Плейлист удален.",
    "playlist_delete_fail": "Не удалось удалить этот плейлист. Его либо не существует, либо вы не являетесь его автором.",
    "playlist_id_not_found": "Плейлист с таким ID не существует.",
    "playlist_saved": "Плейлист сохранен",
    "queue": "Очередь",
    "queue_cleared": "Очередь музыки очищена.",
    "set_music_channel": "Теперь я выведу проигранные, завершенные, приостановленные и удаленные песни на этом канале.",
    "unset_music_channel": "Теперь я выведу проигранные, завершенные, приостановленные и удаленные песни вновь созданных музыкальных проигрывателей в канале, с которого была начата музыка.",
    "to_position": "На позицию",
    "volume_input_invalid": "Объем должен быть от 0 до 100",
    "link_filter_channel_off": "Фильтрация ссылок отключена на этом канале.",
    "link_filter_channel_on": "Фильтрация ссылок включена на этом канале.",
    "link_filter_server_off": "Фильтрация ссылок отключена на этом сервере.",
    "link_filter_server_on": "Фильтрация ссылок включена на этом сервере.",
    "avatar_none": "Для пользователя {0} не установлен аватар.",
    "anime_no_fav": "Пока что нет любимого аниме",
    "atl_ad_started": "На этом канале запущен автоматический перевод сообщений. Сообщения пользователей будут автоматически удаляться.",
    "atl_removed": "ваш язык автоматического перевода был удален.",
    "atl_set": "Ваш язык автоматического перевода был установлен на {0}> {1}",
    "atl_started": "На этом канале запущен автоматический перевод сообщений.",
    "atl_stopped": "Остановлен автоматический перевод сообщений на этом канале.",
    "bad_input_format": "Неверный формат ввода или что-то пошло не так.",
    "card_not_found": "Не удалось найти эту карту.",
    "catfact": "факт",
    "comic_not_found": "Комикс не найден.",
    "completed": "Завершено",
    "dropped": "Брошено",
    "error_occured": "Произошла ошибка.",
    "failed_finding_anime": "Не удалось найти это аниму.",
    "failed_finding_manga": "Не удалось найти эту мангу.",
    "imdb_fail": "Не удалось найти этот фильм.",
    "invalid_lang": "Недействительный исходный или целевой язык.",
    "jokes_not_loaded": "Шутки не загружены.",
    "list_of_place_tags": "Список тегов мест {0}",
    "city_not_found": "Город не найден.",
    "magicitems_not_loaded": "Магический предмет не загружен.",
    "mal_profile": "Профиль пользователя MAL {0}",
    "mashape_api_missing": "Владелец бота не указал MashapeApiKey. Вы не можете использовать эту функцию.",
    "no_channel_found": "Канал не найден.",
    "on_hold": "На удерживании",
    "osu_api_key": "osu! Требуется ключ API.",
    "osu_failed": "Не удалось получить osu! подпись.",
    "osu_user_not_found": "Пользователь не найден.",
    "plan_to_watch": "Планирую смотреть",
    "something_went_wrong": "Что-то пошло не так.",
    "specify_search_params": "Укажите параметры поиска.",
    "store_url": "URL магазина",
    "streamer_offline": "Стример {0} не в сети.",
    "streamer_online": "Стример {0} в сети, количество зрителей {1}.",
    "streams_follow_title": "Стримы, за которыми вы следите",
    "streams_none": "Вы не следите за стримами на этом сервере.",
    "stream_no": "Нет такого стрима.",
    "stream_off_enabled": "Уведомления о стримах теперь будут отображаться, когда поток переходит в автономный режим.",
    "stream_off_disabled": "Уведомления о стримах не будут отображаться, когда поток переходит в автономный режим.",
    "stream_not_added": "Стрим не добавлен. Стрим не существует, эта платформа не поддерживается, либо вы достигли максимально допустимого количества потоков.",
    "stream_message_reset": "Сообщение с объявлением для стрима {0} было сброшено.",
    "stream_message_set": "Сообщение с объявлением при переходе стрима {0} в онлайн установлено.",
    "stream_not_following": "Вы не следите за стримом на этом сервере.",
    "stream_removed": "Из уведомлений удален стрим {0} ({1}).",
    "stream_tracked": "Я буду уведомлять этот канал, когда этот стрим появится в сети.",
    "title": "Заголовок:",
    "top_3_fav_anime": "Топ-3 любимых аниме:",
    "translation": "Перевод:",
    "ud_error": "Не удалось найти определение для этого термина.",
    "viewers": "Зрители",
    "watching": "Смотрят",
    "wikia_error": "Не удалось найти этот термин на указанной викии.",
    "wikia_input_error": "Введите целевую викию, а затем поисковый запрос.",
    "wiki_page_not_found": "Страница не найдена.",
    "activity_line": "`{0} .` {1} [{2: F2}/с] - всего {3}",
    "activity_page": "Страница активности #{0}",
    "activity_users_total": "Всего пользователей {0}.",
    "calcops": "Список функций в команде {0}calc",
    "repeater_created": "Повторитель создан",
    "repeater_removed": "Повторитель #{0} удален",
    "no_roles_on_page": "На этой странице нет ролей.",
    "no_shards_on_page": "На этой странице нет осколков.",
    "presence": "Присутствие",
    "presence_txt": "{0} Серверы\n{1} Текстовые каналы\n{2} Голосовые каналы",
    "quotes_deleted": "Удалены все цитаты с ключевым словом {0}.",
    "quotes_page": "Страница цитат {0}",
    "quotes_page_none": "На этой странице цитат не найдено.",
    "quotes_remove_none": "Не найдено цитат, которые можно удалить.",
    "quote_added_new": "Цитата #{0} добавлена.",
    "repeater_redundant_no": "Повторитель ** #{0} ** больше не будет публиковать повторяющиеся сообщения.",
    "repeater_redundant_yes": "Повторитель ** #{0} ** будет публиковать повторяющиеся сообщения.",
    "roles_all_page": "Страница #{0} всех ролей на этом сервере:",
    "roles_page": "Страница #{0} ролей для {1}",
    "showemojis": "** Название: ** {0} ** Ссылка: ** {1}",
    "users": "Пользователи",
    "no_user_on_this_page": "На этой странице нет пользователей.",
    "aliases_none": "Псевдоним не найден",
    "alias_added": "Ввод {0} теперь будет псевдонимом {1}.",
    "alias_list": "Список псевдонимов",
    "alias_removed": "Триггер {0} больше не имеет псевдонима.",
    "alias_remove_fail": "У триггера {0} нет псевдонима.",
    "punishment_unsupported": "С этой функцией нельзя использовать действие наказания {0}.",
    "interval": "Интервал",
    "kicked_pl": "Изгнан",
    "autocmd_add": "Команда {0} будет выполняться каждые {1} в этом канале.",
    "autocmdlist_none": "На этой странице нет автоматических команд.",
    "warn_expire_set_delete": "Предупреждения будут удалены через {0} дн.",
    "warn_expire_set_clear": "Предупреждения будут очищены через {0} дн.",
    "warn_expire_reset": "Предупреждения больше не истекают.",
    "warn_punish_set_timed": "Я применю {0} наказание за {2} к пользователям с предупреждениями {1}.",
    "time_new": "Время",
    "timezone_db_api_key": "Вам необходимо активировать свой ключ API TimezoneDB. Вы можете сделать это, щелкнув ссылку, полученную в электронном письме с вашим ключом API.",
    "rolehoist_enabled": "Роль {0} теперь отображается отдельно от онлайн-участников.",
    "rolehoist_disabled": "Роль {0} больше не отображается отдельно от онлайн-участников.",
    "shop_role_already_bought": "Вы уже купили эту роль.",
    "quotes_notfound": "Цитаты, соответствующие указанному ID цитаты, не найдены.",
    "prefix_new": "Префикс на этом сервере изменен с {0} на {1}",
    "defprefix_new": "Префикс бота по умолчанию изменен с {0} на {1}",
    "bot_nick": "Псевдоним бота изменен на {0}",
    "user_nick": "Псевдоним пользователя {0} изменен на {1}",
    "perm_override": "Для запуска команды {1} пользователям потребуется разрешение {0}.",
    "define_unknown": "Не могу найти определение для этого термина.",
    "queue_stopped": "Плеер остановлен. Используйте команду {0}, чтобы начать играть.",
    "nunchi_started": "Игра «Нунчи» началась с {0} участниками.",
    "bot_strings_reloaded": "Строки бота были перезагружены.",
    "xpn_setting_global": "Уведомления о глобальном повышении уровня",
    "xpn_setting_server": "Уведомления о повышении уровня на сервере",
    "xpn_notif_channel": "В канале, куда вы отправили последнее сообщение.",
    "xpn_notif_dm": "В прямом канале сообщений.",
    "xpn_notif_disabled": "Никуда.",
    "excluded": "{0} исключен из системы XP на этом сервере.",
    "not_excluded": "{0} больше не исключен из системы XP на этом сервере.",
    "exclusion_list": "Список исключений",
    "server_is_excluded": "Этот сервер исключен.",
    "server_is_not_excluded": "Этот сервер не исключен.",
    "level_up_channel": "Поздравляем {0}, вы достигли уровня {1}!",
    "level_up_dm": "Поздравляем {0}, вы достигли уровня {1} на сервере {2}!",
    "level_up_global": "Поздравляем {0}, вы достигли глобального уровня {1}!",
    "level_x": "Уровень {0}",
    "no_level_up_rewards": "На этой странице нет вознаграждения за повышение уровня.",
    "server_leaderboard": "Таблица лидеров XP на сервере",
    "global_leaderboard": "Глобальная таблица лидеров ХР",
    "modified": "Изменен сервер XP пользователя {0} пользователем {1}",
    "template_reloaded": "Шаблон XР был перезагружен.",
    "self_assign_group": "Группа {0}",
    "started": "Начал. Публикации каждые {0} сек.",
    "stopped": "Остановка публикаций.",
    "restart_fail": "Вы должны настроить RestartCommand в своем creds.yml",
    "restarting": "Перезагрузка.",
    "streaming": "Стримит",
    "rafflecur": "{0} Розыгрыш валюты",
    "rafflecur_joined": "Пользователь {0} присоединился к розыгрышу",
    "rafflecur_already_joined": "Вы уже участвовали в розыгрыше или использованное вами значение недействительно.",
    "rafflecur_ended": "Завершился розыгрыш {0}. {1} выиграл {2}!",
    "autodc_enable": "Я отключусь от голосового канала, когда больше не будет песен для воспроизведения.",
    "autodc_disable": "Я больше не буду отключаться от голосового канала, когда больше нет песен для воспроизведения.",
    "failed_finding_novel": "Не могу найти эту новелу. Убедитесь, что вы ввели точное полное имя и что оно существует на novelupdates.com",
    "roll_duel_challenge": "вызван {1} на дуэль за {2}",
    "roll_duel": "Дуель",
    "roll_duel_no_funds": "Либо у вас, либо у вашего оппонента недостаточно средств.",
    "roll_duel_timeout": "Вызов на дуэль не был принят.",
    "roll_duel_already_challenged": "Этот пользователь уже вызвал вас на дуэль.",
    "account_not_found": "Эта учетная запись не существует или настроена как конфиденциальная.",
    "ninja_not_found": "Валюта с таким названием не найдена или указано неверное название лиги.",
    "leagues_not_found": "Невозможно получить данные из Path of Exile API.",
    "perm_override_page_none": "На этой странице нет переопределения.",
    "perm_override_all": "Все переопределения разрешений для Discord были удалены.",
    "perm_override_all_confirm": "Вы уверены, что хотите удалить ** ВСЕ ** переопределения разрешений Discord на этом сервере? Это действие необратимо.",
    "perm_overrides": "Переопределение разрешений в Discord",
    "perm_override_reset": "Переопределения разрешений Discord для этой команды были удалены.",
    "reset": "Сброс ХР",
    "reset_server_confirm": "Вы уверены, что хотите сбросить XP всех пользователей на сервере?",
    "reset_user_confirm": "Вы уверены, что хотите сбросить XP указанного пользователя на этом сервере?",
    "reset_user": "Пользователь с идентификатором {0} сбросил свой XP на этом сервере.",
    "reset_server": "ХР всех пользователей на сервере сброшена.",
    "economy_state": "Состояние экономики",
    "currency_owned": "Общая валюта, принадлежащая пользователям",
    "currency_one_percent": "% валюты принадлежащий топу 1%",
    "currency_planted": "Валюта в настоящее время заложена",
    "owned_waifus_total": "Общая стоимость находящихся в собственности вайфу",
    "bot_currency": "Валюта, принадлежащая боту",
    "total": "Всего",
    "group_name_added": "Группа #{0} теперь имеет название: {1}",
    "group_name_removed": "Группа #{0} больше не имеет названия.",
    "quote_id": "Цитата {0}",
    "aar_none": "При присоединении к этому серверу пользователи не получают никаких ролей.",
    "aar_roles": "К пользователям, присоединяющимся к этому серверу, применяются следующие роли: {0}",
    "aar_role_removed": "Пользователи больше не будут получать роль {0}, когда присоединятся к этому серверу.",
    "remove_roles_pl": "были удалены их роли",
    "role_too_high": "Вы не можете использовать эту команду с ролями выше вашей наивысшей роли, если вы не являетесь администратором сервера.",
    "log_vc_joined": "{0} присоединился к голосовому каналу {1}",
    "log_vc_left": "{0} покинул голосовой канал {1}",
    "protection_not_running": "Защита {0} не включена.",
    "anti_alt_status": "К любому пользователю, присоединяющемуся к серверу с учетной записью не старше {0}, будет применено следующее действие: {1}\nНа данный момент наказаны: {2}",
    "mass_take": "Взято {0} от {1} пользователей в роли {2}.",
    "_8ball": "8ball",
    "repeating_none": "Плеер остановится, как только будет достигнут конец очереди.",
    "repeating_queue": "Плеер повторит очередь.",
    "current_music_quality": "Текущее качество музыки: {0}",
    "music_quality_set": "Качество музыки установлено на {0}. Вам нужно будет уничтожить и перезапустить музыкальный проигрыватель, чтобы изменения вступили в силу.",
    "blacklisted_users": "Пользователи из черного списка",
    "blacklisted_channels": "Каналы из черного списка",
    "blacklisted_servers": "Сервера из черного списка",
    "_class": "Класс",
    "stream_not_following_any": "Вы не следите ни за одним стримом.",
    "stream_message_set_all": "Все отслеживаемые стримы {0} теперь имеют указанное сообщение с объявлением.",
    "repeater_exceed_limit": "У вас не может быть более {0} повторителей на сервер.",
    "repeater_remove_fail": "Не удалось удалить повторитель по этому индексу. Либо вы указали недопустимый индекс, либо повторитель в это время находился в состоянии выполнения, и в этом случае повторите попытку через несколько секунд.",
    "interval_colon": "Интервал:",
    "executes_in_colon": "Выполняется в:",
    "message_colon": "Сообщение:",
    "no_redundant": "Не буду публиковать повторяющееся сообщение.",
    "remind_invalid": "Недействительный формат напоминания. Напоминание должно иметь цель, таймер и причину. Проверьте список команд.",
    "user_voice_mute_time": "{0} был ** отключен звук ** в течение {1} минут.",
    "user_chat_mute_time": "{0} ** отключен чат ** в течение {1} минут.",
    "acrm_fail": "Автоматическая команда не найдена в указанном индексе.",
    "warns_dont_expire": "Предупреждения не имеют срока действия.",
    "warns_expire_in": "Срок действия предупреждений истечет через {0} дн.",
    "not_with_bot_in_voice": "Вы не находитесь в том же голосовом канале, что и бот.",
    "waifu_gift_not_exist": "Этот предмет вайфу не существует",
    "fans": "Поклонники ({0})",
    "config_edit_fail": "Не удалось установить {0} значение {1}",
    "config_not_found": "Конфигурация {0} не найдена",
    "config_prop_not_found": "Свойство {0} не найдено в конфигурации {1}",
    "config_list": "Список свойств",
    "level_req": "Уровень Треб.",
    "xprewsreset_confirm": "Вы уверены, что хотите удалить ВСЕ награды за повышение уровня опыта с этого сервера? Это действие необратимо.",
    "xp_role_reward_cleared": "Достижение уровня {0} больше не будет вознаграждать роль.",
    "club_name_too_long": "Название клуба слишком длинное.",
    "club_user_not_in_club": "{0} не состоит в клубе.",
    "reaction_cant_access": "Я не могу получить доступ к реакции {0}. Вы можете использовать эмоции только с серверов, на которых я работаю.",
    "module_footer": "{0}cmds {1}",
    "module_page_empty": "На этой странице нет модуля.",
    "module_description_help": "Получите справку по командам, описания и примеры использования",
    "module_description_gambling": "Ставки на броски костей, блэкджек, слоты, койнфлип и другие",
    "module_description_games": "Играйте в trivia, нунчи, виселица, коннект4 и другие игры",
    "module_description_nsfw": "Команды NSFW.",
    "module_description_music": "Воспроизведение музыки с YouTube, локальных файлов, звукового облака и радиопотоков",
    "module_description_utility": "Управляйте кастомными цитатами, повторяйте сообщения и проверяйте факты о сервере",
    "module_description_administration": "Модерация, наказание пользователей, установка самопределяемых ролей и приветственные сообщения",
    "module_description_permissions": "Настройка разрешений для команд, фильтрация слов и настройка времени восстановления команд",
    "module_description_searches": "Поиск шуток, изображений животных, аниме и манги",
    "module_description_xp": "Получайте опыт на основе активности в чате, проверяйте карты опыта пользователей",
    "module_description_missing": "Описание этого модуля отсутствует.",
    "obsolete_use": "⚠ Устарело, используйте вместо него {0}.",
    "purge_user_confirm": "Вы уверены, что хотите удалить {0} из базы данных?",
    "expr_import_no_input": "Некорректный ввод. Не найдено ни одного допустимого файла для загрузки или ввода текста.",
    "expr_import_invalid_data": "Невозможно проанализировать файл. Убедитесь, что это действительный файл .yml",
    "inv_expire": "Истекает:",
    "inv_uses": "Использует:",
    "empty_page": "Эта страница пуста.",
    "pages": "Страницы",
    "favorites": "Любимое",
    "tags": "Теги",
    "invalid_emoji_link": "Указанная ссылка либо не является изображением, либо превышает 256 КБ.",
    "emoji_add_error": "Ошибка добавления эмодзи. Либо у вас закончились слоты для смайликов, либо размер изображения не отвечающий требованиям.",
    "emoji_added": "Добавлен новый эмодзи: {0}",
    "boost_on": "На этом канале включены объявления бустов.",
    "boost_off": "Буст-объявления отключены.",
    "boostmsg_cur": "Текущее буст сообщение: {0}",
    "boostmsg_enable": "Включите буст сообщения, набрав {0}",
    "boostmsg_new": "Новый набор буст сообщений.",
    "boostdel_off": "Автоматическое удаление буст-сообщений отключено.",
    "boostdel_on": "Бусте сообщения будут удалены через {0} секунд.",
    "log_ignored_channels": "Игнорируемые каналы",
    "log_ignored_users": "Игнорируемые пользователи",
    "log_ignore_user": "Логирование будет игнорировать пользователя {0}",
    "log_not_ignore_user": "Логирование больше не будет игнорировать пользователя {0}",
    "log_ignore_chan": "Логирование будет игнорировать канал {0}",
    "log_not_ignore_chan": "Логирование больше не будет игнорировать канал {0}",
    "streams_cleared": "Все стримы, отслеживаемые на этом сервере, были удалены.",
    "warn_weight": "Вес: {0}",
    "warn_count": "{0} текущий, {1} всего",
    "mass_ban_in_progress": "Блокировка {0} пользователей...",
    "mass_ban_completed": "Заблокировано {0} пользователей.",
    "reminder_server_list": "Список напоминаний сервера",
    "imageonly_enable": "Этот канал теперь только для изображений.",
    "imageonly_disable": "Этот канал больше не предназначен только для изображений.",
    "transaction": "",
    "finished_track": "",
    "playing_track": "",
    "queued_track": "",
    "removed_track": "",
    "autoplaying": "",
    "music_autoplay_on": "",
    "music_autoplay_off": "",
    "track_moved": "",
    "atl_not_enabled": "",
    "channels": "",
    "track_not_found": "",
    "removed_track_error": "",
    "market_cap_dominance": "",
    "circulating_supply": "",
    "module_description_expressions": "",
    "deleted_x_servers": "",
    "curtr_gift": "",
    "curtr_award": "",
    "curtr_take": "",
    "expr_deleted": "",
    "expr_insuff_perms": "",
    "expressions": "",
    "expr_new": "",
    "expr_no_found": "",
    "expr_no_found_id": "",
    "exprs_cleared": "",
    "expr_reset": "",
    "expr_set": "",
    "expr_edited": "",
    "stream_online_delete_enabled": "",
    "stream_online_delete_disabled": "",
    "club_create_error_name": "",
    "club_desc_update": "",
    "bank_accounts": "",
    "module_description_medusa": "",
    "list_of_medusae": "",
    "list_of_unloaded": "",
    "medusa_name_not_found": "",
    "medusa_info": "",
    "sneks_count": "",
    "commands_count": "",
    "no_medusa_loaded": "",
    "no_medusa_available": "",
    "loaded_medusae": "",
    "medusa_not_loaded": "",
    "medusa_possibly_cant_unload": "",
    "medusa_loaded": "",
    "medusa_unloaded": "",
    "medusa_empty": "",
    "medusa_already_loaded": "",
    "medusa_invalid_not_found": "",
    "bank_balance": "",
    "bank_deposited": "",
    "bank_withdrew": "",
    "bank_withdraw_insuff": "",
    "cmd_group_commands": "",
    "limit_reached": "",
    "feature_limit_reached_you": "",
    "feature_limit_reached_owner": "",
    "feature_limit_reached_either": "",
    "tier": "",
    "pledge": "",
    "expires": "",
    "commands": "",
    "groups": "",
    "modules": "",
    "no_quota_found": "",
    "patron_info": "",
    "quotas": "",
    "patron_not_enabled": "",
    "results_in": "",
    "patron_msg_sent": "",
    "cards": "",
    "hand_value": "",
    "roll2": "",
    "rolls": "",
    "available_tests": "",
    "test_results_for": "",
    "multiplier": "",
    "trivia_ended": "",
    "card": "",
    "guess": "",
    "repeater_skip_next": "",
    "repeater_dont_skip_next": "",
    "remind_timely": "",
    "xp_shop_disabled": "",
    "timely_time": "",
    "buy": "",
    "use": "",
    "in_use": "",
    "xp_shop_item_cant_use": "",
    "linkonly_enable": "",
    "linkonly_disable": "",
    "xp_shop_buy_required_tier": "",
    "available_commands": "",
    "xpadd_users": "",
    "xpshop_buy_success": "",
    "patron_insuff_tier": "",
    "xpshop_already_owned": "",
    "xpshop_item_not_found": "",
    "xpshop_website": ""
}